{
"url": "https://www.sadanduseless.com/closeup-cat-photos/#more-65208",
"title": " Curious Cats Bumping Into Cameras",
"meta": "{'description': 'Cats are known for being highly curious, always investigating things in their environment. When their curiosity meets photo camera lens, the result is often quite funny.', 'og:type': 'article', 'og:title': 'Curious Cats Bumping Into Cameras'}",
"article_content": "Curious Cats Bumping Into Cameras 3 CommentsCats are known for being highly curious, always investigating things in their environment. When their curiosity meets photo camera lens, the result is often quite funny. Scroll down to see the best examples.\n.\n.",
"comments_found": "False",
"comments": null,
"img": "[[None, 'https://sadanduseless.b-cdn.net/wp-content/uploads/2018/11/funny-cat-closeup5.jpg', 'Funny cat closeup photo.', '660', '660'], [None, 'https://sadanduseless.b-cdn.net/wp-content/uploads/2018/11/funny-cat-closeup3.jpg', 'Funny cat closeup photo.', '660', '660'], [None, 'https://sadanduseless.b-cdn.net/wp-content/uploads/2018/11/funny-cat-closeup1.jpg', 'Funny cat closeup photo.', '660', '660'], [None, 'https://sadanduseless.b-cdn.net/wp-content/uploads/2018/11/funny-cat-closeup4.jpg', 'Curious cat closeup photo.', '660', '495'], [None, 'https://sadanduseless.b-cdn.net/wp-content/uploads/2018/11/funny-cat-closeup2.jpg', 'Cat bumping into photo camera.', '660', '570'], [None, 'https://sadanduseless.b-cdn.net/wp-content/uploads/2018/11/funny-cat-closeup6.jpg', 'Curious cat closeup photo.', '660', '660'], [None, 'https://sadanduseless.b-cdn.net/wp-content/uploads/2018/11/funny-cat-closeup7.jpg', 'Funny cat closeup photo.', '660', '600'], [None, 'https://sadanduseless.b-cdn.net/wp-content/uploads/2018/11/funny-cat-closeup8.jpg', 'Funny cat closeup photo.', '660', '660'], [None, 'https://sadanduseless.b-cdn.net/wp-content/uploads/2018/11/funny-cat-closeup9a.jpg', 'Funny cat bumping into camera.', '660', '540'], [None, 'https://sadanduseless.b-cdn.net/wp-content/uploads/2018/11/funny-cat-closeup10.jpg', 'Cute cat nose closeup photo.', '660', '564'], [None, 'https://sadanduseless.b-cdn.net/wp-content/uploads/2018/11/funny-cat-closeup11.jpg', 'Cute cat nose closeup photo.', '660', '660'], [None, 'https://sadanduseless.b-cdn.net/wp-content/uploads/2018/11/funny-cat-closeup12.jpg', 'Fisheye lens cat closeup photo.', '660', '660'], [None, 'https://sadanduseless.b-cdn.net/wp-content/uploads/2018/11/funny-cat-closeup13.jpg', 'Funny cat closeup photo.', '660', '575'], [None, 'https://sadanduseless.b-cdn.net/wp-content/uploads/2018/11/funny-cat-closeup14.jpg', 'Funny cat closeup photo.', '660', '595'], [None, 'https://sadanduseless.b-cdn.net/wp-content/uploads/2018/11/funny-cat-closeup15.jpg', 'Funny cat closeup photo.', '660', '495'], [None, 'https://sadanduseless.b-cdn.net/wp-content/uploads/2018/11/funny-cat-closeup16.jpg', 'Funny cat closeup photo.', '660', '495'], [None, 'https://sadanduseless.b-cdn.net/wp-content/uploads/2018/11/funny-cat-closeup18a.jpg', 'Curious cat closeup photo.', '660', '495'], [None, 'https://sadanduseless.b-cdn.net/wp-content/uploads/2018/11/funny-cat-closeup17.jpg', 'Funny cat closeup photo.', '660', '660'], [None, 'https://sadanduseless.b-cdn.net/wp-content/uploads/2018/11/funny-cat-closeup19a.jpg', 'Curious cat bumping into camera.', '660', '660'], [None, 'https://sadanduseless.b-cdn.net/wp-content/uploads/2018/11/funny-cat-closeup20.jpg', 'Funny curious cat.', '660', '495']]",
"class": "funny_cats"
}