{
"url": "https://www.petfinder.com/cats/cat-care/beating-boredom-cat/",
"title": "How to Avoid Kitty Boredom | Petfinder",
"meta": "{'description': \"Enriching your kitty's environment is crucial for his happiness. Learn how!\", 'og:type': 'article', 'og:title': 'How to Avoid Kitty Boredom | Petfinder', 'og:site_name': 'Petfinder'}",
"article_content": "How to Avoid Kitty Boredom | Petfinder\nlogo-consumericon-accountsicon-search\nTo stay signed in, click continue\nYou will be logged out of your account in 2 minutes\nSign Out\nLog in to Petfinder\nPassword\nLog in\nForgot Password?\nDon't have an account?\nRegister now\nPetfinder Makes Adopting Easier\nCreate and save your adopter profile.\nSave and manage your pet searches and email communications.\nLearn helpful pet care tips and receive expert advice.\nGet involved and help promote adoptable pets in your area.\nClose this dialog\nFirst Name\nLast Name\nChoose country\nPetfinder Is Available Only In Specific Regions\nPetfinder currently includes pets and adoption organizations from the regions listed above. Please check back in the future for any potential expansion.\nPostal Code\nYou will use your email address to log in\nYou will use your email address to log in\nTo keep your account secure, your new password must be at least 8 characters long and contain a minimum of 3 of the following: 1 number, 1 lowercase letter, 1 uppercase letter or 1 special character.\nPassword Requirements\nMust be at least 8 characters\nMust contain at least 3 out of 4 of these:\nCapital letters\nLowercase letters\nSpecial characters\nNumbers\nValid!\nConfirm Password\nClose this dialog\nPetfinder Logo\nSkip to content\nFind a Pet\nResources\nResources\nSearch Articles:\nSubmit Search\nClose Search\nSign In / Register\nDog Breeds\nCat Breeds\nAbout Pet Adoption\nDog Adoption\nCat Adoption\nOther Pet Adoption\nHappy Tails Pet Adoption Stories\nPet Adoption Information\nExotic Pets\nDog Care\nDog Adoption\nDog Breeds\nBringing A Dog Home\nDog Nutrition\nDog Training\nDog Problems\nDog Grooming\nPet Care Videos\nCat Care\nCat Adoption\nCat Breeds\nBringing A Cat Home\nCat Nutrition\nCat Behavior & Training\nCat Problems\nCat Grooming\nPet Care Videos\nAll Pet Care\nPet Care Videos\nCats\nHorses\nSmall And Furry Pets\nShelters & Rescues\nFind an Animal Shelter or Rescue Group\nStarting A Pet-Adoption Organization\nVolunteering With Dogs\nVolunteering With Cats\nVolunteering With Shelters & Rescues\nFostering Dogs\nFostering Cats\nHelping Pets\nGet Involved\nRead Our Blog\nPut Petfinder on Your Site\nPetfinder Foundation\nClose Resources Navigation Menu\nClose Resources Navigation Menu\nDog Breeds\nCat Breeds\nAbout Pet Adoption\nOverview Dog Adoption\nCat Adoption\nOther Pet Adoption\nHappy Tails Pet Adoption Stories\nPet Adoption Information\nExotic Pets\nClose Main Navigation Menu.\nGo back to the top level navigation.\nDog Care\nOverview Dog Adoption\nDog Breeds\nBringing A Dog Home\nDog Nutrition\nDog Training\nDog Problems\nDog Grooming\nPet Care Videos\nClose Main Navigation Menu.\nGo back to the top level navigation.\nCat Care\nOverview Cat Adoption\nCat Breeds\nBringing A Cat Home\nCat Nutrition\nCat Behavior & Training\nCat Problems\nCat Grooming\nPet Care Videos\nClose Main Navigation Menu.\nGo back to the top level navigation.\nAll Pet Care\nOverview Pet Care Videos\nCats\nHorses\nSmall And Furry Pets\nClose Main Navigation Menu.\nGo back to the top level navigation.\nShelters & Rescues\nOverview Find an Animal Shelter or Rescue Group\nStarting A Pet-Adoption Organization\nVolunteering With Dogs\nVolunteering With Cats\nVolunteering With Shelters & Rescues\nFostering Dogs\nFostering Cats\nClose Main Navigation Menu.\nGo back to the top level navigation.\nHelping Pets\nOverview Get Involved\nRead Our Blog\nPut Petfinder on Your Site\nPetfinder Foundation\nClose Main Navigation Menu.\nGo back to the top level navigation.\nSearch\nSign In/Register\nClose Main Navigation Menu\nFind a dog\nFind a cat\nFind Other Pets\nSaved searches\nMain Content\nHomeCatsCaring for Cats\nHow to Avoid Kitty Boredom\nW.R. Shaw\nThere is ample evidence that cats who spend their lives entirely indoors live much longer than their outdoor-only counterparts. But keeping an indoor cat happy as well as healthy means providing more than just good nutrition and regular veterinary care \u2013 you must also enrich your kitty\u2019s environment. Eliciting a cat\u2019s natural behaviors with hunting and foraging games can do wonders for your companion\u2019s well-being.\nWith a little creativity, you can keep your cat stimulated and interested, even in a small apartment and on a limited budget. And the good news is that enrichment research has shown that toys that are removed and then returned after several weeks regain much of their novelty; extend your enrichment budget by rotating your cat\u2019s toys regularly. Get started with a few of these feline friendly activities, but begin slowly and be sure to get a thumbs up from kitty\u2019s veterinarian.\nForaging Fun\nSeparate each day\u2019s food rations into small batches. Place the clusters around the house and then toss a few small treats in random directions. Not only will this encourage active foraging, it\u2019ll also keep kitty from scarfing down her food too quickly.\nPleasurable Puzzles\nToss a few treats into a square Rubbermaid\u00ae bottle and leave it on the floor with the lid off for a great beginner puzzle.\nAny plastic container with a secure lid can become a hanging puzzle. Just cut two or three slots around the bottom outer edge of the container and place a few treats in the center. String a cord through the lid and hang this puzzle over a doorknob. Once your cat gets the hang of it, you can encourage exercise by raising it higher.\nScent Searching\nUse old socks as washable scent baits. Just mark the sock with a dab of perfume, lotion, vanilla extract or even peanut butter, or place a pinch of any aromatic spice inside, then rub it over a slice of lunchmeat to pick up the scent. Scatter the socks throughout the house and your cat will be on the prowl for hours, delighted by the variety of scents. If you\u2019re pressed for time, simply mark a scent trail with a bit of cheese and then hide the cheese at the end of the trail.\nBird Watching\nAttach a suction-cup bird feeder outside your cat\u2019s favorite window. Hungry birds will provide hours of entertainment. Don\u2019t place feeders too close to the ground as it leaves birds vulnerable to enemy attacks, and be sure to keep the window closed \u2013 \u2018excited cats can push right through screens.\nMouse Trap\nLeave a ping-pong ball in the bathtub and watch as your cat makes it sail around the curves during her hunt for the elusive orb.\nCrafty Cardboard\nUse cardboard boxes as beds, dens, tunnels and mazes.\nMake a \u201cbusy box\u201d by attaching small toys to short lengths of cord and suspending them from the ceiling of a large box. Cut window flaps in the den at various heights.\nAdd a \u201cTiger Tug,\u201d \u2018 a miniature version of a game popular with both tigers and chimps. Feed both ends of a length of parachute cord into the box through small holes. Tie a toy or a large knot on each end. When the cat tugs at one end, the other end mysteriously comes to life. For multicat households, run the ends into separate boxes.\nW.R. Shaw is a freelance writer who lives and works in the Pacific Northwest. She credits her expertise in enrichment to 16 years working with chimpanzees and to the playful demands of her Norwegian forest cat, Finn.\n\u00a9 ASPCA 2002\nASPCA Animal Watch \u2013 Fall 2002\nShare this Article\nMore in Cat Enrichment\n6 Ways to Beat Cat Boredom\nLearn how to keep your cat from getting bored with these six fun activities.\nHow Should I Choose a Scratching Post?\nFat Cats and Treat Balls\nBirds for Cats? How to Set Up a Bird Feeder for Indoor Cats\nEntertainment for Cats: 5 Ways to Keep Kitty Happy\nRead More\nRecently Viewed Pets\nFinding pets for you\u2026\nMORE ADOPTION RESOURCES\nDog Breeds\nCat Breeds\nHome Forever Home New Pet Guide\nRead Adoption Stories\nExplore More\nEvents near you\nPetfinder Logo\nAbout Petfinder\nAbout Petfinder\nPartnerships\nTerms of Service\nMobile Site & Apps\nPetfinder Foundation\nFree Widgets & Graphics\nFor Developers\nContact Us\nPet Adoption\nDog Adoption\nCat Adoption\nOther Pet Adoption\nSearch Adoption Organizations\nPet-Adoption Stories\nLocal Adoption Events\nShelters & Rescues\nPet Care Topics\nDog Care\nDog Breeds\nCat Care\nCat Breeds\nAll Pet Care\nPet Care Videos\nHelping Pets\nPrivacy Policy\nAbout Our Ads\nShelter & Rescue Login\nShelter & Rescue Registration\nTo get the latest on pet adoption and pet care, sign up for the Petfinder newsletter.\nSign Up\nTwitter\nYouTube\n\u00a92019 Petfinder.com\nAll trademarks are owned by Soci\u00e9t\u00e9 des Produits Nestl\u00e9 S.A., or used with permission.\nicon-404icon-alertBell_checkedicon-alertBellicon-binocularsdevicesicon-resourcesicon-sheltericon-sheltericon-sheltericon-paw_colorPrimaryicon-paw_colorWhiteicon-pawicon-404icon-404icon-accounticon-account_colorPrimaryicon-addAnimalicon-addUsericon-alerticon-arrowDownSmallicon-arrowRightSmallicon-articleicon-calendaricon-check_colorDarkicon-check_colorPrimaryicon-check_colorWhiteicon-checkicon-chevronDown_colorDarkicon-chevronDown_colorPrimaryicon-chevronDown_colorDarkicon-chevronDownicon-chevronLeft_colorDarkicon-chevronLeft_colorPrimaryicon-chevronLeft_colorWhiteicon-chevronLefticon-chevronRight_colorDarkicon-chevron_colorPrimaryicon-chevron_colorWhiteicon-chevronRighticon-chevronUp_colorDarkicon-chevronUp_colorPrimaryicon-chevronUp_colorWhiteicon-chevronUpicon-circleAlerticon-circleBorderPlayicon-circleBorderPlus_colorPrimaryS2icon-circleBorderPlusicon-circleBorderQuestionicon-circleCheck_colorPrimaryS1icon-circleCheckicon-circleDeletedicon-cicleDownArrowicon-circleEditicon-circleMinus_colorPrimaryS1icon-circleMinusicon-ciclePlusicon-cicleQuestionicon-circleTransferredicon-circleUndeletedicon-close_colorDarkicon-close_colorPrimaryicon-close_colorWhiteicon-close_colorWhiteicon-closeicon-dashboardicon-editicon-emailicon-eventsicon-expandicon-facebookicon-favoriteicon-filtericon-gearicon-hoursicon-instagramicon-linkicon-location_colorPrimaryicon-locationicon-lockmenumenuicon-pauseicon-pawicon-phoneicon-photoicon-pinteresticon-playicon-printicon-privateicon-reportingicon-rssicon-saveicon-searchicon-searchicon-shareicon-shareicon-shareicon-share_colorWhiteStrokeDarkicon-share_outlineicon-shareicon-sizeExtraLargeicon-sizeLargeicon-sizeMediumicon-sizeSmallicon-trashicon-twittericon-videoicon-viewicon-youtube",
"comments_found": "False",
"comments": null,
"img": "[[None, 'https://d17fnq9dkz9hgj.cloudfront.net/uploads/2012/11/147243300-beating-boredom-cat-632x475.jpg', 'kitten playing with toys'], [None, 'https://d17fnq9dkz9hgj.cloudfront.net/uploads/2012/11/147243300-beating-boredom-cat-632x475.jpg', 'Keeping Your Cat from Getting Bored'], [None, 'https://d17fnq9dkz9hgj.cloudfront.net/uploads/2012/11/91716266-merial-puppy-fleas-ticks-251x1891.jpg', 'labrador puppy lying down']]",
"class": "cats"
}