{
"url": "https://www.sadanduseless.com/cat-army/#more-67016",
"title": " Cats In Cardboard Tanks",
"meta": "{'description': 'Indisputable proof that cats are building an army to finally take over the world.', 'og:type': 'article', 'og:title': 'Cats In Cardboard Tanks'}",
"article_content": "Cats In Cardboard Tanks 10 CommentsSome people may find these pictures funny, but we are seriously worried because this is an indisputable proof that cats are building an army to finally take over the world.\n.\n.",
"comments_found": "False",
"comments": null,
"img": "[[None, 'https://sadanduseless.b-cdn.net/wp-content/uploads/2019/01/cat-in-tank1.jpg', 'Cat general in a tank.', '660', '660'], [None, 'https://sadanduseless.b-cdn.net/wp-content/uploads/2019/01/cat-in-tank2.jpg', 'Cat in a main battle tank.', '660', '660'], [None, 'https://sadanduseless.b-cdn.net/wp-content/uploads/2019/01/cat-in-tank7.jpg', 'Cat in a Furry tank.', '660', '495'], [None, 'https://sadanduseless.b-cdn.net/wp-content/uploads/2019/01/cat-in-tank5.jpg', 'Cat in a cardboard tank.', '660', '660'], [None, 'https://sadanduseless.b-cdn.net/wp-content/uploads/2019/01/cat-in-tank4.jpg', 'American cat in a tank.', '660', '660'], [None, 'https://sadanduseless.b-cdn.net/wp-content/uploads/2019/01/cat-in-tank3.jpg', 'Kitten in a tank.', '660', '495'], [None, 'https://sadanduseless.b-cdn.net/wp-content/uploads/2019/01/cat-in-tank6.jpg', 'Cat in a cardboard tank.', '660', '594'], [None, 'https://sadanduseless.b-cdn.net/wp-content/uploads/2019/01/cat-in-tank9.jpg', 'Cat standing on his tank.', '660', '495'], [None, 'https://sadanduseless.b-cdn.net/wp-content/uploads/2019/01/cat-in-tank8.jpg', 'Cat tank commander.', '660', '540'], [None, 'https://sadanduseless.b-cdn.net/wp-content/uploads/2019/01/cat-in-tank10.jpg', 'American cat tank commander.', '660', '495'], [None, 'https://sadanduseless.b-cdn.net/wp-content/uploads/2019/01/cat-in-tank21.gif', 'Cat in a cardboard tank.', '660', '660'], [None, 'https://sadanduseless.b-cdn.net/wp-content/uploads/2019/01/cat-in-tank19.jpg', 'Soviet army cat in a tank.', '660', '495'], [None, 'https://sadanduseless.b-cdn.net/wp-content/uploads/2019/01/cat-in-tank12.jpg', 'Cat getting ready to get into a cardboard tank.', '660', '660'], [None, 'https://sadanduseless.b-cdn.net/wp-content/uploads/2019/01/cat-in-tank13.jpg', 'Cat in a tank.', '660', '495'], [None, 'https://sadanduseless.b-cdn.net/wp-content/uploads/2019/01/cat-in-tank14.jpg', 'Cat tank commander in his cardboard tank.', '660', '660'], [None, 'https://sadanduseless.b-cdn.net/wp-content/uploads/2019/01/cat-in-tank15.jpg', 'Cat in a cardboard tank.', '660', '660'], [None, 'https://sadanduseless.b-cdn.net/wp-content/uploads/2019/01/cat-in-tank16.jpg', 'Cat standing on his cardboard tank.', '660', '518'], [None, 'https://sadanduseless.b-cdn.net/wp-content/uploads/2019/01/cat-in-tank17.jpg', 'Cat in a cardboard tank.', '660', '660'], [None, 'https://sadanduseless.b-cdn.net/wp-content/uploads/2019/01/cat-in-tank18.jpg', 'Cat in his cardboard tank.', '660', '660'], [None, 'https://sadanduseless.b-cdn.net/wp-content/uploads/2019/01/cat-in-tank20.jpg', 'Cat ir a cardboard tank.', '660', '760'], [None, 'https://sadanduseless.b-cdn.net/wp-content/uploads/2019/01/cat-in-tank11.jpg', 'Cat in cardboard tank.', '660', '685']]",
"class": "funny_cats"
}