{
"url": "https://www.huffpost.com/entry/your-cat-is-an-alien_n_568ebbe6e4b0a2b6fb6f30ff",
"title": "8 Signs Your Cat Is Definitely An Alien | HuffPost Life",
"meta": "{'keywords': 'Cats cat video Video cute cats funny cat videos meow outspeak', 'description': \"It's time to find out.\", 'og:type': 'article', 'og:title': '8 Signs Your Cat Is Definitely An Alien', 'og:site_name': 'HuffPost'}",
"article_content": "Fill 8 Copy 2Created with Sketch.If you have a \"cat\" at home, you may have at one time or another asked yourself whether he or she is really a cat. Sometimes your pet does cat-like things, including playing with yarn and being all cute with a whooshy tail, but other times kitty does things that seem more ... extraterrestrial.Use the video from Cole And Marmalade above as a guide to determine whether you've got a cat for a pet or something else.You can find more from these cute kitties on YouTube, Facebook, Twitter and Instagram.Related on HuffPost:Purrfect Gifts For Cat LoversSEE GALLERYSuggest a correctionMORE:Catscat videoVideocute catsfunny cat videos",
"comments_found": "False",
"comments": null,
"img": "[[None, 'https://img.huffingtonpost.com/asset/580e5d191700009c2aacddc7.jpeg?cache=0AeDQolEwg&ops=scalefit_960_noupscale', '', '960', '720']]",
"class": "funny_cats"
}