{
"url": "https://www.britannica.com/animal/Himalayan",
"title": "Himalayan | breed of cat | Britannica.com",
"meta": "{'keywords': 'Himalayan, encyclopedia, encyclopeadia, britannica, article', 'description': 'Himalayan: Himalayan, breed of domestic cat with the colouring of the Siamese and the build and coat of the longhair, or Persian. The Himalayan is produced by matings between Siamese and longhairs followed by selected breeding of the offspring to bring out the proper colouring, coat, and build. A good', 'og:type': 'ARTICLE', 'og:title': 'Himalayan | breed of cat', 'og:site_name': 'Encyclopedia Britannica'}",
"article_content": "Himalayan, also called colourpoint, or colorpoint,\nbreed of domestic cat with the colouring of the Siamese and the build and coat of the longhair, or Persian. The Himalayan is produced by matings between Siamese and longhairs followed by selected breeding of the offspring to bring out the proper colouring, coat, and build. A good Himalayan is cobby (of stocky build) and short-legged with long, soft fur, a broad, rounded head, and round blue eyes. Born cream-coloured, it later develops the darker points (ears, face, legs, and tail) of the Siamese. The points, as in the Siamese, may be deep brown (seal point), lighter brown (chocolate point), blue gray (blue point), pinkish gray (lilac point), or reddish orange (red point).longhair catLearn more about rare exotic breeds of longhaired cats such as the Himalayan and the Maine Coon.Encyclop\u00e6dia Britannica, Inc.\nThis article was most recently revised and updated by Letricia Dixon, Copy Editor.\nLearn More in these related Britannica articles:\n\u2026ears, legs, and tail) are Himalayans, or colourpoints. Similarly marked longhairs with white paws are called Birmans. Peke-faced longhairs have short, pushed-in, Pekingese-like faces.\u2026\nCat,\n(Felis catus),\ndomesticated member of the family Felidae, order Carnivora, and the smallest member of that family. Like all felids, domestic cats are characterized by supple low-slung bodies, finely molded heads, long tails that aid in balance, and specialized teeth and claws\u2026\nSiamese,\npopular short-haired breed of domestic cat originally from Thailand, a country whose official name was Siam until 1939. The Siamese is a lithe long-bodied cat with slim legs and a long slim tail. It has a long wedge-shaped head and blue eyes. Some Siamese have crossed eyes or kinked\u2026\nHistory at your fingertips\nSign up here to see what happened On This Day, every day in your inbox!\nBy signing up, you agree to our Privacy Notice.\nThank you for subscribing!\nBe on the lookout for your Britannica newsletter to get trusted stories delivered right to your inbox.\nMore About Himalayan1 reference found in Britannica articlesAssorted Referencesmarkings In longhair",
"comments_found": "False",
"comments": null,
"img": "[[None, 'https://cdn.britannica.com/s:700x450,q:1/58/198258-049-970E0C33.jpg', 'longhair cat', None, None], [None, 'https://cdn.britannica.com/s:180x300/48/7148-004-6C88ACBC.jpg', 'Persian, cream and white bicolour.', None, None], [None, 'https://cdn.britannica.com/s:180x300/39/7139-004-4C7C99F2.jpg', 'Himalayan, chocolate point.', None, None], [None, 'https://cdn.britannica.com/s:180x300/52/7152-004-C2BFC752.jpg', 'Siamese, seal point.', None, None], [None, 'https://cdn.britannica.com/marketing/newsletter-icon-white-SM.png', 'newsletter icon', None, None]]",
"class": "cats"
}