{
"url": "https://www.sadanduseless.com/hilarious-cat-snapchats/#more-51235",
"title": " Funny Cat Snapchats That Are Im-Paw-Sible Not To Laugh At",
"meta": "{'description': 'Purrfect selection of hilarious snapchats by cat owners.', 'og:type': 'article', 'og:title': 'Funny Cat Snapchats That Are Im-Paw-Sible Not To Laugh At'}",
"article_content": "m",
"comments_found": "False",
"comments": null,
"img": "[[None, 'https://sadanduseless.b-cdn.net/wp-content/uploads/2017/11/lolcats1.jpg', '', '660', '943'], [None, 'https://sadanduseless.b-cdn.net/wp-content/uploads/2017/11/lolcats2.jpg', '', '660', '905'], [None, 'https://sadanduseless.b-cdn.net/wp-content/uploads/2017/11/lolcats3.jpg', '', '660', '495'], [None, 'https://sadanduseless.b-cdn.net/wp-content/uploads/2017/11/lolcats4.jpg', '', '660', '943'], [None, 'https://sadanduseless.b-cdn.net/wp-content/uploads/2017/11/lolcats5.jpg', '', '660', '880'], [None, 'https://sadanduseless.b-cdn.net/wp-content/uploads/2017/11/lolcats6.jpg', '', '660', '943'], [None, 'https://sadanduseless.b-cdn.net/wp-content/uploads/2017/11/lolcats7.jpg', '', '660', '880'], [None, 'https://sadanduseless.b-cdn.net/wp-content/uploads/2017/11/lolcats8.jpg', '', '660', '495'], [None, 'https://sadanduseless.b-cdn.net/wp-content/uploads/2017/11/lolcats9.jpg', '', '660', '943'], [None, 'https://sadanduseless.b-cdn.net/wp-content/uploads/2017/11/lolcats10.jpg', '', '660', '880'], [None, 'https://sadanduseless.b-cdn.net/wp-content/uploads/2017/11/lolcats11.jpg', '', '660', '943'], [None, 'https://sadanduseless.b-cdn.net/wp-content/uploads/2017/11/lolcats12.jpg', '', '660', '943'], [None, 'https://sadanduseless.b-cdn.net/wp-content/uploads/2017/11/lolcats13.jpg', '', '660', '943'], [None, 'https://sadanduseless.b-cdn.net/wp-content/uploads/2017/11/lolcats14.jpg', '', '660', '943'], [None, 'https://sadanduseless.b-cdn.net/wp-content/uploads/2017/11/lolcats15.jpg', '', '660', '943'], [None, 'https://sadanduseless.b-cdn.net/wp-content/uploads/2017/11/lolcats16.jpg', '', '660', '943'], [None, 'https://sadanduseless.b-cdn.net/wp-content/uploads/2017/11/lolcats17.jpg', '', '660', '943'], [None, 'https://sadanduseless.b-cdn.net/images/sau-logo.png', 'Welcome to the most depressive sad and useless humor site in the world!'], [None, 'https://sadanduseless.b-cdn.net/images/sau-logo-small2.png', 'Welcome to the most depressive sad and useless humor site in the world!'], [None, 'https://sadanduseless.b-cdn.net/wp-content/uploads/2017/11/lolcats1.jpg', ''], [None, 'https://sadanduseless.b-cdn.net/wp-content/uploads/2017/11/lolcats2.jpg', ''], [None, 'https://sadanduseless.b-cdn.net/wp-content/uploads/2017/11/lolcats3.jpg', ''], [None, 'https://sadanduseless.b-cdn.net/wp-content/uploads/2017/11/lolcats4.jpg', ''], [None, 'https://sadanduseless.b-cdn.net/wp-content/uploads/2017/11/lolcats5.jpg', ''], [None, 'https://sadanduseless.b-cdn.net/wp-content/uploads/2017/11/lolcats6.jpg', ''], [None, 'https://sadanduseless.b-cdn.net/wp-content/uploads/2017/11/lolcats7.jpg', ''], [None, 'https://sadanduseless.b-cdn.net/wp-content/uploads/2017/11/lolcats8.jpg', ''], [None, 'https://sadanduseless.b-cdn.net/wp-content/uploads/2017/11/lolcats9.jpg', ''], [None, 'https://sadanduseless.b-cdn.net/wp-content/uploads/2017/11/lolcats10.jpg', ''], [None, 'https://sadanduseless.b-cdn.net/wp-content/uploads/2017/11/lolcats11.jpg', ''], [None, 'https://sadanduseless.b-cdn.net/wp-content/uploads/2017/11/lolcats12.jpg', ''], [None, 'https://sadanduseless.b-cdn.net/wp-content/uploads/2017/11/lolcats13.jpg', ''], [None, 'https://sadanduseless.b-cdn.net/wp-content/uploads/2017/11/lolcats14.jpg', ''], [None, 'https://sadanduseless.b-cdn.net/wp-content/uploads/2017/11/lolcats15.jpg', ''], [None, 'https://sadanduseless.b-cdn.net/wp-content/uploads/2017/11/lolcats16.jpg', ''], [None, 'https://sadanduseless.b-cdn.net/wp-content/uploads/2017/11/lolcats17.jpg', ''], [None, 'https://sadanduseless.b-cdn.net/images/top-crocs.jpg', None], [None, 'https://sadanduseless.b-cdn.net/images/top-alpacas.jpg', None], [None, 'https://sadanduseless.b-cdn.net/images/top-hands.jpg', None], [None, 'https://sadanduseless.b-cdn.net/images/top-wall.jpg', None], [None, 'https://sadanduseless.b-cdn.net/images/top-pup.jpg', None]]",
"class": "funny_cats"
}