{
"url": "https://www.petsafe.net/learn/cats-101-basic-health-care-tips-to-keep-your-cat-healthy",
"title": "Cats 101: Basic Health & Care Tips to Keep Your Cat Healthy | PetSafe\u00ae Articles",
"meta": "{'description': 'How often do you take your cat to the veterinarian? In observance of National Cat Health Month, we want to remind you that even if your cat does not appear to be sick, preventative care is important.', 'og:title': 'Cats 101: Basic Health & Care Tips to Keep Your Cat Healthy'}",
"article_content": "Cats 101: Basic Health & Care Tips to Keep Your Cat Healthy | PetSafe\u00ae Articles\nrscvm-ecws02\n1-866-738-4379\nLive Chat\nChat Offline\nMy Account\nFind a Retailer\nFREE SHIPPINGon orders over $49.\nSupport\nManuals & Product Support\nApp Downloads\nReturns & Policies\nContact Us\nFencing\nSet secure yard boundaries for your pets.\nHarnesses & Leashes\nEnjoy better walks.\nBark Collars & Deterrents\nStop your dog's barking.\nTeach your pet obedience and tricks.\nLitter Boxes\nStop scooping & smelling your cat's box.\nHouse Training & Cleanup\nPotty train your pet in no time.\nKeep pets hydrated & healthy.\nProgram your pet's meals in advance.\nGive your pet the freedom to come and go.\nMake playtime last longer.\nTreat your pet to delicious, healthy treats.\nThe Paw Print Blog\nVideos\nShop\nWireless Fences\nIn-Ground Fences\nHarnesses & Leashes\nBark Collars & Deterrents\nDog Training Collars\nPet Proofing\nPet Tech\nClicker Training\nLitter Boxes\nHouse Training\nPet Cleanup\nFeeders\nAccess & Mobility\nTreats\nCar Travel\nAccessories & Parts\nCollars\nCollar Straps\nDoor Flaps & Install Kits\nLitter Trays & Accessories\nPee Pads & Pet Loo Accessories\nFountain Filters & Pumps\nPet Proofing Barriers & Mats\nReplacement Parts & Kits\nAll Accessories\nAccessories & Parts\nCollars\nFilters\nView All\nBusy Buddy\nScoop Free\nPet Loo\nAccessories & Parts\nWireless Fences\nIn-Ground Fences\nHarnesses & Leashes\nBark Collars & Deterrents\nDog Training Collars\nPet Proofing\nPet Tech\nClicker Training\nLitter Boxes\nHouse Training\nPet Cleanup\nFeeders\nToys\nAccess\n& Mobility\nCar Travel\nBlog\u00a0>\u00a0Cats 101 Basic Health Care Tips To Keep Your Cat Healthy\nThe Paw Print Blog\nPet Parenting Articles\nTraining\nPet Care\nPlay\nSelect a Category\nTraining\nPet Care\nPlay\nCats 101: Basic Health & Care Tips to Keep Your Cat Healthy\nWritten by\nStacy Hackett\nCat Journalist\nHow often do you take your cat to the veterinarian? In observance of National Cat Health Month, we want to remind you that even if your cat does not appear to be sick, preventative care is important.\nBetween visits to your cat's veterinarian, here are 10 ways to keep your cat healthy.\n1. Groom your cat regularly.\nWhether your cat has short or long fur, he will benefit greatly from regular brushing or combing. This helps remove the dead hair from his coat so he doesn't ingest it while self-grooming. It also gives you the chance to notice any changes to his body. Irregularities such as lumps, bumps or sore spots can then be investigated right away by your veterinarian.\n2. Provide fresh water daily.\nClean, fresh water is essential for your cat's good health. If your cat doesn't seem to drink from a bowl, consider providing her with a tall glass (some cats don't like to bend down to drink) or a cat fountain. Be sure to replenish the water with a fresh supply every day.\n3. Make sure you have enough litter boxes.\nA general rule of thumb for litter boxes is one for each cat plus one more. So if you have 2 cats, you should have 3 litter boxes. To encourage good litter box habits, keep the litter boxes clean. This may mean scooping more than once per day. Regular cleaning will also help you notice any changes in your cat's urine or stool, which could indicate a health issue.\n4. Notice if your cat starts urinating outside its litter box.\nSometimes a cat will urinate outside his litter box if the box is dirty. But before you blame the accident on the state of the litter box or your cat's naughty behavior, schedule a visit to the veterinarian. A change in litter box habits sometimes means that a cat has a urinary tract infection or other medical issue.\n5. Train your cat to use a scratching post.\nNot only will this help prevent damage to your furniture, it will help your cat stretch her muscles and keep her claws in top condition. Regular scratching on an appropriate surface such as carpet, sisal, or cardboard helps remove the old layers from your cat's claws.\n6. Use a cat carrier in the car.\nDoes your cat need to visit the vet? Or are you moving to a new home? Transport your cat in an appropriate carrier designed for pets. Allowing your cat to roam freely in the car can distract you from driving safely, which can lead to accidents that may harm both you and your cat.\n7. Keep your cat's teeth clean.\nLike humans, cats can develop tartar on their teeth, which can lead to gum disease and tooth decay. The bacteria that collect on your cat's teeth also can enter her bloodstream, contributing to other feline diseases. Unlike humans, however, cats can't brush their teeth. And many cats won't let their owners brush their teeth for them. To keep your cat's teeth in top condition, schedule a cleaning with your veterinarian at least once every year.\n8. Choose a cat-friendly vet.\nIt seems to go without saying that cats are not smaller versions of dogs. That said, it follows that cats have different veterinary requirements than dogs do. A veterinarian specializing in feline health and anatomy can be a valuable ally in keeping your cat in her best possible health. You can find a feline vet in your area by visiting the American Association of Feline Practitioners.\n9. Schedule regular veterinary visits.\nAnnual visits give the vet a chance to catch any potential feline diseases in their early stages, administer vaccines, and clean the cat's teeth. Your vet can also tell you if your cat is at a healthy weight.\n10. Spay or neuter your cat.\nReproductive diseases can affect cats of both genders, both male and female. Spaying prevents uterine infections, ovarian cancers and breast tumors in female cats, while neutering prevents testicular cancer and some prostate problems in males. The surgeries also reduce a male cat's urge to roam and if done soon enough in his life, may eliminate his urge to spray to mark territory. The best benefit? Your cat won't contribute to the pet overpopulation situation.\nBy Stacy N. Hackett\nStacy N. Hackett writes frequently about a variety of pet-themed topics, with an emphasis on companion animal care. She is a member of the Cat Writers\u2019 Association and Dog Writers\u2019 Association.\n< Previous Post\nLearn the Truth About the PetSafe\u00ae ScoopFree\u00ae Self-Cleaning Litter Box\nBreed All About It: Siamese and Abyssinian\nNext Post >\nRelated Articles\nCare + Health\nHow to Introduce a New Cat to Your Home\nCat Body Language 101\nWhat Cat Breed Is Best for your Home?\nCats 101: Understanding Basic Cat Behavior\nCat Adoption 101\nToys Can Enrich Your Cat\u2019s Environment & Improve Behavior\nWhat Your Cat Wants from You\nDecoding Your Cat\u2019s Behavior\nTop Articles by This Author\nStacy Hackett\nProtecting Your Plants From Your Cats\nHow to Train Your Cat to Scratch Appropriately\nPrevent Cat Predation Behavior\nRelated Products\nCome With Me Kitty\u2122 Cat Harness & Bungee Leash\n$15.99\nShop Now\nBolt Laser Cat Toy\n$23.99\nShop Now\nScoopFree\u00ae Original Self-Cleaning Litter Box - Purple\n$144.99\nShop Now\nDrinkwell\u00ae Mini Fountain\n$25.99\nShop Now\n\u00a9 PetSafe. All Rights Reserved. Content is provided as a public service. Links and views may lead to companies that may or may not be affiliated with PetSafe or other brands of Radio Systems Corporation.\nGet Email Updates\nSign up today for the latest news, promotions, and more from PetSafe\u00ae brand.\nSign Up\nWe're sorry, we can't connect to our email system right now. Please try again later or contact Customer Care.\nCustomer Care\n1-866-738-4379\nLive Chat\nChat Offline\nSend an Email\nManuals & Support\nAuthorized Online Retailers\nFind a Retailer\nDoor Flap Finder\nWireless Fences\nIn-Ground Fences\nLitter Boxes\nBark Collars\nAbout Us\nAbout PetSafe\nPress Releases\nBark for Your Park\nCommunity Outreach\nJoin Our Testing Panel\nConnect With Us\nPawPrint Blog\n\u00a92019 Radio Systems Corporation All Rights Reserved.\nPrivacy |\nWholesalers |\nYou're browsing our US site. Would you like to visit our International site?\nNo",
"comments_found": "False",
"comments": null,
"img": "[[None, '//d3taa8h1p8788q.cloudfront.net/media/images/lang-us.png', 'United States'], [None, '//d3taa8h1p8788q.cloudfront.net/media/images/free-shipping-small.png', None], [None, '//d3taa8h1p8788q.cloudfront.net/media/images/learn-animals.png', 'Cat and Dog with glasses'], [None, '/media/images/learn/stacy-hackett-author-bio-updated.jpg', 'Stacy Hackett'], [None, '/media/images/learn/cleaning-cat-grooming.jpg', 'cat grooming'], [None, '/media/images/learn/kittens_fountain.jpg', 'cat fountain'], [None, '/media/images/learn/litter-box-laundrty-room.jpg', 'how many litterboxes'], [None, '/media/images/learn/litter-box-problems-dirty-box.jpg', 'litterbox problems'], [None, '/media/images/learn/scratching-cat-article-thumbnail.jpg', 'cat scratching problems'], [None, '/media/images/learn/lily-shelter-cats-article-thumbnail.jpg', 'cat car rides'], [None, '/media/images/learn/cat-brushing-teeth.jpg', 'cat dental cleaning'], [None, '/media/images/learn/fountains_vet_cat.jpg', 'cat specialist vet'], [None, '/media/images/learn/fat-cat-sleeping.jpg', 'cat health problems'], [None, '/media/images/learn/spay-kittens-article-thumbnail.jpg', 'why spay cats'], [None, '/media/images/learn/stacy-hackett-author-bio-updated.jpg', 'Stacy Hackett'], [None, '/images/categories/pet_quiz_photo.jpg', None], [None, '/media/images/learn/litter-box-problems-sick-cat.jpg', ''], [None, '/media/images/learn/cat-body-language-overstimulated-cat.jpg', ''], [None, '/media/images/learn/spay-kittens-article-thumbnail.jpg', ''], [None, '/media/images/learn/confident_cat_forward_ears_direct_eyes.jpg', ''], [None, '/media/images/learn/spay-kittens-article-thumbnail.jpg', ''], [None, '/media/images/learn/frolicat-article-thumbnail.jpg', ''], [None, '/media/images/learn/cat-body-language-article-thumbnail.jpg', ''], [None, '/media/images/learn/black-cat-kiss.jpg', ''], [None, '//rsc-store-media.s3.amazonaws.com/catalog/product/cache/0/small_image/227x/9df78eab33525d08d6e5fb8d27136e95/C/W/CWMK_RYL-NVY_a.jpg', 'Come With Me Kitty\u2122 Cat Harness & Bungee Leash'], [None, '//rsc-store-media.s3.amazonaws.com/catalog/product/cache/0/small_image/227x/9df78eab33525d08d6e5fb8d27136e95/b/o/bolt_a.jpg', 'Bolt Laser Cat Toy'], [None, '//rsc-store-media.s3.amazonaws.com/catalog/product/cache/0/small_image/227x/9df78eab33525d08d6e5fb8d27136e95/s/c/scoopfree_self_cleaning_litter_box_pd_hero.jpg', 'ScoopFree\u00ae Original Self-Cleaning Litter Box - Purple'], [None, '//rsc-store-media.s3.amazonaws.com/catalog/product/cache/0/small_image/227x/9df78eab33525d08d6e5fb8d27136e95/p/w/pww00-14402_a_1.jpg', 'Drinkwell\u00ae Mini Fountain'], [None, '//d3taa8h1p8788q.cloudfront.net/media/images/facebook-circle-icon.png', 'PetSafe Facebook'], [None, '//d3taa8h1p8788q.cloudfront.net/media/images/twitter-circle-icon.png', 'PetSafe Twitter'], [None, '//d3taa8h1p8788q.cloudfront.net/media/images/instagram-circle-icon.png', 'PetSafe Instagram'], [None, '//d3taa8h1p8788q.cloudfront.net/media/images/pinterest-circle-icon.png', 'PetSafe Pinterest'], [None, '//d3taa8h1p8788q.cloudfront.net/media/images/youtube-circle-icon.png', 'PetSafe Instagram'], [None, '', 'protect. teach. love.'], [None, '', 'Close']]",
"class": "cats"
}