{
"url": "https://www.huffpost.com/entry/harry-potter-played-by-kittens_n_5648550de4b08cda34892e23",
"title": "Adorable Kittens Act Out Every Single 'Harry Potter' Movie | HuffPost",
"meta": "{'keywords': 'harry potter,kitten,Cats,cat videos,funny cat video,California,hogwarts', 'description': 'Warning: Cuteness Overload', 'og:type': 'article', 'og:title': \"Adorable Kittens Act Out Every Single 'Harry Potter' Movie\", 'og:site_name': 'HuffPost'}",
"article_content": "WEIRD NEWS\n11/15/2015 07:30 am ET\nAdorable Kittens Act Out Every Single 'Harry Potter' Movie\nWarning: Cuteness Overload\nBy Lee Moran\nThese cats are magic.\n\"Harry Potter\" has been given an amazing re-boot -- with the help of some adorable kittens.\nThe unbelievably cute cats were filmed playing out scenes from each of the hit franchise\u2019s eight movies.\nIn the 7-minute video above, watch Harry, Ron and Hermione navigate their way through the world of magic at Hogwarts.\nThey don tiny capes and glasses and hold wands in the hilarious series of clips.\u00a0YouTube channel The Pet Collective produced the video.\nThe Woodland Hills, California-based\u00a0Cats At The Studios adoption service provided the stars of the show.\n\"Two of our kittens were in this as babies. They have now been adopted and are in their forever homes,\" the organization wrote on its Facebook page.\nIn the 7-minute video above, watch Harry, Ron and Hermione navigate their way through the world of magic at Hogwarts.\nThey don tiny capes and glasses and hold wands in the hilarious series of clips.\u00a0YouTube channel The Pet Collective produced the video.\nThe Woodland Hills, California-based\u00a0Cats At The Studios adoption service provided the stars of the show.\n\"Two of our kittens were in this as babies. They have now been adopted and are in their forever homes,\" the organization wrote on its Facebook page.\nAlso on HuffPost:\nPHOTO GALLERY\nCute Kittens\nREAL LIFE. REAL NEWS. REAL VOICES.\nHelp us tell more of the stories that matter from voices that too often remain unheard.\nJoin HuffPost Plus\nLee Moran\nReporter, HuffPost\nSuggest a correction\nMORE:\nHarry Potter\nFunny Cats\nHogwarts",
"comments_found": "False",
"comments": null,
"img": "[[None, 'https://img.huffingtonpost.com/asset/5c112bf1210000d907ca65c0.png?ops=100_100', 'headshot', '38px', '38px'], [None, 'https://img.huffingtonpost.com/asset/5c112bf1210000d907ca65c0.png?ops=100_100', 'headshot', '38px', '38px']]",
"class": "funny_cats"
}