{
"url": "https://edition.cnn.com/2019/06/01/tennis/osaka-siniakova-djokovic-french-open-halep-tennis-int-spt/index.html",
"title": "Double trouble at French Open for Serena Williams, Naomi Osaka as record-breaking bids end - CNN",
"meta": "{'keywords': 'tennis, Double trouble at French Open for Serena Williams, Naomi Osaka as record-breaking bids end - CNN', 'description': \"Serena Williams' bid for a record 24th Grand Slam title ended Saturday when she was ousted from the French Open in the third round by US compatriot Sofia Kenin.\", 'og:type': 'article', 'og:title': 'Double trouble at French Open for Serena Williams, Naomi Osaka as record-breaking bids end', 'og:site_name': 'CNN'}",
"article_content": "Double trouble at French Open for Serena Williams, Naomi Osaka as record-breaking bids endBy Ravi Ubha, CNNUpdated 2101 GMT (0501 HKT) June 1, 2019 Chat with us in Facebook Messenger. Find out what's happening in the world as it unfolds.JUST WATCHEDRise of Naomi OsakaReplayMore Videos ...MUST WATCH (12 Videos)Rise of Naomi OsakaRed clay and no roof: The unique Roland GarrosNaomi Osaka: Tennis' next Serena Williams?Roger Federer remembers life changing kissRoger Federer: My dream opponent would be...Federer dreams of being famous for philanthropyThe comeback of Novak DjokovicMurray says he's 'pain free' after hip surgeryLaslo Djere dedicates ATP win to late parentsTearful Roger Federer remembers late coachAlexander Zverev: 'Amazing' to win ATP FinalsThe most successful family affair in tennis (CNN)Serena Williams' bid for a record 24th Grand Slam title ended on Saturday when she was ousted from the French Open in the third round by US compatriot Sofia Kenin.The 6-2, 7-5 loss came as a shock as Williams hasn't departed this early from a major tournament in five years. \"I feel like she, in that first set in particular, hit pretty much inches from the line, and I haven't played anyone like that in a long time,\" Williams told reporters. Williams' exit from the Open followed another shock earlier in the day when newcomer Naomi Osaka, who surged during the last two major tournaments, lost\n6-4, 6-2 to Katerina Siniakova of the Czech Republic. Heading into the French Open, Williams and Osaka were chasing record-breaking performances, with Williams attempting to equal Margaret Court's record for the most Grand Slam singles championships and Osaka trying to become the first woman to win three consecutive major tournaments since Williams did it in 2015. Read MoreBut Williams lacked matches entering the French Open, completing a mere three after her eventful\nAustralian Open that ended with an ankle injury in a quarterfinal defeat. Illness, but more prominently of late, a knee injury, kept her on the sidelines.With three titles, the French Open, too, is the Grand Slam she has found most difficult to conquer.\n\"I'm definitely feeling short on matches, and just getting in the swing of things,\" Williams said, acknowledging she needed to work on her conditioning. \"I'm just pretty far away,\" she said. \"But that's the optimistic part, is I haven't been able to be on the court as much as I would have. That's okay. At least I can start trying to put the time in now.\"It's just been a really grueling season for me.\" Photos: Serena, Osaka upset Serena Williams exited the French Open on Saturday to her fellow American Sofia Kenin in the third round. Hide Caption 1 of 11 Photos: Serena, Osaka upset Williams, bidding for a 24th major, rallied in a second set but fell 6-2 7-5. A knee injury hampered the 37-year-old in the buildup. Hide Caption 2 of 11 Photos: Serena, Osaka upset Kenin, a hard-hitting baseliner, celebrated victory. The 20-year-old made the fourth round at a major for the first time. Hide Caption 3 of 11 Photos: Serena, Osaka upset It was indeed a day of shocks, as Naomi Osaka saw her 16-match grand slam winning streak come to an end. Hide Caption 4 of 11 Photos: Serena, Osaka upset The world No. 1 lost in straight sets to Katerina Siniakova, going 0-for-7 on break points and making 38 unforced errors. Hide Caption 5 of 11 Photos: Serena, Osaka upset Siniakova, 23, is a doubles world No. 1 and former junior star. She picked up her first win over a No. 1 player in singles. Hide Caption 6 of 11 Photos: Serena, Osaka upset After dropping a set in her first two matches, defending champion Simona Halep needed just an hour to breeze past Lesia Tsurenko. Hide Caption 7 of 11 Photos: Serena, Osaka upset Men's No. 1 Novak Djokovic continued to cruise. The Serb, bidding for a fourth straight major, beat Italy's Salvatore Caruso 6-3 6-3 6-2. Hide Caption 8 of 11 Photos: Serena, Osaka upset Stan Wawrinka, the 2015 champion, collected his 500th career win when he completed a 7-6 7-6 7-6 win over Grigor Dimitrov. The match had been suspended due to darkness Friday after two sets. Hide Caption 9 of 11 Photos: Serena, Osaka upset Stefanos Tsitsipas, semifinalist at the Australian Open and a winner over Rafael Nadal on clay last month, continued to progress with a four-set win over Filip Krajinovic. Hide Caption 10 of 11 Photos: Serena, Osaka upset Krajinovic, who had won his first two matches in five sets, could have played in another. He led the fourth 5-3 and held a set point in the fourth-set tiebreak. Hide Caption 11 of 11Yet any tournament the 37-year-old plays is one she can win. She is Serena, after all. A comeback? And when Williams recovered from a set and break down to lead her 35th-ranked rival 5-4 in the second set, few would have bet against her. Williams has engineered countless Grand Slam comebacks. Her smooth, potent serve started to click and the 10th seed had the fans at Philippe-Chatrier Court behind her, especially as the feisty and fast-rising Kenin contested several line calls that appeared to rile Williams. But her 20-year-old opponent, born in Russia, didn't buckle and broke for 6-5 in a game that began with Williams erring long on a forehand with Kenin stranded. Williams had one more chance but sent a forehand wide on break point. Then on a second match point, her backhand sailed long. Kenin -- who counts Maria Sharapova as her idol -- dropped her racket and during her handshake with Williams appeared to be in disbelief at what she had just accomplished. Osaka, meanwhile, admitted the French Open was just too much to handle. Different feeling\"Definitely I think this tournament I have had a feeling that was different to the other grand slams, or every other grand slam that I have played, because usually I find it very freeing and fun, and this time around I was kind of tense the entire time,\" the world No. 1 told reporters. Visit CNN Sport for more news and videosThe fatigue Osaka said she felt playing against Siniakova might have been a result. And she suspected headaches she experienced earlier on the clay court were because of stress. First win over a World No.1. First time into the R16 at a Slam. @K_Siniakova | #RG19 pic.twitter.com/vgAnzJ2x5e\u2014 Roland-Garros (@rolandgarros) June 1, 2019\nStill, her level of disappointment at exiting the tournament so early was off the charts. \"It would go from one to 10, and I'm like at a 100 right now,\" said Osaka. READ: Federer's milestone on dramatic dayREAD: Osaka can win 10 grand slams, says Chinese star Li NaREAD: Kyrgios throws chair during Italian Open meltdown When Osaka remarked before the tournament that she sought a calendar year grand slam -- last achieved by Steffi Graf in 1988 -- it could have been interpreted as a tongue-in- cheek comment or at least a goal further down the road. Osaka is only 21. Thinking about calendar year slamBut she focused on doing it this year, which she called a mistake. \"I think I was overthinking this calendar slam,\" said Osaka. \"For me, this is something that I have wanted to do forever. But I think I have to think about it like if it was that easy, everyone would have done it. \"I just have to keep training hard and put myself in a position again to do it hopefully.\" JUST WATCHEDNaomi Osaka: Tennis' next Serena Williams?ReplayMore Videos ...MUST WATCHNaomi Osaka: Tennis' next Serena Williams? 02:54Osaka is adapting to the clay. But she is a quick study, evidenced by a 7-1 record on the surface this season coming into the French Open. That combined with her performances at the US Open -- where she defeated Williams in a controversial contest -- and Australian Open suggested that another comeback would be in the cards against Siniakova. Osaka after all rallied from set and break deficits in the first round against Anna Karolina Schmiedlova and second round against fellow grand slam champion Victoria Azarenka. It felt like her victory over Azarenka could spark a glittering run but it wasn't to be.The 42nd-ranked Siniakova -- No. 1 in doubles -- starred in the juniors and for her country in last year's Fed Cup final against the US.\nThe 23-year-old took her chances, converting three of six break points, while Osaka went 0 for 7, all in the opening set. She was also tidy from the baseline, whereas Osaka committed 38 unforced errors.When Osaka erred on match point, Siniakova moved into the fourth round at a major for the first time like Kenin and collected a maiden victory over a No. 1. Halep, Djokovic cruiseSiniakova downed defending French Open champion Simona Halep in China two years ago. On Saturday, Halep prevailed against Lesia Tsurenko in around an hour 6-2 and 6-1 after three-setters in her opening two outings. Also advancing in warm and sunny conditions were men's No. 1 Novak Djokovic, three-time major winner Stan Wawrinka and fifth-seed Alexander Zverev. Djokovic breezed past Italian qualifier Salvatore Caruso 6-3, 6-3 and 6-2 and is yet to drop a set -- or come close to it. The Serb's own chances of completing a calendar year grand slam are still on and if he wins the title, Djokovic would hold all four majors for the second time in his career. JUST WATCHEDLooking back at Osaka & Djokovic's U.S. Open triumphsReplayMore Videos ...MUST WATCHLooking back at Osaka & Djokovic's U.S. Open triumphs 01:22The man he lost to in the 2015 final, Wawrinka, collected his 500th career victory by completing a win over Grigor Dimitrov 7-6 (5), 7-6 (4) and 7-6 (8). They were forced off due to darkness following two sets Friday on the soon to be replaced Court 1. Wawrinka -- who trailed 6-2 in the final tiebreak -- also accomplished a career grand slam of victories over Dimitrov. The Swiss meets Greek sixth-seed Stefanos Tsitsipas in an eagerly anticipated battle of one-handed backhands Sunday. Five-set battles are no surprise for Zverev at Roland Garros. He improved to 5-0 by defeating Monte Carlo finalist Dusan Lajovic 6-4, 6-2, 4-6, 1-6 and 6-2 a year after they went the distance in Paris. Zverev's fellow German, Jan-Lennard Struff, won the longest match of the day in four hours, 22 minutes, upsetting 13th-seed Borna Coric 4-6, 6-1, 4-6, 7-6 (1)\nand 11-9. Follow @cnnsport\nCoric went a mere 4-20 on break points. When he did break at 6-6 in the fifth, he was immediately broken back.",
"comments_found": "False",
"comments": null,
"img": "[[None, '//cdn.cnn.com/cnnnext/dam/assets/190524115306-naomi-osaka-us-open-serena-williams-trophy-exlarge-169.jpg', 'Naomi Osaka US Open Serena Williams trophy', None, None], [None, '//cdn.cnn.com/cnnnext/dam/assets/190524115306-naomi-osaka-us-open-serena-williams-trophy-exlarge-169.jpg', 'Naomi Osaka US Open Serena Williams trophy', None, None], [None, 'data:image/gif;base64,R0lGODlhEAAJAJEAAAAAAP///////wAAACH5BAEAAAIALAAAAAAQAAkAAAIKlI+py+0Po5yUFQA7', 'NEW YORK, NY - SEPTEMBER 08:  Naomi Osaka of Japan poses with the championship trophy after winning the Women&#39;s Singles finals match against Serena Williams of the United States on Day Thirteen of the 2018 US Open at the USTA Billie Jean King National Tennis Center on September 8, 2018 in the Flushing neighborhood of the Queens borough of New York City.  (Photo by Julian Finney/Getty Images)', None, None], [None, '//cdn.cnn.com/cnnnext/dam/assets/190524115306-naomi-osaka-us-open-serena-williams-trophy-large-169.jpg', 'NEW YORK, NY - SEPTEMBER 08:  Naomi Osaka of Japan poses with the championship trophy after winning the Women&#39;s Singles finals match against Serena Williams of the United States on Day Thirteen of the 2018 US Open at the USTA Billie Jean King National Tennis Center on September 8, 2018 in the Flushing neighborhood of the Queens borough of New York City.  (Photo by Julian Finney/Getty Images)', None, None], [None, 'data:image/gif;base64,R0lGODlhEAAJAJEAAAAAAP///////wAAACH5BAEAAAIALAAAAAAQAAkAAAIKlI+py+0Po5yUFQA7', 'PARIS, FRANCE - JUNE 07:  Novak Djokovic of Serbia serves in the Men&#39;s Singles Final against Stanislas Wawrinka of Switzerland on day fifteen of the 2015 French Open at Roland Garros on June 7, 2015 in Paris, France.  (Photo by Julian Finney/Getty Images)', None, None], [None, '//cdn.cnn.com/cnnnext/dam/assets/160524111044-roland-garros-stadium-large-169.jpg', 'PARIS, FRANCE - JUNE 07:  Novak Djokovic of Serbia serves in the Men&#39;s Singles Final against Stanislas Wawrinka of Switzerland on day fifteen of the 2015 French Open at Roland Garros on June 7, 2015 in Paris, France.  (Photo by Julian Finney/Getty Images)', None, None], [None, 'data:image/gif;base64,R0lGODlhEAAJAJEAAAAAAP///////wAAACH5BAEAAAIALAAAAAAQAAkAAAIKlI+py+0Po5yUFQA7', 'MELBOURNE, AUSTRALIA - JANUARY 26:  Naomi Osaka of Japan poses for a photo with the Daphne Akhurst Memorial Cup following victory in her Women&#39;s Singles Final match against Petra Kvitova of the Czech Republic during day 13 of the 2019 Australian Open at Melbourne Park on January 26, 2019 in Melbourne, Australia.  (Photo by Mark Kolbe/Getty Images)', None, None], [None, '//cdn.cnn.com/cnnnext/dam/assets/190308100030-naomi-osaka-australian-open-large-169.jpg', 'MELBOURNE, AUSTRALIA - JANUARY 26:  Naomi Osaka of Japan poses for a photo with the Daphne Akhurst Memorial Cup following victory in her Women&#39;s Singles Final match against Petra Kvitova of the Czech Republic during day 13 of the 2019 Australian Open at Melbourne Park on January 26, 2019 in Melbourne, Australia.  (Photo by Mark Kolbe/Getty Images)', None, None], [None, 'data:image/gif;base64,R0lGODlhEAAJAJEAAAAAAP///////wAAACH5BAEAAAIALAAAAAAQAAkAAAIKlI+py+0Po5yUFQA7', 'MELBOURNE, AUSTRALIA - JANUARY 13:  Mirka Federer wife of Roger Federer watches her husband take part in the annual Kids Tennis Day also watched by his four children Myla Rose Federer,Charlene Riva Federer,Lenny Federer and Leo Federer during Tennis Australia&#39;s Kids Day  ahead of the 2018 Australian Open at Melbourne Park on January 13, 2018 in Melbourne, Australia.  (Photo by Clive Brunskill/Getty Images)', None, None], [None, '//cdn.cnn.com/cnnnext/dam/assets/181112144824-roger-federer-family-australian-open-large-169.jpg', 'MELBOURNE, AUSTRALIA - JANUARY 13:  Mirka Federer wife of Roger Federer watches her husband take part in the annual Kids Tennis Day also watched by his four children Myla Rose Federer,Charlene Riva Federer,Lenny Federer and Leo Federer during Tennis Australia&#39;s Kids Day  ahead of the 2018 Australian Open at Melbourne Park on January 13, 2018 in Melbourne, Australia.  (Photo by Clive Brunskill/Getty Images)', None, None], [None, 'data:image/gif;base64,R0lGODlhEAAJAJEAAAAAAP///////wAAACH5BAEAAAIALAAAAAAQAAkAAAIKlI+py+0Po5yUFQA7', 'roger on bjorn', None, None], [None, '//cdn.cnn.com/cnnnext/dam/assets/190110112326-roger-on-bjorn-large-169.jpg', 'roger on bjorn', None, None], [None, 'data:image/gif;base64,R0lGODlhEAAJAJEAAAAAAP///////wAAACH5BAEAAAIALAAAAAAQAAkAAAIKlI+py+0Po5yUFQA7', 'roger federer foundation 15 years SPT INTL_00000525.jpg', None, None], [None, '//cdn.cnn.com/cnnnext/dam/assets/181224165825-roger-federer-foundation-15-years-spt-intl-00000525-large-169.jpg', 'roger federer foundation 15 years SPT INTL_00000525.jpg', None, None], [None, 'data:image/gif;base64,R0lGODlhEAAJAJEAAAAAAP///////wAAACH5BAEAAAIALAAAAAAQAAkAAAIKlI+py+0Po5yUFQA7', 'Laureus World Sportsman of The Year 2019 winner Serbia&#39;s tennis player Novak Djokovic poses with his award at the 2019 Laureus World Sports Awards ceremony at the Sporting Monte-Carlo complex in Monaco on February 18, 2019. (Photo by Valery HACHE / AFP)        (Photo credit should read VALERY HACHE/AFP/Getty Images)', None, None], [None, '//cdn.cnn.com/cnnnext/dam/assets/190218215442-djokovic-large-169.jpg', 'Laureus World Sportsman of The Year 2019 winner Serbia&#39;s tennis player Novak Djokovic poses with his award at the 2019 Laureus World Sports Awards ceremony at the Sporting Monte-Carlo complex in Monaco on February 18, 2019. (Photo by Valery HACHE / AFP)        (Photo credit should read VALERY HACHE/AFP/Getty Images)', None, None], [None, 'data:image/gif;base64,R0lGODlhEAAJAJEAAAAAAP///////wAAACH5BAEAAAIALAAAAAAQAAkAAAIKlI+py+0Po5yUFQA7', 'TOPSHOT - Britain&#39;s Andy Murray reacts during an interview after his defeat against Spain&#39;s Roberto Bautista Agut during their men&#39;s singles match on day one of the Australian Open tennis tournament in Melbourne on January 14, 2019. (Photo by SAEED KHAN / AFP) / -- IMAGE RESTRICTED TO EDITORIAL USE - STRICTLY NO COMMERCIAL USE --        (Photo credit should read SAEED KHAN/AFP/Getty Images)', None, None], [None, '//cdn.cnn.com/cnnnext/dam/assets/190114141401-andy-murray-australian-open-large-169.jpg', 'TOPSHOT - Britain&#39;s Andy Murray reacts during an interview after his defeat against Spain&#39;s Roberto Bautista Agut during their men&#39;s singles match on day one of the Australian Open tennis tournament in Melbourne on January 14, 2019. (Photo by SAEED KHAN / AFP) / -- IMAGE RESTRICTED TO EDITORIAL USE - STRICTLY NO COMMERCIAL USE --        (Photo credit should read SAEED KHAN/AFP/Getty Images)', None, None], [None, 'data:image/gif;base64,R0lGODlhEAAJAJEAAAAAAP///////wAAACH5BAEAAAIALAAAAAAQAAkAAAIKlI+py+0Po5yUFQA7', 'RIO DE JANEIRO, BRAZIL - FEBRUARY 24: Laslo Djere of Serbia celebrates the championship after defeating Felix Auger-Aliassime of Canada at the singles final of the ATP Rio Open 2019 at Jockey Club Brasileiro on February 24, 2019 in Rio de Janeiro, Brazil. (Photo by Buda Mendes/Getty Images)', None, None], [None, '//cdn.cnn.com/cnnnext/dam/assets/190225055042-laslo-djere-02-large-169.jpg', 'RIO DE JANEIRO, BRAZIL - FEBRUARY 24: Laslo Djere of Serbia celebrates the championship after defeating Felix Auger-Aliassime of Canada at the singles final of the ATP Rio Open 2019 at Jockey Club Brasileiro on February 24, 2019 in Rio de Janeiro, Brazil. (Photo by Buda Mendes/Getty Images)', None, None], [None, 'data:image/gif;base64,R0lGODlhEAAJAJEAAAAAAP///////wAAACH5BAEAAAIALAAAAAAQAAkAAAIKlI+py+0Po5yUFQA7', 'exp roger federer interview australian open peter carter spt intl_00025322.jpg', None, None], [None, '//cdn.cnn.com/cnnnext/dam/assets/190107102116-exp-roger-federer-interview-australian-open-peter-carter-spt-intl-00025322-large-169.jpg', 'exp roger federer interview australian open peter carter spt intl_00025322.jpg', None, None], [None, 'data:image/gif;base64,R0lGODlhEAAJAJEAAAAAAP///////wAAACH5BAEAAAIALAAAAAAQAAkAAAIKlI+py+0Po5yUFQA7', '', None, None], [None, '//cdn.cnn.com/cnnnext/dam/assets/181118194724-zverev-large-169.jpg', '', None, None], [None, 'data:image/gif;base64,R0lGODlhEAAJAJEAAAAAAP///////wAAACH5BAEAAAIALAAAAAAQAAkAAAIKlI+py+0Po5yUFQA7', '372178 11: FILE PHOTO: Sisters Serena, left, and Venus Williams shake hands after a game 1991 in Compton, CA. Serena and Venus Williams will be playing against each other for the first time July 6, 2000 in the tennis semifinals at Wimbledon. (Photo by Paul Harris/Online USA)', None, None], [None, '//cdn.cnn.com/cnnnext/dam/assets/150821143850-serena-williams-childhood-large-169.jpg', '372178 11: FILE PHOTO: Sisters Serena, left, and Venus Williams shake hands after a game 1991 in Compton, CA. Serena and Venus Williams will be playing against each other for the first time July 6, 2000 in the tennis semifinals at Wimbledon. (Photo by Paul Harris/Online USA)', None, None], [None, 'data:image/gif;base64,R0lGODlhEAAJAJEAAAAAAP///////wAAACH5BAEAAAIALAAAAAAQAAkAAAIKlI+py+0Po5yUFQA7', 'Serena Williams exited the French Open on Saturday to her fellow American Sofia Kenin in the third round. ', None, None], [None, '//cdn.cnn.com/cnnnext/dam/assets/190601192655-serena-super-169.jpg', 'Serena Williams exited the French Open on Saturday to her fellow American Sofia Kenin in the third round. ', None, None], [None, 'data:image/gif;base64,R0lGODlhEAAJAJEAAAAAAP///////wAAACH5BAEAAAIALAAAAAAQAAkAAAIKlI+py+0Po5yUFQA7', 'Williams, bidding for a 24th major, rallied in a second set but fell 6-2 7-5. A knee injury hampered the 37-year-old in the buildup. ', None, None], [None, '//cdn.cnn.com/cnnnext/dam/assets/190601193424-serena-serve-super-169.jpg', 'Williams, bidding for a 24th major, rallied in a second set but fell 6-2 7-5. A knee injury hampered the 37-year-old in the buildup. ', None, None], [None, 'data:image/gif;base64,R0lGODlhEAAJAJEAAAAAAP///////wAAACH5BAEAAAIALAAAAAAQAAkAAAIKlI+py+0Po5yUFQA7', 'Kenin, a hard-hitting baseliner, celebrated victory. The 20-year-old made the fourth round at a major for the first time. ', None, None], [None, '//cdn.cnn.com/cnnnext/dam/assets/190601193841-kenin-super-169.jpg', 'Kenin, a hard-hitting baseliner, celebrated victory. The 20-year-old made the fourth round at a major for the first time. ', None, None], [None, 'data:image/gif;base64,R0lGODlhEAAJAJEAAAAAAP///////wAAACH5BAEAAAIALAAAAAAQAAkAAAIKlI+py+0Po5yUFQA7', 'It was indeed a day of shocks, as Naomi Osaka saw her 16-match grand slam winning streak come to an end. ', None, None], [None, '//cdn.cnn.com/cnnnext/dam/assets/190601163516-osaka-super-169.jpg', 'It was indeed a day of shocks, as Naomi Osaka saw her 16-match grand slam winning streak come to an end. ', None, None], [None, 'data:image/gif;base64,R0lGODlhEAAJAJEAAAAAAP///////wAAACH5BAEAAAIALAAAAAAQAAkAAAIKlI+py+0Po5yUFQA7', 'The world No. 1 lost in straight sets to Katerina Siniakova, going 0-for-7 on break points and making 38 unforced errors. ', None, None], [None, '//cdn.cnn.com/cnnnext/dam/assets/190601163830-osaka-super-169.jpg', 'The world No. 1 lost in straight sets to Katerina Siniakova, going 0-for-7 on break points and making 38 unforced errors. ', None, None], [None, 'data:image/gif;base64,R0lGODlhEAAJAJEAAAAAAP///////wAAACH5BAEAAAIALAAAAAAQAAkAAAIKlI+py+0Po5yUFQA7', 'Siniakova, 23, is a doubles world No. 1 and former junior star. She picked up her first win over a No. 1 player in singles. ', None, None], [None, '//cdn.cnn.com/cnnnext/dam/assets/190601164132-siniakova-super-169.jpg', 'Siniakova, 23, is a doubles world No. 1 and former junior star. She picked up her first win over a No. 1 player in singles. ', None, None], [None, 'data:image/gif;base64,R0lGODlhEAAJAJEAAAAAAP///////wAAACH5BAEAAAIALAAAAAAQAAkAAAIKlI+py+0Po5yUFQA7', 'After dropping a set in her first two matches, defending champion Simona Halep needed just an hour to breeze past Lesia Tsurenko. ', None, None], [None, '//cdn.cnn.com/cnnnext/dam/assets/190601122331-halep-super-169.jpg', 'After dropping a set in her first two matches, defending champion Simona Halep needed just an hour to breeze past Lesia Tsurenko. ', None, None], [None, 'data:image/gif;base64,R0lGODlhEAAJAJEAAAAAAP///////wAAACH5BAEAAAIALAAAAAAQAAkAAAIKlI+py+0Po5yUFQA7', 'Men&#39;s No. 1 Novak Djokovic continued to cruise. The Serb, bidding for a fourth straight major, beat Italy&#39;s Salvatore Caruso 6-3 6-3 6-2. ', None, None], [None, '//cdn.cnn.com/cnnnext/dam/assets/190601162830-djokovic-super-169.jpg', 'Men&#39;s No. 1 Novak Djokovic continued to cruise. The Serb, bidding for a fourth straight major, beat Italy&#39;s Salvatore Caruso 6-3 6-3 6-2. ', None, None], [None, 'data:image/gif;base64,R0lGODlhEAAJAJEAAAAAAP///////wAAACH5BAEAAAIALAAAAAAQAAkAAAIKlI+py+0Po5yUFQA7', 'Stan Wawrinka, the 2015 champion, collected his 500th career win when he completed a 7-6 7-6 7-6 win over Grigor Dimitrov. The match had been suspended due to darkness Friday after two sets. ', None, None], [None, '//cdn.cnn.com/cnnnext/dam/assets/190601162514-wawrinka-super-169.jpg', 'Stan Wawrinka, the 2015 champion, collected his 500th career win when he completed a 7-6 7-6 7-6 win over Grigor Dimitrov. The match had been suspended due to darkness Friday after two sets. ', None, None], [None, 'data:image/gif;base64,R0lGODlhEAAJAJEAAAAAAP///////wAAACH5BAEAAAIALAAAAAAQAAkAAAIKlI+py+0Po5yUFQA7', 'Stefanos Tsitsipas, semifinalist at the Australian Open and a winner over Rafael Nadal on clay last month, continued to progress with a four-set win over Filip Krajinovic. ', None, None], [None, '//cdn.cnn.com/cnnnext/dam/assets/190601124637-tsitsipas-super-169.jpg', 'Stefanos Tsitsipas, semifinalist at the Australian Open and a winner over Rafael Nadal on clay last month, continued to progress with a four-set win over Filip Krajinovic. ', None, None], [None, 'data:image/gif;base64,R0lGODlhEAAJAJEAAAAAAP///////wAAACH5BAEAAAIALAAAAAAQAAkAAAIKlI+py+0Po5yUFQA7', 'Krajinovic, who had won his first two matches in five sets, could have played in another. He led the fourth 5-3 and held a set point in the fourth-set tiebreak. ', None, None], [None, '//cdn.cnn.com/cnnnext/dam/assets/190601124247-krajinovic-super-169.jpg', 'Krajinovic, who had won his first two matches in five sets, could have played in another. He led the fourth 5-3 and held a set point in the fourth-set tiebreak. ', None, None], [None, '//cdn.cnn.com/cnnnext/dam/assets/190601192655-serena-small-11.jpg', 'Serena', None, None], [None, '//cdn.cnn.com/cnnnext/dam/assets/190601193424-serena-serve-small-11.jpg', 'Serena serve', None, None], [None, '//cdn.cnn.com/cnnnext/dam/assets/190601193841-kenin-small-11.jpg', 'Kenin', None, None], [None, '//cdn.cnn.com/cnnnext/dam/assets/190601163516-osaka-small-11.jpg', 'Osaka', None, None], [None, '//cdn.cnn.com/cnnnext/dam/assets/190601163830-osaka-small-11.jpg', 'Osaka', None, None], [None, '//cdn.cnn.com/cnnnext/dam/assets/190601164132-siniakova-small-11.jpg', 'Siniakova', None, None], [None, '//cdn.cnn.com/cnnnext/dam/assets/190601122331-halep-small-11.jpg', 'Halep', None, None], [None, '//cdn.cnn.com/cnnnext/dam/assets/190601162830-djokovic-small-11.jpg', 'Djokovic', None, None], [None, '//cdn.cnn.com/cnnnext/dam/assets/190601162514-wawrinka-small-11.jpg', 'Wawrinka', None, None], [None, '//cdn.cnn.com/cnnnext/dam/assets/190601124637-tsitsipas-small-11.jpg', 'Tsitsipas', None, None], [None, '//cdn.cnn.com/cnnnext/dam/assets/190601124247-krajinovic-small-11.jpg', 'Krajinovic ', None, None], [None, 'data:image/gif;base64,R0lGODlhEAAJAJEAAAAAAP///////wAAACH5BAEAAAIALAAAAAAQAAkAAAIKlI+py+0Po5yUFQA7', 'Naomi Osaka: Tennis&#39; next Serena Williams?', None, None], [None, '//cdn.cnn.com/cnnnext/dam/assets/190308100030-naomi-osaka-australian-open-large-169.jpg', 'Naomi Osaka: Tennis&#39; next Serena Williams?', None, None], [None, '//cdn.cnn.com/cnnnext/dam/assets/190308100030-naomi-osaka-australian-open-large-169.jpg', 'Naomi Osaka Australian Open', None, None], [None, 'data:image/gif;base64,R0lGODlhEAAJAJEAAAAAAP///////wAAACH5BAEAAAIALAAAAAAQAAkAAAIKlI+py+0Po5yUFQA7', 'Looking back at Osaka &amp; Djokovic&#39;s U.S. Open triumphs', None, None], [None, '//cdn.cnn.com/cnnnext/dam/assets/180911090732-osaka-djokovic-win-u-s-open-spt-00005602-large-169.jpg', 'Looking back at Osaka &amp; Djokovic&#39;s U.S. Open triumphs', None, None], [None, '//cdn.cnn.com/cnnnext/dam/assets/180911090732-osaka-djokovic-win-u-s-open-spt-00005602-large-169.jpg', 'Osaka, Djokovic Win U.S Open SPT_00005602', None, None]]",
"class": "random"
}