{
"url": "https://www.huffpost.com/entry/jaws-cat-adoption-ad_n_566ec816e4b0e292150e6444",
"title": "Cat Missing Her Mandible Gets Extra Special Adoption Listing | HuffPost",
"meta": "{'keywords': 'Cats,cat adoption,funny cat adoption listing,rspca nsw,cat with lisp,australian cat with lisp,special needs pets,special needs cat', 'description': 'We love you, Jawths!', 'og:type': 'article', 'og:title': 'Cat Missing Her Mandible Gets Extra Special Adoption Listing', 'og:site_name': 'HuffPost'}",
"article_content": "GOOD NEWS\n12/14/2015 01:04 pm ET\nCat Missing Her Mandible Gets Extra Special Adoption Listing\nWe love you, Jawths!\nBy Arin Greenwood\nRSPCA NSW\nIf they gave awards for fantastic cat adoption ads, this one would take first place.\nIt's for a sweet cat named Jaws, who was picked up as a stray in Sydney, Australia, about two months ago.\nJaws is friendly, playful, loving -- and missing part of her mandible, which makes her a bit of a messy eater, and also gives her the world's cutest smile.\n\"That\u2019s the biggest impact of her funny little mouth,\" Jessica Conway, RSPCA NSW spokesperson, told The Huffington Post. \"She\u2019ll also need a family that\u2019s happy to give her a brush and a bit of a cleanup with a damp face washer, too, as she isn\u2019t able to groom herself as well as she otherwise would.\"\nBizarrely, however, Jaws wasn't attracting much attention from potential adopters.\u00a0So the RSCPA of New South Wales came up with this amazing adoption listing, that capitalizes on Jaws' distinctively compelling qualities.\n\"Like all our animals, we try to find what makes them special, and share it with the world,\" Conway said. \"We are celebrating this 'difference' as what makes her so special and unique.\"\nWe like it:\nHello there, my name ith Jawths.I wath brought into the thelter ath a thray cat. Luckily thumone thpotted me when I thruggling to eat, and quickly thaw thumthing was mithing. They took me to the local vet hothpital, and I was tranthferred to the R-ETH-P-THEE-A.When the vet thaw me, he thaw that half my bottom jaw wath mithing, cauthing my tongue to hang out and for me to have thith wonderful lithspe.I am definitely a thpecial needth cat, and will need thumone thuper thpecial to care for me. Bethide from my tongue hanging out, I'm actually a pretty normal cat, loving to play, chathe toyth and loving chin thratcheth.Pleath come and adopt from me from Thydney Thelter!\nIf you like it too, which we expect you will, reach out to the RSPCA NSW.\nThe shelter is amenable to working with potential adopters who aren't in Australia, if it means getting Jaws where she belongs -- in a home where she'll be loved, appreciated and given a her rightful daily helping of hugth and kitheth.\nRSPCA NSW\nGet in touch with HuffPost's animal welfare editor at arin.greenwood@huffingtonpost.com\nAlso on HuffPost:\nPHOTO GALLERY\n10 Sleeping Positions Cats Love\nThe Huffington Post\nREAL LIFE. REAL NEWS. REAL VOICES.\nHelp us tell more of the stories that matter from voices that too often remain unheard.\nJoin HuffPost Plus\nArin Greenwood\nAnimal Welfare Editor, The Huffington Post\nSuggest a correction\nMORE:\nFunny Cats\nRspca Nsw\nCat With Lisp\nAustralian Cat With Lisp",
"comments_found": "False",
"comments": null,
"img": "[[None, 'https://img.huffingtonpost.com/asset/5616d5ff14000014003c7d1b.jpg?ops=100_100', 'headshot', '38px', '38px'], [None, 'https://img.huffingtonpost.com/asset/566ecf091f00002c00e9ba5e.jpeg?cache=kjx9wgmi6d&ops=scalefit_720_noupscale', '', None, None], [None, 'https://img.huffingtonpost.com/asset/566ee4ad1600002c00eb8b8b.jpeg?ops=scalefit_720_noupscale', '', None, None], [None, 'https://img.huffingtonpost.com/asset/562129151400006f003c86f1.png?ops=scalefit_720_noupscale', '', None, None], [None, 'https://img.huffingtonpost.com/asset/5616d5ff14000014003c7d1b.jpg?ops=100_100', 'headshot', '38px', '38px']]",
"class": "cats"
}