{
"url": "https://www.buzzfeednews.com/article/adambvary/robert-pattinson-the-batman",
"title": "Robert Pattinson In Talks To Play \"The Batman\" ",
"meta": "{'description': 'The Twilight heartthrob would headline The Batman, the latest movie reboot of the DC Comics superhero franchise.', 'og:type': 'article', 'og:title': 'Robert Pattinson Is Lined Up To Play \"The Batman\"', 'og:site_name': 'BuzzFeed News'}",
"article_content": "Skip To Content\nBuzzFeed News Home\nReporting To You\nMenu Icon\nRobert Pattinson Is Lined Up To Play \"The Batman\"\nFacebook\nBuzzFeed News Logo\nSections\n\ud83c\udf7f Arts & Entertainment\n\ud83d\udcda Books\n\ud83d\udcbc Business\n\ud83d\udd75\ufe0f\u200d Investigations\n\ud83c\udff3\ufe0f\u200d\ud83c\udf08 LGBT\n\ud83d\udc69\ud83c\udffd\u200d\u2696\ufe0f Politics\n\ud83d\udd2c Science\n\ud83d\udcbb Tech\n\ud83c\udf0d World\nAbout Us\nGot a tip?\nSupport Us\nbuzzfeed.com\nArts & Entertainment\nRobert Pattinson Is Lined Up To Play \"The Batman\"\nThe Twilight heartthrob would headline The Batman, the latest movie reboot of the DC Comics superhero franchise.\nAdam B. Vary\nAdam B. Vary\nBuzzFeed News Reporter\nPosted on May 31, 2019, at 1:49 p.m. ET\nTweet\nShare\nCopy\nJack Taylor / Getty Images, Fadel Senna / AFP / Getty Images\nRobert Pattinson is in negotiations to play Batman, aka Bruce Wayne, in The Batman, the latest movie reboot of the popular DC Comics superhero, BuzzFeed News has confirmed.The film will be written and directed by Matt Reeves (War for the Planet of the Apes), and is expected to open in June 2021.On Friday, Variety reported that Pattinson \u201cis officially\u201d Batman, but a spokesperson for Warner Bros. told BuzzFeed News the casting is \u201cin negotiations.\u201dAfter launching his career as Cedric Diggory in 2005\u2019s Harry Potter and the Goblet of Fire, Pattison became a global heartthrob after he was cast as the dashing vampire Edward in the Twilight series. Since that franchise concluded in 2012, however, Pattison has spent the better part of the decade pursuing a series of character-driven roles in smaller, often independent productions, including the 2016 biographical adventure drama The Lost City of Z, the gritty 2017 crime thriller Good Time, this year\u2019s sci-fi art film High Life, and the period drama The Lighthouse, which just premiered at the Cannes Film Festival.With The Batman, Pattinson joins the rarefied troupe of leading men who have also put on the Dark Knight\u2019s cape and cowl, including Michael Keaton (for 1989\u2019s Batman and 1992\u2019s Batman Returns), Val Kilmer (for 1995\u2019s Batman Forever), George Clooney (for 1997\u2019s Batman & Robin), and Christian Bale (for the Dark Knight trilogy spanning from 2005 to 2012).Most recently, Ben Affleck played the Caped Crusader for 2016\u2019s Batman v Superman: Dawn of Justice and 2017\u2019s Justice League. Affleck was initially attached to direct and star in The Batman, but he left the project and Reeves stepped in.It remains unclear whether Reeves\u2019 film will connect with the ongoing loosely connected cinematic universe of DC Comics characters launched by Batman v Superman. The next installment in that series, Wonder Woman 1984, is scheduled to open June 2020.\nAdam B. Vary is a senior film reporter for BuzzFeed News and is based in Los Angeles.\nContact Adam B. Vary at adam.vary@buzzfeed.com.\nGot a confidential tip? Submit it here.\nView Comments\nLooks like your browser doesn't support JavaScript.\nSections\nArts & Entertainment\nBusiness\nLGBT\nPolitics\nScience\nWorld\nFollow Us\nFacebook\nTwitter\nInstagram\nSupport Us\nBuzzFeed.com\nPrivacy Policy\nUser Agreement\nBuzzFeed News Home\nBuzzFeed\nOur serif font, Pensum, is brought to you by Typemates.\nTwitter\nCopy",
"comments_found": "False",
"comments": null,
"img": "[[None, 'https://img.buzzfeed.com/buzzfeed-static/static/2018-08/31/19/user_images/buzzfeed-prod-web-03/adambvary-v2-5620-1535757993-0_large.png', None], [None, 'data:image/gif;base64,R0lGODlhAQABAIAAAAAAAP///yH5BAEAAAAALAAAAAABAAEAAAIBRAA7', ''], [None, 'data:image/gif;base64,R0lGODlhAQABAIAAAAAAAP///yH5BAEAAAAALAAAAAABAAEAAAIBRAA7', ''], [None, 'https://img.buzzfeed.com/buzzfeed-static/static/2018-08/31/19/user_images/buzzfeed-prod-web-03/adambvary-v2-5620-1535757993-0_large.png', 'Picture of Adam B. Vary'], [None, 'https://pixiedust.buzzfeed.com/v1.gif?source=buzz_web&platform=news_bpager&type=instrumentation&target=javascript&value=disabled', None], [None, 'https://img.buzzfeed.com/buzzfeed-static/static/2018-08/31/19/user_images/buzzfeed-prod-web-03/adambvary-v2-5620-1535757993-0_large.png', None], [None, 'data:image/gif;base64,R0lGODlhAQABAIAAAAAAAP///yH5BAEAAAAALAAAAAABAAEAAAIBRAA7', ''], [None, 'data:image/gif;base64,R0lGODlhAQABAIAAAAAAAP///yH5BAEAAAAALAAAAAABAAEAAAIBRAA7', ''], [None, 'https://img.buzzfeed.com/buzzfeed-static/static/2018-08/31/19/user_images/buzzfeed-prod-web-03/adambvary-v2-5620-1535757993-0_large.png', 'Picture of Adam B. Vary'], [None, 'https://pixiedust.buzzfeed.com/v1.gif?source=buzz_web&platform=news_bpager&type=instrumentation&target=javascript&value=disabled', None], [None, 'https://img.buzzfeed.com/buzzfeed-static/static/2018-08/31/19/user_images/buzzfeed-prod-web-03/adambvary-v2-5620-1535757993-0_large.png', None], [None, 'data:image/gif;base64,R0lGODlhAQABAIAAAAAAAP///yH5BAEAAAAALAAAAAABAAEAAAIBRAA7', ''], [None, 'data:image/gif;base64,R0lGODlhAQABAIAAAAAAAP///yH5BAEAAAAALAAAAAABAAEAAAIBRAA7', ''], [None, 'https://img.buzzfeed.com/buzzfeed-static/static/2018-08/31/19/user_images/buzzfeed-prod-web-03/adambvary-v2-5620-1535757993-0_large.png', 'Picture of Adam B. Vary'], [None, 'https://pixiedust.buzzfeed.com/v1.gif?source=buzz_web&platform=news_bpager&type=instrumentation&target=javascript&value=disabled', None], [None, 'https://img.buzzfeed.com/buzzfeed-static/static/2018-08/31/19/user_images/buzzfeed-prod-web-03/adambvary-v2-5620-1535757993-0_large.png', None], [None, 'data:image/gif;base64,R0lGODlhAQABAIAAAAAAAP///yH5BAEAAAAALAAAAAABAAEAAAIBRAA7', ''], [None, 'data:image/gif;base64,R0lGODlhAQABAIAAAAAAAP///yH5BAEAAAAALAAAAAABAAEAAAIBRAA7', ''], [None, 'https://img.buzzfeed.com/buzzfeed-static/static/2018-08/31/19/user_images/buzzfeed-prod-web-03/adambvary-v2-5620-1535757993-0_large.png', 'Picture of Adam B. Vary'], [None, 'https://pixiedust.buzzfeed.com/v1.gif?source=buzz_web&platform=news_bpager&type=instrumentation&target=javascript&value=disabled', None], [None, 'https://img.buzzfeed.com/buzzfeed-static/static/2018-08/31/19/user_images/buzzfeed-prod-web-03/adambvary-v2-5620-1535757993-0_large.png', None], [None, 'data:image/gif;base64,R0lGODlhAQABAIAAAAAAAP///yH5BAEAAAAALAAAAAABAAEAAAIBRAA7', ''], [None, 'data:image/gif;base64,R0lGODlhAQABAIAAAAAAAP///yH5BAEAAAAALAAAAAABAAEAAAIBRAA7', ''], [None, 'https://img.buzzfeed.com/buzzfeed-static/static/2018-08/31/19/user_images/buzzfeed-prod-web-03/adambvary-v2-5620-1535757993-0_large.png', 'Picture of Adam B. Vary'], [None, 'https://pixiedust.buzzfeed.com/v1.gif?source=buzz_web&platform=news_bpager&type=instrumentation&target=javascript&value=disabled', None], [None, 'https://img.buzzfeed.com/buzzfeed-static/static/2018-08/31/19/user_images/buzzfeed-prod-web-03/adambvary-v2-5620-1535757993-0_large.png', None], [None, 'data:image/gif;base64,R0lGODlhAQABAIAAAAAAAP///yH5BAEAAAAALAAAAAABAAEAAAIBRAA7', ''], [None, 'data:image/gif;base64,R0lGODlhAQABAIAAAAAAAP///yH5BAEAAAAALAAAAAABAAEAAAIBRAA7', ''], [None, 'https://img.buzzfeed.com/buzzfeed-static/static/2018-08/31/19/user_images/buzzfeed-prod-web-03/adambvary-v2-5620-1535757993-0_large.png', 'Picture of Adam B. Vary'], [None, 'https://pixiedust.buzzfeed.com/v1.gif?source=buzz_web&platform=news_bpager&type=instrumentation&target=javascript&value=disabled', None], [None, 'https://img.buzzfeed.com/buzzfeed-static/static/2018-08/31/19/user_images/buzzfeed-prod-web-03/adambvary-v2-5620-1535757993-0_large.png', None], [None, 'data:image/gif;base64,R0lGODlhAQABAIAAAAAAAP///yH5BAEAAAAALAAAAAABAAEAAAIBRAA7', ''], [None, 'data:image/gif;base64,R0lGODlhAQABAIAAAAAAAP///yH5BAEAAAAALAAAAAABAAEAAAIBRAA7', ''], [None, 'https://img.buzzfeed.com/buzzfeed-static/static/2018-08/31/19/user_images/buzzfeed-prod-web-03/adambvary-v2-5620-1535757993-0_large.png', 'Picture of Adam B. Vary'], [None, 'https://pixiedust.buzzfeed.com/v1.gif?source=buzz_web&platform=news_bpager&type=instrumentation&target=javascript&value=disabled', None], [None, 'https://img.buzzfeed.com/buzzfeed-static/static/2018-08/31/19/user_images/buzzfeed-prod-web-03/adambvary-v2-5620-1535757993-0_large.png', None], [None, 'data:image/gif;base64,R0lGODlhAQABAIAAAAAAAP///yH5BAEAAAAALAAAAAABAAEAAAIBRAA7', ''], [None, 'data:image/gif;base64,R0lGODlhAQABAIAAAAAAAP///yH5BAEAAAAALAAAAAABAAEAAAIBRAA7', ''], [None, 'https://img.buzzfeed.com/buzzfeed-static/static/2018-08/31/19/user_images/buzzfeed-prod-web-03/adambvary-v2-5620-1535757993-0_large.png', 'Picture of Adam B. Vary'], [None, 'https://pixiedust.buzzfeed.com/v1.gif?source=buzz_web&platform=news_bpager&type=instrumentation&target=javascript&value=disabled', None], [None, 'https://img.buzzfeed.com/buzzfeed-static/static/2018-08/31/19/user_images/buzzfeed-prod-web-03/adambvary-v2-5620-1535757993-0_large.png', None], [None, 'data:image/gif;base64,R0lGODlhAQABAIAAAAAAAP///yH5BAEAAAAALAAAAAABAAEAAAIBRAA7', ''], [None, 'data:image/gif;base64,R0lGODlhAQABAIAAAAAAAP///yH5BAEAAAAALAAAAAABAAEAAAIBRAA7', ''], [None, 'https://img.buzzfeed.com/buzzfeed-static/static/2018-08/31/19/user_images/buzzfeed-prod-web-03/adambvary-v2-5620-1535757993-0_large.png', 'Picture of Adam B. Vary'], [None, 'https://pixiedust.buzzfeed.com/v1.gif?source=buzz_web&platform=news_bpager&type=instrumentation&target=javascript&value=disabled', None], [None, 'https://img.buzzfeed.com/buzzfeed-static/static/2018-08/31/19/user_images/buzzfeed-prod-web-03/adambvary-v2-5620-1535757993-0_large.png', None], [None, 'data:image/gif;base64,R0lGODlhAQABAIAAAAAAAP///yH5BAEAAAAALAAAAAABAAEAAAIBRAA7', ''], [None, 'data:image/gif;base64,R0lGODlhAQABAIAAAAAAAP///yH5BAEAAAAALAAAAAABAAEAAAIBRAA7', ''], [None, 'https://img.buzzfeed.com/buzzfeed-static/static/2018-08/31/19/user_images/buzzfeed-prod-web-03/adambvary-v2-5620-1535757993-0_large.png', 'Picture of Adam B. Vary'], [None, 'https://pixiedust.buzzfeed.com/v1.gif?source=buzz_web&platform=news_bpager&type=instrumentation&target=javascript&value=disabled', None], [None, 'https://img.buzzfeed.com/buzzfeed-static/static/2018-08/31/19/user_images/buzzfeed-prod-web-03/adambvary-v2-5620-1535757993-0_large.png', None], [None, 'data:image/gif;base64,R0lGODlhAQABAIAAAAAAAP///yH5BAEAAAAALAAAAAABAAEAAAIBRAA7', ''], [None, 'data:image/gif;base64,R0lGODlhAQABAIAAAAAAAP///yH5BAEAAAAALAAAAAABAAEAAAIBRAA7', ''], [None, 'https://img.buzzfeed.com/buzzfeed-static/static/2018-08/31/19/user_images/buzzfeed-prod-web-03/adambvary-v2-5620-1535757993-0_large.png', 'Picture of Adam B. Vary'], [None, 'https://pixiedust.buzzfeed.com/v1.gif?source=buzz_web&platform=news_bpager&type=instrumentation&target=javascript&value=disabled', None], [None, 'https://img.buzzfeed.com/buzzfeed-static/static/2018-08/31/19/user_images/buzzfeed-prod-web-03/adambvary-v2-5620-1535757993-0_large.png', None], [None, 'data:image/gif;base64,R0lGODlhAQABAIAAAAAAAP///yH5BAEAAAAALAAAAAABAAEAAAIBRAA7', ''], [None, 'data:image/gif;base64,R0lGODlhAQABAIAAAAAAAP///yH5BAEAAAAALAAAAAABAAEAAAIBRAA7', ''], [None, 'https://img.buzzfeed.com/buzzfeed-static/static/2018-08/31/19/user_images/buzzfeed-prod-web-03/adambvary-v2-5620-1535757993-0_large.png', 'Picture of Adam B. Vary'], [None, 'https://pixiedust.buzzfeed.com/v1.gif?source=buzz_web&platform=news_bpager&type=instrumentation&target=javascript&value=disabled', None], [None, 'https://img.buzzfeed.com/buzzfeed-static/static/2018-08/31/19/user_images/buzzfeed-prod-web-03/adambvary-v2-5620-1535757993-0_large.png', None], [None, 'data:image/gif;base64,R0lGODlhAQABAIAAAAAAAP///yH5BAEAAAAALAAAAAABAAEAAAIBRAA7', ''], [None, 'data:image/gif;base64,R0lGODlhAQABAIAAAAAAAP///yH5BAEAAAAALAAAAAABAAEAAAIBRAA7', ''], [None, 'https://img.buzzfeed.com/buzzfeed-static/static/2018-08/31/19/user_images/buzzfeed-prod-web-03/adambvary-v2-5620-1535757993-0_large.png', 'Picture of Adam B. Vary'], [None, 'https://pixiedust.buzzfeed.com/v1.gif?source=buzz_web&platform=news_bpager&type=instrumentation&target=javascript&value=disabled', None], [None, 'https://img.buzzfeed.com/buzzfeed-static/static/2018-08/31/19/user_images/buzzfeed-prod-web-03/adambvary-v2-5620-1535757993-0_large.png', None], [None, 'data:image/gif;base64,R0lGODlhAQABAIAAAAAAAP///yH5BAEAAAAALAAAAAABAAEAAAIBRAA7', ''], [None, 'data:image/gif;base64,R0lGODlhAQABAIAAAAAAAP///yH5BAEAAAAALAAAAAABAAEAAAIBRAA7', ''], [None, 'https://img.buzzfeed.com/buzzfeed-static/static/2018-08/31/19/user_images/buzzfeed-prod-web-03/adambvary-v2-5620-1535757993-0_large.png', 'Picture of Adam B. Vary'], [None, 'https://pixiedust.buzzfeed.com/v1.gif?source=buzz_web&platform=news_bpager&type=instrumentation&target=javascript&value=disabled', None], [None, 'https://img.buzzfeed.com/buzzfeed-static/static/2018-08/31/19/user_images/buzzfeed-prod-web-03/adambvary-v2-5620-1535757993-0_large.png', None], [None, 'data:image/gif;base64,R0lGODlhAQABAIAAAAAAAP///yH5BAEAAAAALAAAAAABAAEAAAIBRAA7', ''], [None, 'data:image/gif;base64,R0lGODlhAQABAIAAAAAAAP///yH5BAEAAAAALAAAAAABAAEAAAIBRAA7', ''], [None, 'https://img.buzzfeed.com/buzzfeed-static/static/2018-08/31/19/user_images/buzzfeed-prod-web-03/adambvary-v2-5620-1535757993-0_large.png', 'Picture of Adam B. Vary'], [None, 'https://pixiedust.buzzfeed.com/v1.gif?source=buzz_web&platform=news_bpager&type=instrumentation&target=javascript&value=disabled', None], [None, 'https://img.buzzfeed.com/buzzfeed-static/static/2018-08/31/19/user_images/buzzfeed-prod-web-03/adambvary-v2-5620-1535757993-0_large.png', None], [None, 'data:image/gif;base64,R0lGODlhAQABAIAAAAAAAP///yH5BAEAAAAALAAAAAABAAEAAAIBRAA7', ''], [None, 'data:image/gif;base64,R0lGODlhAQABAIAAAAAAAP///yH5BAEAAAAALAAAAAABAAEAAAIBRAA7', ''], [None, 'https://img.buzzfeed.com/buzzfeed-static/static/2018-08/31/19/user_images/buzzfeed-prod-web-03/adambvary-v2-5620-1535757993-0_large.png', 'Picture of Adam B. Vary'], [None, 'https://pixiedust.buzzfeed.com/v1.gif?source=buzz_web&platform=news_bpager&type=instrumentation&target=javascript&value=disabled', None], [None, 'https://img.buzzfeed.com/buzzfeed-static/static/2018-08/31/19/user_images/buzzfeed-prod-web-03/adambvary-v2-5620-1535757993-0_large.png', None], [None, 'data:image/gif;base64,R0lGODlhAQABAIAAAAAAAP///yH5BAEAAAAALAAAAAABAAEAAAIBRAA7', ''], [None, 'data:image/gif;base64,R0lGODlhAQABAIAAAAAAAP///yH5BAEAAAAALAAAAAABAAEAAAIBRAA7', ''], [None, 'https://img.buzzfeed.com/buzzfeed-static/static/2018-08/31/19/user_images/buzzfeed-prod-web-03/adambvary-v2-5620-1535757993-0_large.png', 'Picture of Adam B. Vary'], [None, 'https://img.buzzfeed.com/buzzfeed-static/static/2018-08/31/19/user_images/buzzfeed-prod-web-03/adambvary-v2-5620-1535757993-0_large.png', None], [None, 'data:image/gif;base64,R0lGODlhAQABAIAAAAAAAP///yH5BAEAAAAALAAAAAABAAEAAAIBRAA7', ''], [None, 'data:image/gif;base64,R0lGODlhAQABAIAAAAAAAP///yH5BAEAAAAALAAAAAABAAEAAAIBRAA7', ''], [None, 'https://img.buzzfeed.com/buzzfeed-static/static/2018-08/31/19/user_images/buzzfeed-prod-web-03/adambvary-v2-5620-1535757993-0_large.png', 'Picture of Adam B. Vary'], [None, 'https://img.buzzfeed.com/buzzfeed-static/static/2018-08/31/19/user_images/buzzfeed-prod-web-03/adambvary-v2-5620-1535757993-0_large.png', None], [None, 'data:image/gif;base64,R0lGODlhAQABAIAAAAAAAP///yH5BAEAAAAALAAAAAABAAEAAAIBRAA7', ''], [None, 'data:image/gif;base64,R0lGODlhAQABAIAAAAAAAP///yH5BAEAAAAALAAAAAABAAEAAAIBRAA7', ''], [None, 'https://img.buzzfeed.com/buzzfeed-static/static/2018-08/31/19/user_images/buzzfeed-prod-web-03/adambvary-v2-5620-1535757993-0_large.png', 'Picture of Adam B. Vary'], [None, 'https://img.buzzfeed.com/buzzfeed-static/static/2018-08/31/19/user_images/buzzfeed-prod-web-03/adambvary-v2-5620-1535757993-0_large.png', None], [None, 'data:image/gif;base64,R0lGODlhAQABAIAAAAAAAP///yH5BAEAAAAALAAAAAABAAEAAAIBRAA7', ''], [None, 'data:image/gif;base64,R0lGODlhAQABAIAAAAAAAP///yH5BAEAAAAALAAAAAABAAEAAAIBRAA7', ''], [None, 'https://img.buzzfeed.com/buzzfeed-static/static/2018-08/31/19/user_images/buzzfeed-prod-web-03/adambvary-v2-5620-1535757993-0_large.png', 'Picture of Adam B. Vary'], [None, 'https://img.buzzfeed.com/buzzfeed-static/static/2018-08/31/19/user_images/buzzfeed-prod-web-03/adambvary-v2-5620-1535757993-0_large.png', None], [None, 'https://img.buzzfeed.com/buzzfeed-static/static/2018-08/31/19/user_images/buzzfeed-prod-web-03/adambvary-v2-5620-1535757993-0_large.png', None], [None, 'data:image/gif;base64,R0lGODlhAQABAIAAAAAAAP///yH5BAEAAAAALAAAAAABAAEAAAIBRAA7', ''], [None, 'data:image/gif;base64,R0lGODlhAQABAIAAAAAAAP///yH5BAEAAAAALAAAAAABAAEAAAIBRAA7', ''], [None, 'https://img.buzzfeed.com/buzzfeed-static/static/2018-08/31/19/user_images/buzzfeed-prod-web-03/adambvary-v2-5620-1535757993-0_large.png', 'Picture of Adam B. Vary'], [None, 'https://img.buzzfeed.com/buzzfeed-static/static/2018-08/31/19/user_images/buzzfeed-prod-web-03/adambvary-v2-5620-1535757993-0_large.png', None], [None, 'data:image/gif;base64,R0lGODlhAQABAIAAAAAAAP///yH5BAEAAAAALAAAAAABAAEAAAIBRAA7', ''], [None, 'data:image/gif;base64,R0lGODlhAQABAIAAAAAAAP///yH5BAEAAAAALAAAAAABAAEAAAIBRAA7', ''], [None, 'https://img.buzzfeed.com/buzzfeed-static/static/2018-08/31/19/user_images/buzzfeed-prod-web-03/adambvary-v2-5620-1535757993-0_large.png', 'Picture of Adam B. Vary'], [None, 'https://img.buzzfeed.com/buzzfeed-static/static/2018-08/31/19/user_images/buzzfeed-prod-web-03/adambvary-v2-5620-1535757993-0_large.png', None], [None, 'https://img.buzzfeed.com/buzzfeed-static/static/2018-08/31/19/user_images/buzzfeed-prod-web-03/adambvary-v2-5620-1535757993-0_large.png', None], [None, 'https://img.buzzfeed.com/buzzfeed-static/static/2018-08/31/19/user_images/buzzfeed-prod-web-03/adambvary-v2-5620-1535757993-0_large.png', None], [None, 'data:image/gif;base64,R0lGODlhAQABAIAAAAAAAP///yH5BAEAAAAALAAAAAABAAEAAAIBRAA7', ''], [None, 'data:image/gif;base64,R0lGODlhAQABAIAAAAAAAP///yH5BAEAAAAALAAAAAABAAEAAAIBRAA7', ''], [None, 'https://img.buzzfeed.com/buzzfeed-static/static/2018-08/31/19/user_images/buzzfeed-prod-web-03/adambvary-v2-5620-1535757993-0_large.png', 'Picture of Adam B. Vary'], [None, 'https://img.buzzfeed.com/buzzfeed-static/static/2018-08/31/19/user_images/buzzfeed-prod-web-03/adambvary-v2-5620-1535757993-0_large.png', None], [None, 'https://img.buzzfeed.com/buzzfeed-static/static/2018-08/31/19/user_images/buzzfeed-prod-web-03/adambvary-v2-5620-1535757993-0_large.png', None], [None, 'data:image/gif;base64,R0lGODlhAQABAIAAAAAAAP///yH5BAEAAAAALAAAAAABAAEAAAIBRAA7', ''], [None, 'data:image/gif;base64,R0lGODlhAQABAIAAAAAAAP///yH5BAEAAAAALAAAAAABAAEAAAIBRAA7', ''], [None, 'https://img.buzzfeed.com/buzzfeed-static/static/2018-08/31/19/user_images/buzzfeed-prod-web-03/adambvary-v2-5620-1535757993-0_large.png', 'Picture of Adam B. Vary'], [None, 'https://img.buzzfeed.com/buzzfeed-static/static/2018-08/31/19/user_images/buzzfeed-prod-web-03/adambvary-v2-5620-1535757993-0_large.png', None], [None, 'https://img.buzzfeed.com/buzzfeed-static/static/2018-08/31/19/user_images/buzzfeed-prod-web-03/adambvary-v2-5620-1535757993-0_large.png', None], [None, 'https://img.buzzfeed.com/buzzfeed-static/static/2018-08/31/19/user_images/buzzfeed-prod-web-03/adambvary-v2-5620-1535757993-0_large.png', None], [None, 'https://img.buzzfeed.com/buzzfeed-static/static/2018-08/31/19/user_images/buzzfeed-prod-web-03/adambvary-v2-5620-1535757993-0_large.png', None], [None, 'https://img.buzzfeed.com/buzzfeed-static/static/2018-08/31/19/user_images/buzzfeed-prod-web-03/adambvary-v2-5620-1535757993-0_large.png', None], [None, 'https://img.buzzfeed.com/buzzfeed-static/static/2018-08/31/19/user_images/buzzfeed-prod-web-03/adambvary-v2-5620-1535757993-0_large.png', None], [None, 'data:image/gif;base64,R0lGODlhAQABAIAAAAAAAP///yH5BAEAAAAALAAAAAABAAEAAAIBRAA7', ''], [None, 'data:image/gif;base64,R0lGODlhAQABAIAAAAAAAP///yH5BAEAAAAALAAAAAABAAEAAAIBRAA7', ''], [None, 'https://img.buzzfeed.com/buzzfeed-static/static/2018-08/31/19/user_images/buzzfeed-prod-web-03/adambvary-v2-5620-1535757993-0_large.png', 'Picture of Adam B. Vary'], [None, 'https://img.buzzfeed.com/buzzfeed-static/static/2018-08/31/19/user_images/buzzfeed-prod-web-03/adambvary-v2-5620-1535757993-0_large.png', None], [None, 'https://img.buzzfeed.com/buzzfeed-static/static/2018-08/31/19/user_images/buzzfeed-prod-web-03/adambvary-v2-5620-1535757993-0_large.png', None], [None, 'data:image/gif;base64,R0lGODlhAQABAIAAAAAAAP///yH5BAEAAAAALAAAAAABAAEAAAIBRAA7', ''], [None, 'data:image/gif;base64,R0lGODlhAQABAIAAAAAAAP///yH5BAEAAAAALAAAAAABAAEAAAIBRAA7', ''], [None, 'https://img.buzzfeed.com/buzzfeed-static/static/2018-08/31/19/user_images/buzzfeed-prod-web-03/adambvary-v2-5620-1535757993-0_large.png', 'Picture of Adam B. Vary'], [None, 'https://img.buzzfeed.com/buzzfeed-static/static/2018-08/31/19/user_images/buzzfeed-prod-web-03/adambvary-v2-5620-1535757993-0_large.png', None], [None, 'https://img.buzzfeed.com/buzzfeed-static/static/2018-08/31/19/user_images/buzzfeed-prod-web-03/adambvary-v2-5620-1535757993-0_large.png', None], [None, 'https://img.buzzfeed.com/buzzfeed-static/static/2018-08/31/19/user_images/buzzfeed-prod-web-03/adambvary-v2-5620-1535757993-0_large.png', None], [None, 'https://img.buzzfeed.com/buzzfeed-static/static/2018-08/31/19/user_images/buzzfeed-prod-web-03/adambvary-v2-5620-1535757993-0_large.png', None], [None, 'https://img.buzzfeed.com/buzzfeed-static/static/2018-08/31/19/user_images/buzzfeed-prod-web-03/adambvary-v2-5620-1535757993-0_large.png', None], [None, 'https://img.buzzfeed.com/buzzfeed-static/static/2018-08/31/19/user_images/buzzfeed-prod-web-03/adambvary-v2-5620-1535757993-0_large.png', None], [None, 'https://img.buzzfeed.com/buzzfeed-static/static/2018-08/31/19/user_images/buzzfeed-prod-web-03/adambvary-v2-5620-1535757993-0_large.png', None], [None, 'https://img.buzzfeed.com/buzzfeed-static/static/2018-08/31/19/user_images/buzzfeed-prod-web-03/adambvary-v2-5620-1535757993-0_large.png', None], [None, 'data:image/gif;base64,R0lGODlhAQABAIAAAAAAAP///yH5BAEAAAAALAAAAAABAAEAAAIBRAA7', ''], [None, 'data:image/gif;base64,R0lGODlhAQABAIAAAAAAAP///yH5BAEAAAAALAAAAAABAAEAAAIBRAA7', ''], [None, 'https://img.buzzfeed.com/buzzfeed-static/static/2018-08/31/19/user_images/buzzfeed-prod-web-03/adambvary-v2-5620-1535757993-0_large.png', 'Picture of Adam B. Vary'], [None, 'https://img.buzzfeed.com/buzzfeed-static/static/2018-08/31/19/user_images/buzzfeed-prod-web-03/adambvary-v2-5620-1535757993-0_large.png', None], [None, 'https://img.buzzfeed.com/buzzfeed-static/static/2018-08/31/19/user_images/buzzfeed-prod-web-03/adambvary-v2-5620-1535757993-0_large.png', None], [None, 'https://img.buzzfeed.com/buzzfeed-static/static/2018-08/31/19/user_images/buzzfeed-prod-web-03/adambvary-v2-5620-1535757993-0_large.png', None], [None, 'https://img.buzzfeed.com/buzzfeed-static/static/2018-08/31/19/user_images/buzzfeed-prod-web-03/adambvary-v2-5620-1535757993-0_large.png', None], [None, 'data:image/gif;base64,R0lGODlhAQABAIAAAAAAAP///yH5BAEAAAAALAAAAAABAAEAAAIBRAA7', ''], [None, 'data:image/gif;base64,R0lGODlhAQABAIAAAAAAAP///yH5BAEAAAAALAAAAAABAAEAAAIBRAA7', ''], [None, 'https://img.buzzfeed.com/buzzfeed-static/static/2018-08/31/19/user_images/buzzfeed-prod-web-03/adambvary-v2-5620-1535757993-0_large.png', 'Picture of Adam B. Vary'], [None, 'https://img.buzzfeed.com/buzzfeed-static/static/2018-08/31/19/user_images/buzzfeed-prod-web-03/adambvary-v2-5620-1535757993-0_large.png', None], [None, 'data:image/gif;base64,R0lGODlhAQABAIAAAAAAAP///yH5BAEAAAAALAAAAAABAAEAAAIBRAA7', ''], [None, 'data:image/gif;base64,R0lGODlhAQABAIAAAAAAAP///yH5BAEAAAAALAAAAAABAAEAAAIBRAA7', ''], [None, 'https://img.buzzfeed.com/buzzfeed-static/static/2018-08/31/19/user_images/buzzfeed-prod-web-03/adambvary-v2-5620-1535757993-0_large.png', 'Picture of Adam B. Vary'], [None, 'data:image/gif;base64,R0lGODlhAQABAIAAAAAAAP///yH5BAEAAAAALAAAAAABAAEAAAIBRAA7', ''], [None, 'data:image/gif;base64,R0lGODlhAQABAIAAAAAAAP///yH5BAEAAAAALAAAAAABAAEAAAIBRAA7', ''], [None, 'data:image/gif;base64,R0lGODlhAQABAIAAAAAAAP///yH5BAEAAAAALAAAAAABAAEAAAIBRAA7', ''], [None, 'data:image/gif;base64,R0lGODlhAQABAIAAAAAAAP///yH5BAEAAAAALAAAAAABAAEAAAIBRAA7', ''], [None, 'data:image/gif;base64,R0lGODlhAQABAIAAAAAAAP///yH5BAEAAAAALAAAAAABAAEAAAIBRAA7', ''], [None, 'data:image/gif;base64,R0lGODlhAQABAIAAAAAAAP///yH5BAEAAAAALAAAAAABAAEAAAIBRAA7', ''], [None, 'data:image/gif;base64,R0lGODlhAQABAIAAAAAAAP///yH5BAEAAAAALAAAAAABAAEAAAIBRAA7', ''], [None, 'data:image/gif;base64,R0lGODlhAQABAIAAAAAAAP///yH5BAEAAAAALAAAAAABAAEAAAIBRAA7', ''], [None, 'data:image/gif;base64,R0lGODlhAQABAIAAAAAAAP///yH5BAEAAAAALAAAAAABAAEAAAIBRAA7', ''], [None, 'data:image/gif;base64,R0lGODlhAQABAIAAAAAAAP///yH5BAEAAAAALAAAAAABAAEAAAIBRAA7', ''], [None, 'data:image/gif;base64,R0lGODlhAQABAIAAAAAAAP///yH5BAEAAAAALAAAAAABAAEAAAIBRAA7', ''], [None, 'data:image/gif;base64,R0lGODlhAQABAIAAAAAAAP///yH5BAEAAAAALAAAAAABAAEAAAIBRAA7', ''], [None, 'data:image/gif;base64,R0lGODlhAQABAIAAAAAAAP///yH5BAEAAAAALAAAAAABAAEAAAIBRAA7', ''], [None, 'data:image/gif;base64,R0lGODlhAQABAIAAAAAAAP///yH5BAEAAAAALAAAAAABAAEAAAIBRAA7', ''], [None, 'data:image/gif;base64,R0lGODlhAQABAIAAAAAAAP///yH5BAEAAAAALAAAAAABAAEAAAIBRAA7', ''], [None, 'data:image/gif;base64,R0lGODlhAQABAIAAAAAAAP///yH5BAEAAAAALAAAAAABAAEAAAIBRAA7', ''], [None, 'data:image/gif;base64,R0lGODlhAQABAIAAAAAAAP///yH5BAEAAAAALAAAAAABAAEAAAIBRAA7', ''], [None, 'data:image/gif;base64,R0lGODlhAQABAIAAAAAAAP///yH5BAEAAAAALAAAAAABAAEAAAIBRAA7', ''], [None, 'data:image/gif;base64,R0lGODlhAQABAIAAAAAAAP///yH5BAEAAAAALAAAAAABAAEAAAIBRAA7', ''], [None, 'data:image/gif;base64,R0lGODlhAQABAIAAAAAAAP///yH5BAEAAAAALAAAAAABAAEAAAIBRAA7', ''], [None, 'data:image/gif;base64,R0lGODlhAQABAIAAAAAAAP///yH5BAEAAAAALAAAAAABAAEAAAIBRAA7', ''], [None, 'data:image/gif;base64,R0lGODlhAQABAIAAAAAAAP///yH5BAEAAAAALAAAAAABAAEAAAIBRAA7', ''], [None, 'data:image/gif;base64,R0lGODlhAQABAIAAAAAAAP///yH5BAEAAAAALAAAAAABAAEAAAIBRAA7', ''], [None, 'data:image/gif;base64,R0lGODlhAQABAIAAAAAAAP///yH5BAEAAAAALAAAAAABAAEAAAIBRAA7', ''], [None, 'data:image/gif;base64,R0lGODlhAQABAIAAAAAAAP///yH5BAEAAAAALAAAAAABAAEAAAIBRAA7', ''], [None, 'data:image/gif;base64,R0lGODlhAQABAIAAAAAAAP///yH5BAEAAAAALAAAAAABAAEAAAIBRAA7', ''], [None, 'data:image/gif;base64,R0lGODlhAQABAIAAAAAAAP///yH5BAEAAAAALAAAAAABAAEAAAIBRAA7', ''], [None, 'data:image/gif;base64,R0lGODlhAQABAIAAAAAAAP///yH5BAEAAAAALAAAAAABAAEAAAIBRAA7', ''], [None, 'data:image/gif;base64,R0lGODlhAQABAIAAAAAAAP///yH5BAEAAAAALAAAAAABAAEAAAIBRAA7', ''], [None, 'data:image/gif;base64,R0lGODlhAQABAIAAAAAAAP///yH5BAEAAAAALAAAAAABAAEAAAIBRAA7', ''], [None, 'data:image/gif;base64,R0lGODlhAQABAIAAAAAAAP///yH5BAEAAAAALAAAAAABAAEAAAIBRAA7', ''], [None, 'data:image/gif;base64,R0lGODlhAQABAIAAAAAAAP///yH5BAEAAAAALAAAAAABAAEAAAIBRAA7', ''], [None, 'data:image/gif;base64,R0lGODlhAQABAIAAAAAAAP///yH5BAEAAAAALAAAAAABAAEAAAIBRAA7', ''], [None, 'data:image/gif;base64,R0lGODlhAQABAIAAAAAAAP///yH5BAEAAAAALAAAAAABAAEAAAIBRAA7', ''], [None, 'data:image/gif;base64,R0lGODlhAQABAIAAAAAAAP///yH5BAEAAAAALAAAAAABAAEAAAIBRAA7', ''], [None, 'data:image/gif;base64,R0lGODlhAQABAIAAAAAAAP///yH5BAEAAAAALAAAAAABAAEAAAIBRAA7', ''], [None, 'data:image/gif;base64,R0lGODlhAQABAIAAAAAAAP///yH5BAEAAAAALAAAAAABAAEAAAIBRAA7', ''], [None, 'data:image/gif;base64,R0lGODlhAQABAIAAAAAAAP///yH5BAEAAAAALAAAAAABAAEAAAIBRAA7', ''], [None, 'data:image/gif;base64,R0lGODlhAQABAIAAAAAAAP///yH5BAEAAAAALAAAAAABAAEAAAIBRAA7', ''], [None, 'data:image/gif;base64,R0lGODlhAQABAIAAAAAAAP///yH5BAEAAAAALAAAAAABAAEAAAIBRAA7', ''], [None, 'https://img.buzzfeed.com/buzzfeed-static/static/2018-08/31/19/user_images/buzzfeed-prod-web-03/adambvary-v2-5620-1535757993-0_large.png', None], [None, 'data:image/gif;base64,R0lGODlhAQABAIAAAAAAAP///yH5BAEAAAAALAAAAAABAAEAAAIBRAA7', ''], [None, 'data:image/gif;base64,R0lGODlhAQABAIAAAAAAAP///yH5BAEAAAAALAAAAAABAAEAAAIBRAA7', ''], [None, 'https://img.buzzfeed.com/buzzfeed-static/static/2018-08/31/19/user_images/buzzfeed-prod-web-03/adambvary-v2-5620-1535757993-0_large.png', 'Picture of Adam B. Vary'], [None, 'data:image/gif;base64,R0lGODlhAQABAIAAAAAAAP///yH5BAEAAAAALAAAAAABAAEAAAIBRAA7', ''], [None, 'data:image/gif;base64,R0lGODlhAQABAIAAAAAAAP///yH5BAEAAAAALAAAAAABAAEAAAIBRAA7', ''], [None, 'data:image/gif;base64,R0lGODlhAQABAIAAAAAAAP///yH5BAEAAAAALAAAAAABAAEAAAIBRAA7', ''], [None, 'data:image/gif;base64,R0lGODlhAQABAIAAAAAAAP///yH5BAEAAAAALAAAAAABAAEAAAIBRAA7', ''], [None, 'data:image/gif;base64,R0lGODlhAQABAIAAAAAAAP///yH5BAEAAAAALAAAAAABAAEAAAIBRAA7', ''], [None, 'data:image/gif;base64,R0lGODlhAQABAIAAAAAAAP///yH5BAEAAAAALAAAAAABAAEAAAIBRAA7', ''], [None, 'data:image/gif;base64,R0lGODlhAQABAIAAAAAAAP///yH5BAEAAAAALAAAAAABAAEAAAIBRAA7', ''], [None, 'data:image/gif;base64,R0lGODlhAQABAIAAAAAAAP///yH5BAEAAAAALAAAAAABAAEAAAIBRAA7', ''], [None, 'data:image/gif;base64,R0lGODlhAQABAIAAAAAAAP///yH5BAEAAAAALAAAAAABAAEAAAIBRAA7', ''], [None, 'data:image/gif;base64,R0lGODlhAQABAIAAAAAAAP///yH5BAEAAAAALAAAAAABAAEAAAIBRAA7', ''], [None, 'data:image/gif;base64,R0lGODlhAQABAIAAAAAAAP///yH5BAEAAAAALAAAAAABAAEAAAIBRAA7', ''], [None, 'data:image/gif;base64,R0lGODlhAQABAIAAAAAAAP///yH5BAEAAAAALAAAAAABAAEAAAIBRAA7', ''], [None, 'data:image/gif;base64,R0lGODlhAQABAIAAAAAAAP///yH5BAEAAAAALAAAAAABAAEAAAIBRAA7', ''], [None, 'data:image/gif;base64,R0lGODlhAQABAIAAAAAAAP///yH5BAEAAAAALAAAAAABAAEAAAIBRAA7', ''], [None, 'data:image/gif;base64,R0lGODlhAQABAIAAAAAAAP///yH5BAEAAAAALAAAAAABAAEAAAIBRAA7', ''], [None, 'data:image/gif;base64,R0lGODlhAQABAIAAAAAAAP///yH5BAEAAAAALAAAAAABAAEAAAIBRAA7', ''], [None, 'https://img.buzzfeed.com/buzzfeed-static/static/2018-08/31/19/user_images/buzzfeed-prod-web-03/adambvary-v2-5620-1535757993-0_large.png', None], [None, 'data:image/gif;base64,R0lGODlhAQABAIAAAAAAAP///yH5BAEAAAAALAAAAAABAAEAAAIBRAA7', ''], [None, 'data:image/gif;base64,R0lGODlhAQABAIAAAAAAAP///yH5BAEAAAAALAAAAAABAAEAAAIBRAA7', ''], [None, 'https://img.buzzfeed.com/buzzfeed-static/static/2018-08/31/19/user_images/buzzfeed-prod-web-03/adambvary-v2-5620-1535757993-0_large.png', 'Picture of Adam B. Vary'], [None, 'https://img.buzzfeed.com/buzzfeed-static/static/2018-08/31/19/user_images/buzzfeed-prod-web-03/adambvary-v2-5620-1535757993-0_large.png', None], [None, 'data:image/gif;base64,R0lGODlhAQABAIAAAAAAAP///yH5BAEAAAAALAAAAAABAAEAAAIBRAA7', ''], [None, 'data:image/gif;base64,R0lGODlhAQABAIAAAAAAAP///yH5BAEAAAAALAAAAAABAAEAAAIBRAA7', ''], [None, 'https://img.buzzfeed.com/buzzfeed-static/static/2018-08/31/19/user_images/buzzfeed-prod-web-03/adambvary-v2-5620-1535757993-0_large.png', 'Picture of Adam B. Vary'], [None, 'https://img.buzzfeed.com/buzzfeed-static/static/2018-08/31/19/user_images/buzzfeed-prod-web-03/adambvary-v2-5620-1535757993-0_large.png', 'Picture of Adam B. Vary'], [None, 'https://img.buzzfeed.com/buzzfeed-static/static/2018-08/31/19/user_images/buzzfeed-prod-web-03/adambvary-v2-5620-1535757993-0_large.png', 'Picture of Adam B. Vary'], [None, 'https://img.buzzfeed.com/buzzfeed-static/static/2018-08/31/19/user_images/buzzfeed-prod-web-03/adambvary-v2-5620-1535757993-0_large.png', None], [None, 'data:image/gif;base64,R0lGODlhAQABAIAAAAAAAP///yH5BAEAAAAALAAAAAABAAEAAAIBRAA7', ''], [None, 'data:image/gif;base64,R0lGODlhAQABAIAAAAAAAP///yH5BAEAAAAALAAAAAABAAEAAAIBRAA7', ''], [None, 'https://img.buzzfeed.com/buzzfeed-static/static/2018-08/31/19/user_images/buzzfeed-prod-web-03/adambvary-v2-5620-1535757993-0_large.png', 'Picture of Adam B. Vary'], [None, 'https://img.buzzfeed.com/buzzfeed-static/static/2018-08/31/19/user_images/buzzfeed-prod-web-03/adambvary-v2-5620-1535757993-0_large.png', None], [None, 'data:image/gif;base64,R0lGODlhAQABAIAAAAAAAP///yH5BAEAAAAALAAAAAABAAEAAAIBRAA7', ''], [None, 'data:image/gif;base64,R0lGODlhAQABAIAAAAAAAP///yH5BAEAAAAALAAAAAABAAEAAAIBRAA7', ''], [None, 'https://img.buzzfeed.com/buzzfeed-static/static/2018-08/31/19/user_images/buzzfeed-prod-web-03/adambvary-v2-5620-1535757993-0_large.png', 'Picture of Adam B. Vary'], [None, 'https://img.buzzfeed.com/buzzfeed-static/static/2018-08/31/19/user_images/buzzfeed-prod-web-03/adambvary-v2-5620-1535757993-0_large.png', None], [None, 'data:image/gif;base64,R0lGODlhAQABAIAAAAAAAP///yH5BAEAAAAALAAAAAABAAEAAAIBRAA7', ''], [None, 'data:image/gif;base64,R0lGODlhAQABAIAAAAAAAP///yH5BAEAAAAALAAAAAABAAEAAAIBRAA7', ''], [None, 'https://img.buzzfeed.com/buzzfeed-static/static/2018-08/31/19/user_images/buzzfeed-prod-web-03/adambvary-v2-5620-1535757993-0_large.png', 'Picture of Adam B. Vary'], [None, 'https://img.buzzfeed.com/buzzfeed-static/static/2018-08/31/19/user_images/buzzfeed-prod-web-03/adambvary-v2-5620-1535757993-0_large.png', None], [None, 'data:image/gif;base64,R0lGODlhAQABAIAAAAAAAP///yH5BAEAAAAALAAAAAABAAEAAAIBRAA7', ''], [None, 'data:image/gif;base64,R0lGODlhAQABAIAAAAAAAP///yH5BAEAAAAALAAAAAABAAEAAAIBRAA7', ''], [None, 'https://img.buzzfeed.com/buzzfeed-static/static/2018-08/31/19/user_images/buzzfeed-prod-web-03/adambvary-v2-5620-1535757993-0_large.png', 'Picture of Adam B. Vary'], [None, 'https://pixiedust.buzzfeed.com/v1.gif?source=buzz_web&platform=news_bpager&type=instrumentation&target=javascript&value=disabled', None], [None, 'https://img.buzzfeed.com/buzzfeed-static/static/2018-08/31/19/user_images/buzzfeed-prod-web-03/adambvary-v2-5620-1535757993-0_large.png', None], [None, 'data:image/gif;base64,R0lGODlhAQABAIAAAAAAAP///yH5BAEAAAAALAAAAAABAAEAAAIBRAA7', ''], [None, 'data:image/gif;base64,R0lGODlhAQABAIAAAAAAAP///yH5BAEAAAAALAAAAAABAAEAAAIBRAA7', ''], [None, 'https://img.buzzfeed.com/buzzfeed-static/static/2018-08/31/19/user_images/buzzfeed-prod-web-03/adambvary-v2-5620-1535757993-0_large.png', 'Picture of Adam B. Vary'], [None, 'https://pixiedust.buzzfeed.com/v1.gif?source=buzz_web&platform=news_bpager&type=instrumentation&target=javascript&value=disabled', None], [None, 'https://img.buzzfeed.com/buzzfeed-static/static/2018-08/31/19/user_images/buzzfeed-prod-web-03/adambvary-v2-5620-1535757993-0_large.png', None], [None, 'data:image/gif;base64,R0lGODlhAQABAIAAAAAAAP///yH5BAEAAAAALAAAAAABAAEAAAIBRAA7', ''], [None, 'data:image/gif;base64,R0lGODlhAQABAIAAAAAAAP///yH5BAEAAAAALAAAAAABAAEAAAIBRAA7', ''], [None, 'https://img.buzzfeed.com/buzzfeed-static/static/2018-08/31/19/user_images/buzzfeed-prod-web-03/adambvary-v2-5620-1535757993-0_large.png', 'Picture of Adam B. Vary'], [None, 'https://pixiedust.buzzfeed.com/v1.gif?source=buzz_web&platform=news_bpager&type=instrumentation&target=javascript&value=disabled', None], [None, 'https://img.buzzfeed.com/buzzfeed-static/static/2018-08/31/19/user_images/buzzfeed-prod-web-03/adambvary-v2-5620-1535757993-0_large.png', None], [None, 'data:image/gif;base64,R0lGODlhAQABAIAAAAAAAP///yH5BAEAAAAALAAAAAABAAEAAAIBRAA7', ''], [None, 'data:image/gif;base64,R0lGODlhAQABAIAAAAAAAP///yH5BAEAAAAALAAAAAABAAEAAAIBRAA7', ''], [None, 'https://img.buzzfeed.com/buzzfeed-static/static/2018-08/31/19/user_images/buzzfeed-prod-web-03/adambvary-v2-5620-1535757993-0_large.png', 'Picture of Adam B. Vary'], [None, 'https://pixiedust.buzzfeed.com/v1.gif?source=buzz_web&platform=news_bpager&type=instrumentation&target=javascript&value=disabled', None], [None, 'https://img.buzzfeed.com/buzzfeed-static/static/2018-08/31/19/user_images/buzzfeed-prod-web-03/adambvary-v2-5620-1535757993-0_large.png', None], [None, 'data:image/gif;base64,R0lGODlhAQABAIAAAAAAAP///yH5BAEAAAAALAAAAAABAAEAAAIBRAA7', ''], [None, 'data:image/gif;base64,R0lGODlhAQABAIAAAAAAAP///yH5BAEAAAAALAAAAAABAAEAAAIBRAA7', ''], [None, 'https://img.buzzfeed.com/buzzfeed-static/static/2018-08/31/19/user_images/buzzfeed-prod-web-03/adambvary-v2-5620-1535757993-0_large.png', 'Picture of Adam B. Vary'], [None, 'https://pixiedust.buzzfeed.com/v1.gif?source=buzz_web&platform=news_bpager&type=instrumentation&target=javascript&value=disabled', None], [None, 'https://img.buzzfeed.com/buzzfeed-static/static/2018-08/31/19/user_images/buzzfeed-prod-web-03/adambvary-v2-5620-1535757993-0_large.png', None], [None, 'data:image/gif;base64,R0lGODlhAQABAIAAAAAAAP///yH5BAEAAAAALAAAAAABAAEAAAIBRAA7', ''], [None, 'data:image/gif;base64,R0lGODlhAQABAIAAAAAAAP///yH5BAEAAAAALAAAAAABAAEAAAIBRAA7', ''], [None, 'https://img.buzzfeed.com/buzzfeed-static/static/2018-08/31/19/user_images/buzzfeed-prod-web-03/adambvary-v2-5620-1535757993-0_large.png', 'Picture of Adam B. Vary'], [None, 'https://pixiedust.buzzfeed.com/v1.gif?source=buzz_web&platform=news_bpager&type=instrumentation&target=javascript&value=disabled', None], [None, 'https://img.buzzfeed.com/buzzfeed-static/static/2018-08/31/19/user_images/buzzfeed-prod-web-03/adambvary-v2-5620-1535757993-0_large.png', None], [None, 'data:image/gif;base64,R0lGODlhAQABAIAAAAAAAP///yH5BAEAAAAALAAAAAABAAEAAAIBRAA7', ''], [None, 'data:image/gif;base64,R0lGODlhAQABAIAAAAAAAP///yH5BAEAAAAALAAAAAABAAEAAAIBRAA7', ''], [None, 'https://img.buzzfeed.com/buzzfeed-static/static/2018-08/31/19/user_images/buzzfeed-prod-web-03/adambvary-v2-5620-1535757993-0_large.png', 'Picture of Adam B. Vary'], [None, 'https://pixiedust.buzzfeed.com/v1.gif?source=buzz_web&platform=news_bpager&type=instrumentation&target=javascript&value=disabled', None], [None, 'https://img.buzzfeed.com/buzzfeed-static/static/2018-08/31/19/user_images/buzzfeed-prod-web-03/adambvary-v2-5620-1535757993-0_large.png', None], [None, 'data:image/gif;base64,R0lGODlhAQABAIAAAAAAAP///yH5BAEAAAAALAAAAAABAAEAAAIBRAA7', ''], [None, 'data:image/gif;base64,R0lGODlhAQABAIAAAAAAAP///yH5BAEAAAAALAAAAAABAAEAAAIBRAA7', ''], [None, 'https://img.buzzfeed.com/buzzfeed-static/static/2018-08/31/19/user_images/buzzfeed-prod-web-03/adambvary-v2-5620-1535757993-0_large.png', 'Picture of Adam B. Vary'], [None, 'https://pixiedust.buzzfeed.com/v1.gif?source=buzz_web&platform=news_bpager&type=instrumentation&target=javascript&value=disabled', None], [None, 'https://img.buzzfeed.com/buzzfeed-static/static/2018-08/31/19/user_images/buzzfeed-prod-web-03/adambvary-v2-5620-1535757993-0_large.png', None], [None, 'data:image/gif;base64,R0lGODlhAQABAIAAAAAAAP///yH5BAEAAAAALAAAAAABAAEAAAIBRAA7', ''], [None, 'data:image/gif;base64,R0lGODlhAQABAIAAAAAAAP///yH5BAEAAAAALAAAAAABAAEAAAIBRAA7', ''], [None, 'https://img.buzzfeed.com/buzzfeed-static/static/2018-08/31/19/user_images/buzzfeed-prod-web-03/adambvary-v2-5620-1535757993-0_large.png', 'Picture of Adam B. Vary'], [None, 'https://pixiedust.buzzfeed.com/v1.gif?source=buzz_web&platform=news_bpager&type=instrumentation&target=javascript&value=disabled', None], [None, 'https://img.buzzfeed.com/buzzfeed-static/static/2018-08/31/19/user_images/buzzfeed-prod-web-03/adambvary-v2-5620-1535757993-0_large.png', None], [None, 'data:image/gif;base64,R0lGODlhAQABAIAAAAAAAP///yH5BAEAAAAALAAAAAABAAEAAAIBRAA7', ''], [None, 'data:image/gif;base64,R0lGODlhAQABAIAAAAAAAP///yH5BAEAAAAALAAAAAABAAEAAAIBRAA7', ''], [None, 'https://img.buzzfeed.com/buzzfeed-static/static/2018-08/31/19/user_images/buzzfeed-prod-web-03/adambvary-v2-5620-1535757993-0_large.png', 'Picture of Adam B. Vary'], [None, 'https://pixiedust.buzzfeed.com/v1.gif?source=buzz_web&platform=news_bpager&type=instrumentation&target=javascript&value=disabled', None], [None, 'https://img.buzzfeed.com/buzzfeed-static/static/2018-08/31/19/user_images/buzzfeed-prod-web-03/adambvary-v2-5620-1535757993-0_large.png', None], [None, 'data:image/gif;base64,R0lGODlhAQABAIAAAAAAAP///yH5BAEAAAAALAAAAAABAAEAAAIBRAA7', ''], [None, 'data:image/gif;base64,R0lGODlhAQABAIAAAAAAAP///yH5BAEAAAAALAAAAAABAAEAAAIBRAA7', ''], [None, 'https://img.buzzfeed.com/buzzfeed-static/static/2018-08/31/19/user_images/buzzfeed-prod-web-03/adambvary-v2-5620-1535757993-0_large.png', 'Picture of Adam B. Vary'], [None, 'https://pixiedust.buzzfeed.com/v1.gif?source=buzz_web&platform=news_bpager&type=instrumentation&target=javascript&value=disabled', None], [None, 'https://img.buzzfeed.com/buzzfeed-static/static/2018-08/31/19/user_images/buzzfeed-prod-web-03/adambvary-v2-5620-1535757993-0_large.png', None], [None, 'data:image/gif;base64,R0lGODlhAQABAIAAAAAAAP///yH5BAEAAAAALAAAAAABAAEAAAIBRAA7', ''], [None, 'data:image/gif;base64,R0lGODlhAQABAIAAAAAAAP///yH5BAEAAAAALAAAAAABAAEAAAIBRAA7', ''], [None, 'https://img.buzzfeed.com/buzzfeed-static/static/2018-08/31/19/user_images/buzzfeed-prod-web-03/adambvary-v2-5620-1535757993-0_large.png', 'Picture of Adam B. Vary'], [None, 'https://pixiedust.buzzfeed.com/v1.gif?source=buzz_web&platform=news_bpager&type=instrumentation&target=javascript&value=disabled', None], [None, 'https://img.buzzfeed.com/buzzfeed-static/static/2018-08/31/19/user_images/buzzfeed-prod-web-03/adambvary-v2-5620-1535757993-0_large.png', None], [None, 'data:image/gif;base64,R0lGODlhAQABAIAAAAAAAP///yH5BAEAAAAALAAAAAABAAEAAAIBRAA7', ''], [None, 'data:image/gif;base64,R0lGODlhAQABAIAAAAAAAP///yH5BAEAAAAALAAAAAABAAEAAAIBRAA7', ''], [None, 'https://img.buzzfeed.com/buzzfeed-static/static/2018-08/31/19/user_images/buzzfeed-prod-web-03/adambvary-v2-5620-1535757993-0_large.png', 'Picture of Adam B. Vary'], [None, 'https://pixiedust.buzzfeed.com/v1.gif?source=buzz_web&platform=news_bpager&type=instrumentation&target=javascript&value=disabled', None], [None, 'https://img.buzzfeed.com/buzzfeed-static/static/2018-08/31/19/user_images/buzzfeed-prod-web-03/adambvary-v2-5620-1535757993-0_large.png', None], [None, 'data:image/gif;base64,R0lGODlhAQABAIAAAAAAAP///yH5BAEAAAAALAAAAAABAAEAAAIBRAA7', ''], [None, 'data:image/gif;base64,R0lGODlhAQABAIAAAAAAAP///yH5BAEAAAAALAAAAAABAAEAAAIBRAA7', ''], [None, 'https://img.buzzfeed.com/buzzfeed-static/static/2018-08/31/19/user_images/buzzfeed-prod-web-03/adambvary-v2-5620-1535757993-0_large.png', 'Picture of Adam B. Vary'], [None, 'https://pixiedust.buzzfeed.com/v1.gif?source=buzz_web&platform=news_bpager&type=instrumentation&target=javascript&value=disabled', None], [None, 'https://img.buzzfeed.com/buzzfeed-static/static/2018-08/31/19/user_images/buzzfeed-prod-web-03/adambvary-v2-5620-1535757993-0_large.png', None], [None, 'data:image/gif;base64,R0lGODlhAQABAIAAAAAAAP///yH5BAEAAAAALAAAAAABAAEAAAIBRAA7', ''], [None, 'data:image/gif;base64,R0lGODlhAQABAIAAAAAAAP///yH5BAEAAAAALAAAAAABAAEAAAIBRAA7', ''], [None, 'https://img.buzzfeed.com/buzzfeed-static/static/2018-08/31/19/user_images/buzzfeed-prod-web-03/adambvary-v2-5620-1535757993-0_large.png', 'Picture of Adam B. Vary'], [None, 'https://pixiedust.buzzfeed.com/v1.gif?source=buzz_web&platform=news_bpager&type=instrumentation&target=javascript&value=disabled', None], [None, 'https://img.buzzfeed.com/buzzfeed-static/static/2018-08/31/19/user_images/buzzfeed-prod-web-03/adambvary-v2-5620-1535757993-0_large.png', None], [None, 'data:image/gif;base64,R0lGODlhAQABAIAAAAAAAP///yH5BAEAAAAALAAAAAABAAEAAAIBRAA7', ''], [None, 'data:image/gif;base64,R0lGODlhAQABAIAAAAAAAP///yH5BAEAAAAALAAAAAABAAEAAAIBRAA7', ''], [None, 'https://img.buzzfeed.com/buzzfeed-static/static/2018-08/31/19/user_images/buzzfeed-prod-web-03/adambvary-v2-5620-1535757993-0_large.png', 'Picture of Adam B. Vary'], [None, 'https://pixiedust.buzzfeed.com/v1.gif?source=buzz_web&platform=news_bpager&type=instrumentation&target=javascript&value=disabled', None], [None, 'https://img.buzzfeed.com/buzzfeed-static/static/2018-08/31/19/user_images/buzzfeed-prod-web-03/adambvary-v2-5620-1535757993-0_large.png', None], [None, 'data:image/gif;base64,R0lGODlhAQABAIAAAAAAAP///yH5BAEAAAAALAAAAAABAAEAAAIBRAA7', ''], [None, 'data:image/gif;base64,R0lGODlhAQABAIAAAAAAAP///yH5BAEAAAAALAAAAAABAAEAAAIBRAA7', ''], [None, 'https://img.buzzfeed.com/buzzfeed-static/static/2018-08/31/19/user_images/buzzfeed-prod-web-03/adambvary-v2-5620-1535757993-0_large.png', 'Picture of Adam B. Vary'], [None, 'https://pixiedust.buzzfeed.com/v1.gif?source=buzz_web&platform=news_bpager&type=instrumentation&target=javascript&value=disabled', None], [None, 'https://img.buzzfeed.com/buzzfeed-static/static/2018-08/31/19/user_images/buzzfeed-prod-web-03/adambvary-v2-5620-1535757993-0_large.png', None], [None, 'data:image/gif;base64,R0lGODlhAQABAIAAAAAAAP///yH5BAEAAAAALAAAAAABAAEAAAIBRAA7', ''], [None, 'data:image/gif;base64,R0lGODlhAQABAIAAAAAAAP///yH5BAEAAAAALAAAAAABAAEAAAIBRAA7', ''], [None, 'https://img.buzzfeed.com/buzzfeed-static/static/2018-08/31/19/user_images/buzzfeed-prod-web-03/adambvary-v2-5620-1535757993-0_large.png', 'Picture of Adam B. Vary'], [None, 'https://pixiedust.buzzfeed.com/v1.gif?source=buzz_web&platform=news_bpager&type=instrumentation&target=javascript&value=disabled', None], [None, 'https://img.buzzfeed.com/buzzfeed-static/static/2018-08/31/19/user_images/buzzfeed-prod-web-03/adambvary-v2-5620-1535757993-0_large.png', None], [None, 'data:image/gif;base64,R0lGODlhAQABAIAAAAAAAP///yH5BAEAAAAALAAAAAABAAEAAAIBRAA7', ''], [None, 'data:image/gif;base64,R0lGODlhAQABAIAAAAAAAP///yH5BAEAAAAALAAAAAABAAEAAAIBRAA7', ''], [None, 'https://img.buzzfeed.com/buzzfeed-static/static/2018-08/31/19/user_images/buzzfeed-prod-web-03/adambvary-v2-5620-1535757993-0_large.png', 'Picture of Adam B. Vary'], [None, 'https://pixiedust.buzzfeed.com/v1.gif?source=buzz_web&platform=news_bpager&type=instrumentation&target=javascript&value=disabled', None], [None, 'https://img.buzzfeed.com/buzzfeed-static/static/2018-08/31/19/user_images/buzzfeed-prod-web-03/adambvary-v2-5620-1535757993-0_large.png', None], [None, 'data:image/gif;base64,R0lGODlhAQABAIAAAAAAAP///yH5BAEAAAAALAAAAAABAAEAAAIBRAA7', ''], [None, 'data:image/gif;base64,R0lGODlhAQABAIAAAAAAAP///yH5BAEAAAAALAAAAAABAAEAAAIBRAA7', ''], [None, 'https://img.buzzfeed.com/buzzfeed-static/static/2018-08/31/19/user_images/buzzfeed-prod-web-03/adambvary-v2-5620-1535757993-0_large.png', 'Picture of Adam B. Vary'], [None, 'https://pixiedust.buzzfeed.com/v1.gif?source=buzz_web&platform=news_bpager&type=instrumentation&target=javascript&value=disabled', None], [None, 'https://img.buzzfeed.com/buzzfeed-static/static/2018-08/31/19/user_images/buzzfeed-prod-web-03/adambvary-v2-5620-1535757993-0_large.png', None], [None, 'data:image/gif;base64,R0lGODlhAQABAIAAAAAAAP///yH5BAEAAAAALAAAAAABAAEAAAIBRAA7', ''], [None, 'data:image/gif;base64,R0lGODlhAQABAIAAAAAAAP///yH5BAEAAAAALAAAAAABAAEAAAIBRAA7', ''], [None, 'https://img.buzzfeed.com/buzzfeed-static/static/2018-08/31/19/user_images/buzzfeed-prod-web-03/adambvary-v2-5620-1535757993-0_large.png', 'Picture of Adam B. Vary'], [None, 'https://pixiedust.buzzfeed.com/v1.gif?source=buzz_web&platform=news_bpager&type=instrumentation&target=javascript&value=disabled', None], [None, 'https://img.buzzfeed.com/buzzfeed-static/static/2018-08/31/19/user_images/buzzfeed-prod-web-03/adambvary-v2-5620-1535757993-0_large.png', None], [None, 'data:image/gif;base64,R0lGODlhAQABAIAAAAAAAP///yH5BAEAAAAALAAAAAABAAEAAAIBRAA7', ''], [None, 'data:image/gif;base64,R0lGODlhAQABAIAAAAAAAP///yH5BAEAAAAALAAAAAABAAEAAAIBRAA7', ''], [None, 'https://img.buzzfeed.com/buzzfeed-static/static/2018-08/31/19/user_images/buzzfeed-prod-web-03/adambvary-v2-5620-1535757993-0_large.png', 'Picture of Adam B. Vary'], [None, 'https://pixiedust.buzzfeed.com/v1.gif?source=buzz_web&platform=news_bpager&type=instrumentation&target=javascript&value=disabled', None], [None, 'https://img.buzzfeed.com/buzzfeed-static/static/2018-08/31/19/user_images/buzzfeed-prod-web-03/adambvary-v2-5620-1535757993-0_large.png', None], [None, 'data:image/gif;base64,R0lGODlhAQABAIAAAAAAAP///yH5BAEAAAAALAAAAAABAAEAAAIBRAA7', ''], [None, 'data:image/gif;base64,R0lGODlhAQABAIAAAAAAAP///yH5BAEAAAAALAAAAAABAAEAAAIBRAA7', ''], [None, 'https://img.buzzfeed.com/buzzfeed-static/static/2018-08/31/19/user_images/buzzfeed-prod-web-03/adambvary-v2-5620-1535757993-0_large.png', 'Picture of Adam B. Vary'], [None, 'https://pixiedust.buzzfeed.com/v1.gif?source=buzz_web&platform=news_bpager&type=instrumentation&target=javascript&value=disabled', None], [None, 'https://img.buzzfeed.com/buzzfeed-static/static/2018-08/31/19/user_images/buzzfeed-prod-web-03/adambvary-v2-5620-1535757993-0_large.png', None], [None, 'data:image/gif;base64,R0lGODlhAQABAIAAAAAAAP///yH5BAEAAAAALAAAAAABAAEAAAIBRAA7', ''], [None, 'data:image/gif;base64,R0lGODlhAQABAIAAAAAAAP///yH5BAEAAAAALAAAAAABAAEAAAIBRAA7', ''], [None, 'https://img.buzzfeed.com/buzzfeed-static/static/2018-08/31/19/user_images/buzzfeed-prod-web-03/adambvary-v2-5620-1535757993-0_large.png', 'Picture of Adam B. Vary'], [None, 'https://pixiedust.buzzfeed.com/v1.gif?source=buzz_web&platform=news_bpager&type=instrumentation&target=javascript&value=disabled', None], [None, 'https://img.buzzfeed.com/buzzfeed-static/static/2018-08/31/19/user_images/buzzfeed-prod-web-03/adambvary-v2-5620-1535757993-0_large.png', None], [None, 'data:image/gif;base64,R0lGODlhAQABAIAAAAAAAP///yH5BAEAAAAALAAAAAABAAEAAAIBRAA7', ''], [None, 'data:image/gif;base64,R0lGODlhAQABAIAAAAAAAP///yH5BAEAAAAALAAAAAABAAEAAAIBRAA7', ''], [None, 'https://img.buzzfeed.com/buzzfeed-static/static/2018-08/31/19/user_images/buzzfeed-prod-web-03/adambvary-v2-5620-1535757993-0_large.png', 'Picture of Adam B. Vary'], [None, 'https://pixiedust.buzzfeed.com/v1.gif?source=buzz_web&platform=news_bpager&type=instrumentation&target=javascript&value=disabled', None], [None, 'https://img.buzzfeed.com/buzzfeed-static/static/2018-08/31/19/user_images/buzzfeed-prod-web-03/adambvary-v2-5620-1535757993-0_large.png', None], [None, 'data:image/gif;base64,R0lGODlhAQABAIAAAAAAAP///yH5BAEAAAAALAAAAAABAAEAAAIBRAA7', ''], [None, 'data:image/gif;base64,R0lGODlhAQABAIAAAAAAAP///yH5BAEAAAAALAAAAAABAAEAAAIBRAA7', ''], [None, 'https://img.buzzfeed.com/buzzfeed-static/static/2018-08/31/19/user_images/buzzfeed-prod-web-03/adambvary-v2-5620-1535757993-0_large.png', 'Picture of Adam B. Vary'], [None, 'https://pixiedust.buzzfeed.com/v1.gif?source=buzz_web&platform=news_bpager&type=instrumentation&target=javascript&value=disabled', None], [None, 'https://img.buzzfeed.com/buzzfeed-static/static/2018-08/31/19/user_images/buzzfeed-prod-web-03/adambvary-v2-5620-1535757993-0_large.png', None], [None, 'data:image/gif;base64,R0lGODlhAQABAIAAAAAAAP///yH5BAEAAAAALAAAAAABAAEAAAIBRAA7', ''], [None, 'data:image/gif;base64,R0lGODlhAQABAIAAAAAAAP///yH5BAEAAAAALAAAAAABAAEAAAIBRAA7', ''], [None, 'https://img.buzzfeed.com/buzzfeed-static/static/2018-08/31/19/user_images/buzzfeed-prod-web-03/adambvary-v2-5620-1535757993-0_large.png', 'Picture of Adam B. Vary'], [None, 'https://pixiedust.buzzfeed.com/v1.gif?source=buzz_web&platform=news_bpager&type=instrumentation&target=javascript&value=disabled', None], [None, 'https://img.buzzfeed.com/buzzfeed-static/static/2018-08/31/19/user_images/buzzfeed-prod-web-03/adambvary-v2-5620-1535757993-0_large.png', None], [None, 'data:image/gif;base64,R0lGODlhAQABAIAAAAAAAP///yH5BAEAAAAALAAAAAABAAEAAAIBRAA7', ''], [None, 'data:image/gif;base64,R0lGODlhAQABAIAAAAAAAP///yH5BAEAAAAALAAAAAABAAEAAAIBRAA7', ''], [None, 'https://img.buzzfeed.com/buzzfeed-static/static/2018-08/31/19/user_images/buzzfeed-prod-web-03/adambvary-v2-5620-1535757993-0_large.png', 'Picture of Adam B. Vary'], [None, 'https://pixiedust.buzzfeed.com/v1.gif?source=buzz_web&platform=news_bpager&type=instrumentation&target=javascript&value=disabled', None], [None, 'https://img.buzzfeed.com/buzzfeed-static/static/2018-08/31/19/user_images/buzzfeed-prod-web-03/adambvary-v2-5620-1535757993-0_large.png', None], [None, 'data:image/gif;base64,R0lGODlhAQABAIAAAAAAAP///yH5BAEAAAAALAAAAAABAAEAAAIBRAA7', ''], [None, 'data:image/gif;base64,R0lGODlhAQABAIAAAAAAAP///yH5BAEAAAAALAAAAAABAAEAAAIBRAA7', ''], [None, 'https://img.buzzfeed.com/buzzfeed-static/static/2018-08/31/19/user_images/buzzfeed-prod-web-03/adambvary-v2-5620-1535757993-0_large.png', 'Picture of Adam B. Vary'], [None, 'https://pixiedust.buzzfeed.com/v1.gif?source=buzz_web&platform=news_bpager&type=instrumentation&target=javascript&value=disabled', None], [None, 'https://img.buzzfeed.com/buzzfeed-static/static/2018-08/31/19/user_images/buzzfeed-prod-web-03/adambvary-v2-5620-1535757993-0_large.png', None], [None, 'data:image/gif;base64,R0lGODlhAQABAIAAAAAAAP///yH5BAEAAAAALAAAAAABAAEAAAIBRAA7', ''], [None, 'data:image/gif;base64,R0lGODlhAQABAIAAAAAAAP///yH5BAEAAAAALAAAAAABAAEAAAIBRAA7', ''], [None, 'https://img.buzzfeed.com/buzzfeed-static/static/2018-08/31/19/user_images/buzzfeed-prod-web-03/adambvary-v2-5620-1535757993-0_large.png', 'Picture of Adam B. Vary'], [None, 'https://pixiedust.buzzfeed.com/v1.gif?source=buzz_web&platform=news_bpager&type=instrumentation&target=javascript&value=disabled', None], [None, 'https://img.buzzfeed.com/buzzfeed-static/static/2018-08/31/19/user_images/buzzfeed-prod-web-03/adambvary-v2-5620-1535757993-0_large.png', None], [None, 'data:image/gif;base64,R0lGODlhAQABAIAAAAAAAP///yH5BAEAAAAALAAAAAABAAEAAAIBRAA7', ''], [None, 'data:image/gif;base64,R0lGODlhAQABAIAAAAAAAP///yH5BAEAAAAALAAAAAABAAEAAAIBRAA7', ''], [None, 'https://img.buzzfeed.com/buzzfeed-static/static/2018-08/31/19/user_images/buzzfeed-prod-web-03/adambvary-v2-5620-1535757993-0_large.png', 'Picture of Adam B. Vary'], [None, 'https://pixiedust.buzzfeed.com/v1.gif?source=buzz_web&platform=news_bpager&type=instrumentation&target=javascript&value=disabled', None], [None, 'https://img.buzzfeed.com/buzzfeed-static/static/2018-08/31/19/user_images/buzzfeed-prod-web-03/adambvary-v2-5620-1535757993-0_large.png', None], [None, 'data:image/gif;base64,R0lGODlhAQABAIAAAAAAAP///yH5BAEAAAAALAAAAAABAAEAAAIBRAA7', ''], [None, 'data:image/gif;base64,R0lGODlhAQABAIAAAAAAAP///yH5BAEAAAAALAAAAAABAAEAAAIBRAA7', ''], [None, 'https://img.buzzfeed.com/buzzfeed-static/static/2018-08/31/19/user_images/buzzfeed-prod-web-03/adambvary-v2-5620-1535757993-0_large.png', 'Picture of Adam B. Vary'], [None, 'https://pixiedust.buzzfeed.com/v1.gif?source=buzz_web&platform=news_bpager&type=instrumentation&target=javascript&value=disabled', None], [None, 'https://img.buzzfeed.com/buzzfeed-static/static/2018-08/31/19/user_images/buzzfeed-prod-web-03/adambvary-v2-5620-1535757993-0_large.png', None], [None, 'data:image/gif;base64,R0lGODlhAQABAIAAAAAAAP///yH5BAEAAAAALAAAAAABAAEAAAIBRAA7', ''], [None, 'data:image/gif;base64,R0lGODlhAQABAIAAAAAAAP///yH5BAEAAAAALAAAAAABAAEAAAIBRAA7', ''], [None, 'https://img.buzzfeed.com/buzzfeed-static/static/2018-08/31/19/user_images/buzzfeed-prod-web-03/adambvary-v2-5620-1535757993-0_large.png', 'Picture of Adam B. Vary'], [None, 'https://pixiedust.buzzfeed.com/v1.gif?source=buzz_web&platform=news_bpager&type=instrumentation&target=javascript&value=disabled', None], [None, 'https://img.buzzfeed.com/buzzfeed-static/static/2018-08/31/19/user_images/buzzfeed-prod-web-03/adambvary-v2-5620-1535757993-0_large.png', None], [None, 'data:image/gif;base64,R0lGODlhAQABAIAAAAAAAP///yH5BAEAAAAALAAAAAABAAEAAAIBRAA7', ''], [None, 'data:image/gif;base64,R0lGODlhAQABAIAAAAAAAP///yH5BAEAAAAALAAAAAABAAEAAAIBRAA7', ''], [None, 'https://img.buzzfeed.com/buzzfeed-static/static/2018-08/31/19/user_images/buzzfeed-prod-web-03/adambvary-v2-5620-1535757993-0_large.png', 'Picture of Adam B. Vary'], [None, 'https://pixiedust.buzzfeed.com/v1.gif?source=buzz_web&platform=news_bpager&type=instrumentation&target=javascript&value=disabled', None], [None, 'https://img.buzzfeed.com/buzzfeed-static/static/2018-08/31/19/user_images/buzzfeed-prod-web-03/adambvary-v2-5620-1535757993-0_large.png', None], [None, 'data:image/gif;base64,R0lGODlhAQABAIAAAAAAAP///yH5BAEAAAAALAAAAAABAAEAAAIBRAA7', ''], [None, 'data:image/gif;base64,R0lGODlhAQABAIAAAAAAAP///yH5BAEAAAAALAAAAAABAAEAAAIBRAA7', ''], [None, 'https://img.buzzfeed.com/buzzfeed-static/static/2018-08/31/19/user_images/buzzfeed-prod-web-03/adambvary-v2-5620-1535757993-0_large.png', 'Picture of Adam B. Vary'], [None, 'https://pixiedust.buzzfeed.com/v1.gif?source=buzz_web&platform=news_bpager&type=instrumentation&target=javascript&value=disabled', None]]",
"class": "random"
}