{
"url": "https://www.huffpost.com/entry/wilbur-squatting-cat-weird-sitting-quirk_n_56ccd212e4b0ec6725e4484d",
"title": "This Kitty\u2019s Quirky Way Of Sitting Is A Real Knee-Slapper | HuffPost",
"meta": "{'keywords': 'funny cat videos,animal rescue', 'description': 'He\u2019s just going to awkwardly squat, meow. No big.', 'og:type': 'article', 'og:title': 'This Kitty\u2019s Quirky Way Of Sitting Is A Real Knee-Slapper', 'og:site_name': 'HuffPost'}",
"article_content": "GOOD NEWS\n02/24/2016 02:20 pm ET\nThis Kitty\u2019s Quirky Way Of Sitting Is A Real Knee-Slapper\nHe\u2019s just going to awkwardly squat, meow. No big.\nBy Elyse Wanshel\nWhen one couple\u2019s rescue kitty, Wilbur, decided to randomly sit with his furry hind legs tucked in front of him, they snapped a picture of his silly squat and posted it on Facebook.\nView post on imgur.com\nWilbur did it again, and so they posted another.\nView post on imgur.com\nNot long after, a side-by-side picture of both of the above images was posted to the content sharing and social media site,\u00a09gag. The picture acquired a little over 100 comments. Last week, the picture made its way onto 9gag\u2019s\u00a0Instagram page\u00a0and has received over 700,000 likes -- making it an official viral hit.\nThe way this cat sits is hilarious lol\n#9gag #NotGivingADamn @9gagmobile A photo posted by 9gag (@9gag) on Feb 17, 2016 at 5:03pm PST\n\u201cWilbur actually doesn't sit like that all the time, but he does sometimes,\u201d one of his humans, Sara (who wanted her last name to remain anonymous), told The Huffington Post. \u201cHis torso is either too long or his legs are too short, so he always sits in odd positions.\u201d\n#ourcatWilbur A photo posted by @snozaki on Jan 8, 2016 at 5:47pm PST\nVia Wilbur's owners, Sara and Grant\nVia Wilbur's humans, Sara and Grant\nThis isn\u2019t Wilbur\u2019s sole quirk. He also likes to play fetch -- like a dog.\n\u201cHe loves wine corks, it's all he'll play with them all day,\u201d Sara, who posted a video of the kitty chasing a cork on Instagram, said.\n\u201cHe brings it back and everything.\u201d\nNew talent discovered! #ourcatWilbur plays fetch! A video posted by @snozaki on Dec 5, 2015 at 8:19pm PST\nThe goofy tabby, who loves snuggles and nose bumps, was discovered by Emma Roth, a 24-year-old Barnard College grad who runs\u00a0Bradford TNR, an independent organization that betters the lives of cats living on the streets of New York City. In October, Roth found Wilbur in her backyard in Brooklyn.\u00a0He was cornered by her dog, Oscar, a German shepherd mix, and seemed distressed.\nRoth whisked Wilbur to the vet. He had no physical damage, but was shaken up by the encounter. After a few days of recovery at her home, Roth discovered the cat was friendly and may possibly have belonged to someone. She decided to put the word out and see if anyone was looking for him. She posted Wilbur\u2019s picture on a New York City Subreddit with the comment \"Does this cat belong to anyone?\"\nVia Wilbur's humans, Sara and Grant\nVia Wilbur's humans, Sara and Grant\nVia Wilbur's humans, Sara and Grant\nThat\u2019s where Sara\u2019s boyfriend, Grant, first saw Wilbur\u2019s picture.\n\u201cGrant and I have always wanted a cat,\u201d Sara said. \u201cOne day, we found a little mouse scurrying about our apartment. That's when Grant put his foot down and said, \u2018Babe, we're getting a cat!\u2019\"\nWhen Grant laid eyes on Wilbur online he half-jokingly commented: \"Hey, if you can't find the owner, I might be willing to take him.\"\nTwo days later, Roth contacted Grant saying Wilbur wasn't neutered or micro-chipped so he might be a stray. After a trip to the vet in which Wilbur was neutered, vaccinated and received a check up, the couple decided to adopt him.\n#ourcatWilbur he likes to play\ud83d\udc08 A photo posted by @snozaki on Jan 18, 2016 at 9:05pm PST\nView post on imgur.com\nRoth was sad to see Wilbur go, but it\u2019s part of the job at Bradford TNR.\nThe organization utilizes the \u201ctrap-neuter-return\u201d program in which feral and stray cats are humanely trapped, neutered at a clinic and then returned to their outdoor homes to live out their lives. Bradford TNR, also tries to find homes for some of their rescues, and takes the cats they capture to the ASPCA for medical care.\n\u201cPeople are always saying, \u2018I wish somebody would help that poor animal\u2019 when they see them living on the streets or in need of rescue,\u201d Roth, who became TNR-certified at age 22 told HuffPost. \u201cI want to show people my age that they can be that somebody.\u201d\nAccording to Roth, in order to become TNR certified,\u00a0one has to sign up for a three-hour workshop class, where you learn the basics of TNR and gain access to an incredible wealth of resources.\n\u201cIf there were more people active in TNR in every community, we could dramatically reduce the number of animals born on the streets,\u201d she said.\nTo find out more about Bradford TNR, check out its\u00a0Tumblr and Instagram page.\nTo keep up with Wilbur, follow him on\u00a0Instagram.\nAlso on HuffPost:\nPHOTO GALLERY\nDownload\nREAL LIFE. REAL NEWS. REAL VOICES.\nHelp us tell more of the stories that matter from voices that too often remain unheard.\nJoin HuffPost Plus\nElyse Wanshel\nReporter, HuffPost\nSuggest a correction\nMORE:\nFunny Cats\nSaving Strays",
"comments_found": "False",
"comments": null,
"img": "[[None, 'https://img.huffingtonpost.com/asset/5c1161451f0000c407267e90.jpg?ops=100_100', 'headshot', '38px', '38px'], [None, 'https://img.huffingtonpost.com/asset/56cdd67b1e00002100702ae3.jpeg?ops=scalefit_720_noupscale', '', None, None], [None, 'https://img.huffingtonpost.com/asset/56cdd7611500002b000b09ae.jpeg?ops=scalefit_720_noupscale', '', None, None], [None, 'https://img.huffingtonpost.com/asset/56cdd8271e0000230070ea75.jpeg?ops=scalefit_720_noupscale', '', None, None], [None, 'https://img.huffingtonpost.com/asset/56cdd84c1e00002200702ae6.jpeg?ops=scalefit_720_noupscale', '', None, None], [None, 'https://img.huffingtonpost.com/asset/56cdd8821e00002200702ae7.jpeg?ops=scalefit_720_noupscale', '', None, None], [None, 'https://img.huffingtonpost.com/asset/5c1161451f0000c407267e90.jpg?ops=100_100', 'headshot', '38px', '38px']]",
"class": "funny_cats"
}