{
"url": "https://www.sadanduseless.com/funny-cat-loafs/",
"title": " Cats On Glass Tables",
"meta": "{'description': 'These pictures prove that all cat owners absolutely need a glass table in their house.', 'og:type': 'article', 'og:title': 'Cats On Glass Tables'}",
"article_content": "Cats On Glass Tables 20 CommentsThese pictures prove that all cat owners absolutely need a glass table in their house. Our furry friends love to sit and stare at the world around them, but when they choose a flat surface to lay on, they give us a view we don\u2019t have the chance to see everyday\u2026 and it\u2019s oddly funny.\n.\nIf you enjoyed this gallery, you may also like Cats In Cardboard Tanks, Dinosaur Cat Haircuts, and Ninja Cats.\n.",
"comments_found": "False",
"comments": null,
"img": "[[None, 'https://sadanduseless.b-cdn.net/wp-content/uploads/2018/12/cat-on-glass1.jpg', 'Funny cat sleeping on a glass table.', '660', '660'], [None, 'https://sadanduseless.b-cdn.net/wp-content/uploads/2018/12/cat-on-glass2.jpg', 'Cute cat sleeping on a glass table.', '660', '660'], [None, 'https://sadanduseless.b-cdn.net/wp-content/uploads/2018/12/cat-on-glass9.jpg', 'Adorable cat sleeping on a glass table.', '660', '875'], [None, 'https://sadanduseless.b-cdn.net/wp-content/uploads/2018/12/cat-on-glass5.jpg', 'Funny cat sleeping on a glass table.', '660', '810'], [None, 'https://sadanduseless.b-cdn.net/wp-content/uploads/2018/12/cat-on-glass3.jpg', 'Funny fat cat sleeping on a glass table.', '660', '660'], [None, 'https://sadanduseless.b-cdn.net/wp-content/uploads/2018/12/cat-on-glass4.jpg', 'Fat cat sleeping on a glass table.', '660', '660'], [None, 'https://sadanduseless.b-cdn.net/wp-content/uploads/2018/12/cat-on-glass13.jpg', 'Cats sleeping on a glass table.', '660', '527'], [None, 'https://sadanduseless.b-cdn.net/wp-content/uploads/2018/12/cat-on-glass7.jpg', 'Cute cat sleeping on a glass table.', '660', '825'], [None, 'https://sadanduseless.b-cdn.net/wp-content/uploads/2018/12/cat-on-glass8.jpg', 'Cat loaf on a glass table.', '660', '660'], [None, 'https://sadanduseless.b-cdn.net/wp-content/uploads/2018/12/cat-on-glass11a.jpg', 'Cat on a glass table.', '660', '507'], [None, 'https://sadanduseless.b-cdn.net/wp-content/uploads/2018/12/cat-on-glass14.jpg', 'Two cats on a glass table.', '660', '824'], [None, 'https://sadanduseless.b-cdn.net/wp-content/uploads/2018/12/cat-on-glass12.jpg', 'Cat on a glass table.', '660', '823'], [None, 'https://sadanduseless.b-cdn.net/wp-content/uploads/2018/12/cat-on-glass16.jpg', 'Cat paws on a glass table.', '660', '880'], [None, 'https://sadanduseless.b-cdn.net/wp-content/uploads/2018/12/cat-on-glass17.jpg', 'Cat on a glass table.', '660', '659'], [None, 'https://sadanduseless.b-cdn.net/wp-content/uploads/2018/12/cat-on-glass18.jpg', 'Levitating cat?', '660', '741'], [None, 'https://sadanduseless.b-cdn.net/wp-content/uploads/2018/12/cat-on-glass10.jpg', 'Funny cute cat on a glass table.', '660', '656'], [None, 'https://sadanduseless.b-cdn.net/wp-content/uploads/2018/12/cat-on-glass20.jpg', 'Cat laying on a glass table.', '660', '540'], [None, 'https://sadanduseless.b-cdn.net/wp-content/uploads/2018/12/cat-on-glass15.jpg', 'Fat ginger cat sleeping on a glass table.', '660', '817'], [None, 'https://sadanduseless.b-cdn.net/wp-content/uploads/2018/12/cat-on-glass6.jpg', 'Ginger cat on a glass table.', '660', '642'], [None, 'https://sadanduseless.b-cdn.net/wp-content/uploads/2018/12/cat-on-glass19.jpg', 'Cat standing on a glass table.', '660', '827']]",
"class": "funny_cats"
}