{
"url": "https://catfriendly.com/cat-care-at-home/routine-caregrooming/",
"title": "Routine Care/Grooming | Cat Friendly Homes",
"meta": "{'og:type': 'article', 'og:title': 'Routine Care/Grooming | The Cat Community', 'og:site_name': 'Cat Friendly Homes'}",
"article_content": "Routine Care/Grooming\nSee more content in:\nSeniors\nCats devote a large part of their\u00a0day to cleaning and conditioning their coat and claws. Estimates range from about 2 to 6 hours a day. This means you should frequently see your cat lapping her fur, washing her face, using a scratching post, and biting her nails.\nMost cats are \u201cself-cleaning,\u201d \u00a0but some may have characteristics that make grooming challenging. Long-hair, polydactyls (extra toes), flat-faced, and hairless cats may require help with personal hygiene even when they are healthy.\nAs your cat\u2019s caregiver, keep these facts in mind:\nAll cats can benefit from regular grooming sessions and nail trimming at home.\nGrooming enhances your relationship and will allow you to notice even subtle changes in the condition of your cat\u2019s coat, skin, and nails.\nAcute illness, increasing age, increasing weight, dental disease, less than ideal nutrition, parasites, infections, and chronic illnesses can all contribute to a loss of the well groomed\u00a0appearance we expect of our cats.\nIf you see changes in your cat\u2019s grooming practices or your cat appears unkempt or messy, call your veterinarian so they can assess your cat and make sure that she is not ill.\nHaving the proper tools makes grooming easier for you and your cat.\nPartner with your veterinarian to help keep your cat looking and feeling terrific, and make sure you report any changes in grooming behavior to your veterinarian.\nGrooming Tips\nNail Trimming\nHairball Awareness\nGrooming Tools\nCaring For Your Cat\u2019s Teeth\nCause for Concern\nContributed by Dr. Debra Givin, DVM",
"comments_found": "False",
"comments": null,
"img": "[]",
"class": "cats"
}