{
"url": "https://www.bbc.com/news/world-europe-48482872",
"title": "Elton John 'rejects' Russia censorship of Rocketman gay scenes - BBC News",
"meta": "{'description': 'The British singer says the decision to cut gay sex scenes from the biopic is \"cruelly unaccepting\".', 'og:type': 'article', 'og:title': 'Elton John condemns Russia Rocketman censorship', 'og:site_name': 'BBC News'}",
"article_content": "Elton John 'rejects' Russia censorship of Rocketman gay scenes - BBC News\nHomepageAccessibility linksSkip to contentAccessibility HelpBBC AccountNotificationsHomeNewsSportWeatheriPlayerSoundsCBBCCBeebiesFoodBitesizeArtsTasterLocalTVRadioThreeMenuSearchSearch the BBCSearch the BBC\nBBC News Navigation\nHome\nWorld\nUK\nTech\nStories\nEntertainment & Arts\nWorld News TV\nIn Pictures\nReality Check\nSpecial Reports\nThe Reporters\nHave Your Say\nEurope selected\nEuropean Elections 2019\nEurope\nElton John 'rejects' Russia censorship of Rocketman gay scenes\n1 June 2019\nShare this with Facebook\nShare this with Messenger\nShare this with Twitter\nShare this with Email\nShare this with Facebook\nShare this with WhatsApp\nShare this with Messenger\nShare this with Twitter\nShare this with\nThese are external links and will open in a new window\nShare this with Email\nShare this with Facebook\nShare this with Messenger\nShare this with Messenger\nShare this with Twitter\nShare this with Pinterest\nShare this with WhatsApp\nShare this with LinkedIn\nCopy this link\nhttps://www.bbc.com/news/world-europe-48482872\nRead more about sharing.\nThese are external links and will open in a new window\nClose share panel\nImage copyright\nGetty Images\nImage caption\nSir Elton has previously criticised Russian President Vladimir Putin's \"ridiculous\" attitude to gay rights.\nSir Elton John has criticised a Russian film company's decision to cut gay sex scenes from his new biopic Rocketman.The local film distributor told state news agency Tass it cut scenes from the film to comply with Russian laws.The British singer and the makers of Rocketman issued a statement saying they rejected the censorship \"in the strongest possible terms\". Sir Elton has previously spoken out against Russian laws banning \"gay propaganda\".\nElton falls short of Freddie at box office\nElton John's best movie moments\nRussian jails drop yoga ban\nIn a statement shared on his Twitter page late on Friday, he described the censorship of Rocketman as a \"sad reflection of the divided world we still live in and how it can still be so cruelly unaccepting of the love between two people.\"\n\"We believe in building bridges and open dialogue, and will continue to push for the breaking down of barriers until all people are heard equally across the world,\" the statement said.\nImage Copyright @eltonofficial\n@eltonofficial\nImage Copyright @eltonofficial\n@eltonofficial\nAnother example of LGBT censorshipAnalysis by Ben Hunte, BBC News, LGBT correspondentWe have seen all of this before. The same discussions were had around Bohemian Rhapsody, which was released last year. The film was accused of employing \"straight washing\" and \"queer-erasure\" for international marketability, as Rami Malek's Freddie Mercury portrayal was not out-and-proud about his sexuality. It also happened with Disney's Beauty and the Beast, which almost had a gay moment removed for release in certain markets. Even Eurovision was dragged into the discussion last year, when a Chinese broadcaster censored LGBT elements of the competition.LGBT censorship is happening all over the world. Elton John has long been a gay icon and he is easily one of the world's most well-known activists. Ultimately, this is a film about his life, and people know who he is and what he stands for. Even with some of the most revealing gay scenes being removed from the movie, for many people, his story being told globally in biopic form will still be seen as groundbreaking.\nRocketman tells the story of the popular musician's rise to fame. It includes a male sex scene and a photograph in the closing credits of Sir Elton, 72, and his real-life husband.\nMedia playback is unsupported on your device\nMedia captionRocketman is a musical film about Sir Elton John's career and how he broke into the industry\nAfter watching the film during an early screening in Moscow, local journalists and critics reported that an estimated five minutes had been removed. Film critic Anton Dolin wrote on Facebook (in Russian) that \"all scenes with kissing, sex and oral sex between men have been cut out.\"\"The nastiest part is that the final caption has been removed from the finale,\" he added, referencing a tribute to Sir Elton's husband.Another journalist who attended the screening, Misha Kozyrev, said scenes depicting drug use had also been removed.A spokesman for local film distributor Central Partnership confirmed that it had altered the film, telling Tass it had done so to comply with Russian laws.Olga Lyubimova, head of the Culture Ministry's cinema department, told the news agency that no specific demands had been put on the distributor to change the film.\"You know perfectly well that numerous Western and Russian films are related to the problem of drug use... it would be wrong to say that we are engaging in any form of censorship,\" she said.However, she added that films are expected comply with Russian laws on \"paedophilia, ethnic and religious hatred and pornography.\"Speaking to the BBC in 2015, Sir Elton criticised Russian President Vladimir Putin's \"ridiculous\" attitude to gay rights.He said he wanted to meet with Mr Putin to discuss the issue.\nMedia playback is unsupported on your device\nMedia captionSir Elton: I'll try to influence Putin's gay rights attitude\nRocketman is set to be released in cinemas across Russia on Thursday.\nRelated TopicsFilmRussiaLGBTElton John\nShare this story\nAbout\u00a0sharing\nFacebook\nMessenger\nPinterest\nLinkedIn\nMore on this story\nRocketman flies at box office - but falls short of Bohemian Rhapsody\n29 May 2019\nSir Elton John's best movie moments\n23 May 2019\nSir Elton: I'll try to influence Putin's gay rights attitude\n13 September 2015\nRussian jails drop yoga ban\n8 April 2019\nTop Stories\nVenezuelans cross into Colombia as border reopens\nThousands of people have crossed the border, which had been shut in February, to buy basic goods.\n8 June 2019\n'Most wanted' fugitive arrested in Malta\n8 June 2019\nUK minister 'deeply regrets' taking cocaine\n8 June 2019\nA Sherpa\u2019s guide to climbing Everest\nMother and daughter graduate on the same day\nJamaica's tenacious World Cup star\nThe long echo of WW2 trauma\nThe farmers fighting goat thieves\nTrump v Khan: A war of words explained\n'Gay actors bring something special to gay roles'\nBBC Capital: The problem with exclamation marks\nWeChat and the Surveillance State\nElsewhere on the BBC\nLyrics quiz\nHave you been getting these songs wrong?\nFull article Lyrics quiz\nFeeling hot\nWhat happens to your body in extreme heat?\nFull article Feeling hot\nWhy you can trust BBC News\nBBC News Navigation\nSections\nEuropean Elections 2019\nVideo\nselected\nWorld Home\nAsia\nEurope selected\nLatin America\nMiddle East\nUS & Canada\nUK Home\nN. Ireland\nWales\nBusiness\nBusiness Home\nMarket Data\nGlobal Trade\nEntrepreneurship\nTechnology of Business\nConnected World\nGlobal Education\nTech\nStories\nEntertainment & Arts\nWorld News TV\nIn Pictures\nReality Check\nSpecial Reports\nThe Reporters\nHave Your Say\nBBC News Services\nOn your mobile\nOn your connected tv\nGet news alerts\nContact BBC News\nExplore the BBCHomeNewsSportWeatheriPlayerSoundsCBBCCBeebiesFoodBitesizeArtsTasterLocalTVRadioThree Terms of UseAbout the BBCPrivacy PolicyCookiesAccessibility HelpParental GuidanceContact the BBCGet Personalised NewslettersCopyright \u00a9 2019 BBC. The BBC is not responsible for the content of external sites. Read about our approach to external linking.",
"comments_found": "False",
"comments": null,
"img": "[[None, 'https://ichef.bbci.co.uk/news/320/cpsprodpb/BCBF/production/_107191384_6116e8c8-934b-4c4c-920d-0a4306bf8d7f.jpg', 'Executive producer Sir Elton John attends the Rocketman UK premiere at Odeon Luxe Leicester Square in London'], [None, 'https://ichef.bbci.co.uk/news/1024/socialembed/https://twitter.com/eltonofficial/status/1134584756723695616~/news/world-europe-48482872', 'Twitter post by @eltonofficial: '], [None, 'https://ichef.bbci.co.uk/images/ic/720x405/p079w74z.jpg', None], [None, '//ssc.api.bbc.com/?c1=2&c2=19293874&ns_site=bbc&name=', '']]",
"class": "random"
}