{
"url": "https://catfriendly.com/cat-care-at-home/the-basics-supplies/",
"title": "Basics - Daily Essentials (Supplies) | Cat Friendly Homes",
"meta": "{'og:type': 'article', 'og:title': 'Basics - Daily Essentials (Supplies) | The Cat Community', 'og:site_name': 'Cat Friendly Homes'}",
"article_content": "Basics \u2013 Daily Essentials (Supplies)\nSee more content in:\nKittens\nCongratulations on bringing a new cat into your home! Now it\u2019s time to make sure you are prepared and have the \u201cbasic necessities\u201d for your cat\u2019s transition into your home. Here\u2019s a list of some basic supplies your new feline friend will need:\nCat Food\nAsk your veterinarian which food would be best for your cat. Or buy a small amount of what your cat is\u00a0currently eating, and then consult with your veterinarian.\nStock up on\u00a0good quality cat food, suitable for the age of your cat, that you offer daily.\nFood and Water Bowls\nProvide your cats with a food dish and a water dish that are wide and shallow. Some cats prefer a glass dish instead of a plastic one.\nRemember to change your cat\u2019s food and water daily.\nSome cats also like to drink running water, such as a water fountain.\nProvide multiple bowls of water throughout your house where your cat can get a drink of water. If your cat is part of a multi-cat household, provide several feeding stations. These water and food stations should be located away from litter boxes.\nCat Scratching Post or Cat Tree\nScratching is a natural behavior for cats. So it\u2019s very important to ensure there is an\u00a0acceptable place or places for scratching in your home.\nThere are many options available such as scratching posts, cat trees, and cardboard scratching boxes. Find out which your cat prefers texture-wise, as well as whether he prefers a vertical or horizontal scratcher.\nThe placement of scratchers is very important. Cats often stretch or scratch when they wake up, so try\u00a0placing one near where your cat sleeps. It may also be\u00a0helpful to place a scratcher near or in front of a cat\u2019s preferred, yet undesirable, scratching object (e.g. corner of the couch).\nHave some fun, appropriate toys for your cat to play with on their own and with you. Toys encourage physical and mental stimulation, and allow your cat to\u00a0use their natural hunting and stalking behaviors.\nInteractive toys like \u201cfishing poles\u201d or feather wands are especially fun for designated play time together. Some toys with strings or loose parts may need to be put away after play so your cat stays safe.\nIt\u2019s good to have a variety of toys available so your cat has something \u201cnew\u201d to play with each day.\nCats prefer toys that change in texture and shape as they are played with, mimicking the stalk, grasp, and kill behavior of prey. If your cat seems to become \u201cbored\u201d with the toy, it may be because it doesn\u2019t change when he plays with it.\nLitter Box\nA large litter box is ideal for urination and defecation. The litter box should be 1 \u00bd times the size of your cat, so they have enough room to enter, turn around, scratch, and eliminate. Low storage bins or totes can make great boxes.\nIf you have multiple cats, the number of litter boxes should be one more then the number of cats in your household.\nIf you have more than one cat in your household, place the litter boxes on different levels or in different rooms. Avoid placing the boxes right next to each other because cats\u00a0often see them as one large litter box instead of multiple litter boxes.\nIf you have older cats,\u00a0they may need a litter box with a lower opening. This allows them to easily climb in and out of the box. Also, place the older cat\u2019s litter box on the level in your home where they spend most of their time.\nMost litter boxes are made of plastic, which makes them porous and able to pick up odors readily. Litter boxes should be replaced at least once a year.\nMore information about\u00a0designing the optimal litter box for your cat.\nCat Litter\nMost cats develop a preference for a kind of litter when they are kittens. The texture of the litter has importance\u00a0because the pads on cats\u2019 feet are very sensitive to touch.\nUsually most cats prefer an unscented, clumping litter.\nYou may need to try multiple kinds of litter to find out which kind your cat prefers.\nIf you have an older cat or a cat with sensitive paws, avoid litter with a sharp or very hard consistency.\nLitter Scooper\nIt is important to have a sturdy scoop to clean out fecal matter and urine balls every day.\nMetal scoops tend to be more durable than the plastic versions.\nWaste material collected daily from the litter boxes can be kept in a trashcan liner (bag) and put out with the trash.\nCat Nail Clipper\nRegularly trimming your cat\u2019s nails can prevent injury and damage to household items.\nAsk your veterinarian what type of clipper is best for your cat. You should also ask for a\u00a0demonstration on how to trim your cat\u2019s nails.\nMost cats enjoy soft, cozy beds with deep sides that they can settle down into.\u00a0These beds provide cats with safe places to rest and sleep.\nIt is helpful to have multiple resting places since cats seek warmth throughout the day. They will move to different parts of the house where the sun is shining through the windows.\nHomes with multiple cats should have a variety of beds in many locations so cats can have their own space if they choose.\nMetal Cat Comb\nMany cats like to be brushed and most cats have a preference for the type of tool used. There are a wide variety of good brushes and gloves available.\nIt is especially important to find an acceptable tool for long-haired cats who may have trouble \u201ckeeping up\u201d with their coats.\nIt may be easier to start grooming your cat as a kitten. If your cat does not enjoy being brushed, start slowly, and give your cat plenty of breaks.\nCat Toothbrush\nIt is very important to brush your cat\u2019s teeth, since dental disease is very common in cats.\nAsk your veterinarian about what type of toothbrush you should use on your cat\u2019s teeth.\nIf you start when your cat is young, this can become something your cat will allow. You should brush the outside surfaces of your cat\u2019s teeth and make sure to reward them afterwards.\nCat Collar and Tags\nAll cats should have a collar and identification tag, even if your cat stays indoors.\nThe collar helps to identify your cat if he escapes from your home or while at the veterinarian\u2019s office. You can attach the rabies tag to the collar.\nAsk your veterinarian or veterinary staff for help putting the collar on tightly enough so that it will not be lost.\nIt is recommended to have this permanent form of identification implanted at your veterinarian\u2019s office. \u00a0It offers the best chance of finding your cat if he ever gets out or becomes lost.\nMake sure to regularly check the information on file about you and your cat. Update addresses and phone numbers as they change.\nYour individual cat may need additional resources. Discuss these items with your veterinarian, as well as additional supplies your cat might need.\nContributed by Dr. Paige Garnett, DVM",
"comments_found": "False",
"comments": null,
"img": "[[None, 'http://catfriendly.com/wp-content/uploads/2016/09/gray-and-white-cat-on-perch-givin-300x300.jpg', 'gray-and-white-cat-on-perch-givin', '300', '300'], [None, 'http://catfriendly.com/wp-content/uploads/2016/08/catcare-play-361x240.jpg', 'Orange cat playing with toy', '300', '200'], [None, 'http://catfriendly.com/wp-content/uploads/2016/09/iStock_000000602202Medium-300x300.jpg', 'istock_000000602202medium', '300', '300']]",
"class": "cats"
}