{
"url": "https://www.aspca.org/pet-care/cat-care/general-cat-care",
"title": "General Cat Care | ASPCA",
"meta": "{'description': 'Get a host of handy information about your feline companion in our general cat care guide. It also comes in an easy-to-print PDF for tacking on your fridge and easy reference.', 'og:type': 'article', 'og:title': 'General Cat Care', 'og:site_name': 'ASPCA'}",
"article_content": "General Cat Care | ASPCA\nSkip to content\nKey IssuesAnimal HomelessnessAnimal CrueltyOur ResponseAnimal RescueAnimal PlacementAnimal ProtectionHow You Can HelpWays to GiveFundraise with Team ASPCATake ActionAdopt a Pet\nPrimary Nav Menu\nKey IssuesAnimal Homelessness\nAnimal Cruelty\nOur ResponseAnimal Rescue\nAnimal Placement\nAnimal Protection\nHow You Can HelpWays to Give\nFundraise with Team ASPCA\nTake Action\nAdopt a Pet\nSearch form\nAbout Us\nNYC\nASPCA Pro\nYou are herePet Care Cat Care\nCat Care\nGeneral Cat CareHave you recently added a feline friend to your family? Congratulations! We know you\u2019ll be thrilled to have your new cat in your home. If you are considering adopting a cat, please visit your local shelter. We encourage you to browse our directory of adoptable cats in your area, or use our shelter finder to start your search.Read on for useful tips for new cat parents, and for those looking to brush up on their pet care skills.Basic Care\ncat-care_general-cat-care_body1-left.jpg\ncat-care_general-cat-care_body1-right.jpg\nFeedingWe recommend purchasing high-quality, brand-name kitten or cat food. Your veterinarian will be able to assess your new cat or kitten and determine the best diet. Factors such as age, activity level and health make a difference in what and how much a cat should eat.Cats require taurine, an essential amino acid, for heart and eye health. The food you choose should be balanced for the life stage of your cat or kitten. Properly balanced foods will contain taurine.You will need to provide fresh, clean water at all times, and wash and refill your cat\u2019s water bowls daily.Treats should be no more than 5-10% of the diet.Many people feed baby food to a cat or kitten who is refusing food or not feeling well \u00a0Please read labels carefully: If the baby food contains onion or garlic powder, your pet could be poisoned.Take your pet to your veterinarian if signs of anorexia, diarrhea, vomiting or lethargy continue for more than two days.Please visit our People Foods to Avoid Feeding Your Pets page for a list of off-limits items, as well as our Cat Nutrition Tips page for more information.\ncat-care_general-cat-care_body2-left.jpg\ncat-care_general-cat-care_body2-right.jpg\nGroomingMost cats stay relatively clean and rarely need a bath, but you should brush or comb your cat regularly. Frequent brushing helps keep your cat's coat clean, reduces the amount of shedding and cuts down on the incidence of hairballs. Please visit our Cat Grooming Tips page for more information.HandlingTo pick up your cat, place one hand behind the front legs and another under the hindquarters. Lift gently. Never pick up a cat by the scruff of the neck or by the front legs.HousingYour pet should have her own clean, dry place in your home to sleep and rest. Line your cat's bed with a soft, warm blanket or towel. Be sure to wash the bedding often. Please keep your cat indoors. Outdoor cats do not live as long as indoor cats. Outdoor cats are at risk of trauma from cars, or from fights with other cats, raccoons and free-roaming dogs. Coyotes are known to eat cats. Outdoor cats are more likely to become infested with fleas or ticks, as well as contract infectious diseases.IdentificationIf allowed outdoors, your cat must wear a safety collar and an ID tag. A safety collar with an elastic panel will allow your cat to break loose if the collar gets caught on something. And for both indoor and outdoor cats, an ID tag or an implanted microchip can help ensure that your cat is returned if he or she becomes lost.Litter BoxAll indoor cats need a litter box, which should be placed in a quiet, accessible location. In a multi-level home, one box per floor is recommended. Avoid moving the box unless absolutely necessary, but if you must do so, move the box just a few inches per day.\u00a0Keep in mind that cats won't use a messy, smelly litter box, so scoop solid wastes out of the box at least once a day. Dump everything, wash with a mild detergent and refill at least once a week; you can do this less frequently if using clumping litter. Don't use ammonia, deodorants or scents, especially lemon, when cleaning the litter box. If your cat will not use a litterbox, please consult with your veterinarian. Sometimes refusal to use a litter box is based on a medical condition that required treatment. Please visit our\u00a0Litter Box Problems page\u00a0for more information.\ncat-care_general-cat-care_body3-left.jpg\ncat-care_general-cat-care_body3-right.jpg\nScratchingCats need to scratch! When a cat scratches, the old outer nail sheath is pulled off and the sharp, smooth claws underneath are exposed. Cutting your cat\u2019s nails every two to three weeks will keep them relatively blunt and less likely to harm the arms of both humans and furniture. Provide your cat with a sturdy scratching post, at least three feet high. The post should also be stable enough that it won't wobble during use, and should be covered with rough material such as sisal, burlap or tree bark. Many cats also like scratching pads.HealthYour cat should see the veterinarian at least once a year for an examination and annual shots, and immediately if she is sick or injured.Medicines and PoisonsNever give your cat medication that has not been prescribed by a veterinarian. If you suspect that your animal has ingested a poisonous substance, call your veterinarian or the ASPCA Animal Poison Control Center for 24-hour animal poison information at (888) 426-4435.Spaying and NeuteringFemale cats should be spayed and male cats neutered by five months of age. Please visit our Spay/Neuter Your Pet page to learn more.VaccinationsYour veterinarian will make recommendations based on your cat's age and health. Please visit our Pet Vaccinations page to learn more.Cat Supply ChecklistPremium-brand cat foodFood dishWater bowlInteractive toysBrushCombSafety cat collar with ID tagScratching post or scratching padLitter box and litterCat carrierCat bed or box with warm blanket or towel\nOther Ways to Help:\nBecome a Monthly Member\nFundraise with Team ASPCA\nJoin the Mobile Action Team\nShare this page:\nHelp the ASPCA Put a Stop to Animal Cruelty Donate\nStay Up to Date\nFirst Name *\nLast Name *\nEmail Address *\nMobile Number\n(Optional)\nBy providing my mobile number, I agree to receive periodic text messages from the ASPCA. Text STOP to opt-out, HELP for more info. Message and data rates may apply.\nTerms & Conditions / Privacy Policy\nLeave this field blank\nAbout Us\nContact\nStrategic Cause Partnerships\nPet Care\n\u00a9 2019 American Society for the Prevention of Cruelty to Animals. All rights reserved.The ASPCA is a 501(c)(3) non-for-profit organization. Privacy Policy\u00a0 Legal Info\nOur Partnerships\nExclusive Subaru VIP offer for ASPCA Guardians & Founders.\nASPCA Pet Health Insurance\nUnderwritten by United States Fire Insurance Company",
"comments_found": "False",
"comments": null,
"img": "[[None, 'https://www.aspca.org/sites/all/modules/contrib/lazyloader/image_placeholder.gif', None, '2000', '300'], [None, 'https://www.aspca.org/sites/default/files/field/image/donate-bar/donate_image_footer-puppies_wide_0.jpg', None, '2000', '300'], ['General Cat Care', 'https://www.aspca.org/sites/all/modules/contrib/lazyloader/image_placeholder.gif', 'General Cat Care'], ['General Cat Care', 'https://www.aspca.org/sites/default/files/cat-care_general-cat-care_body1-left.jpg', 'General Cat Care'], ['General Cat Care', 'https://www.aspca.org/sites/all/modules/contrib/lazyloader/image_placeholder.gif', 'General Cat Care'], ['General Cat Care', 'https://www.aspca.org/sites/default/files/cat-care_general-cat-care_body1-right.jpg', 'General Cat Care'], ['General Cat Care', 'https://www.aspca.org/sites/all/modules/contrib/lazyloader/image_placeholder.gif', 'General Cat Care'], ['General Cat Care', 'https://www.aspca.org/sites/default/files/cat-care_general-cat-care_body2-left.jpg', 'General Cat Care'], ['General Cat Care', 'https://www.aspca.org/sites/all/modules/contrib/lazyloader/image_placeholder.gif', 'General Cat Care'], ['General Cat Care', 'https://www.aspca.org/sites/default/files/cat-care_general-cat-care_body2-right.jpg', 'General Cat Care'], ['General Cat Care', 'https://www.aspca.org/sites/all/modules/contrib/lazyloader/image_placeholder.gif', 'General Cat Care'], ['General Cat Care', 'https://www.aspca.org/sites/default/files/cat-care_general-cat-care_body3-left.jpg', 'General Cat Care'], ['General Cat Care', 'https://www.aspca.org/sites/all/modules/contrib/lazyloader/image_placeholder.gif', 'General Cat Care'], ['General Cat Care', 'https://www.aspca.org/sites/default/files/cat-care_general-cat-care_body3-right_0.jpg', 'General Cat Care'], [None, '/sites/default/files/protection-sidebar-ad_040119_update_b.png', None], [None, 'https://www.aspca.org/sites/all/modules/contrib/lazyloader/image_placeholder.gif', 'Facebook'], [None, 'https://www.aspca.org/sites/all/themes/aspca_2015/images/facebook.png', 'Facebook'], [None, 'https://www.aspca.org/sites/all/modules/contrib/lazyloader/image_placeholder.gif', 'Twitter'], [None, 'https://www.aspca.org/sites/all/themes/aspca_2015/images/twitter.png', 'Twitter'], [None, 'https://www.aspca.org/sites/all/modules/contrib/lazyloader/image_placeholder.gif', None], [None, 'https://www.aspca.org/sites/default/files/field/image/donate-bar/donate_image_footer-puppies_wide_0.jpg', None]]",
"class": "cats"
}