{
"url": "https://catfriendly.com/cat-care-at-home/senior-care/",
"title": "Senior Care | Cat Friendly Homes",
"meta": "{'og:type': 'article', 'og:title': 'Senior Care | The Cat Community', 'og:site_name': 'Cat Friendly Homes'}",
"article_content": "Senior Care\nSee more content in:\nSeniors\nWhat is a Senior Cat?\nThere isn\u2019t one specific age that classifies a cat as senior. Like people, some cats age faster than others. Generally speaking, however, older cats can be placed into one of three groups:\nMature or middle-aged: 7\u201310 years (44-56 years for humans)\nSenior: 11\u201314 years (60-72 years for humans)\nGeriatric: 15+ years (76+ years for humans)\nYou can increase your cat\u2019s changes of living into his teens or early twenties by providing good care at home and regular veterinary care.\nAs your cat ages, be prepared to see physical changes. It\u2019s important to discuss these changes with your veterinarian to determine what is \u201cnormal\u201d aging and what\u00a0may be a sign of illness. With regular check-ups, illnesses can be diagnosed early and age-related health conditions can be delayed or managed.\nDownload Brochure\nSome common aging changes include:\nChanges sleep-wake cycle\nChanges in vision\nAppearance of brown spots in the iris\nDecreased sense of smell\nBrittle or fragile nails\nDecreased lung reserve\nHeart or circulatory problems\nDecreased digestion and ability to absorb nutrients\nLoose, less-elastic skin\nReduced ability to handle stress\nChanges in behavior\nWe all want to grow old with grace and dignity, and we want the same for our pets. Fortunately, expert understanding of cat health and advances in veterinary medicine mean cats can live longer, better lives than ever before. As your cat\u2019s caregiver, there\u2019s much you can do to keep your cat healthy and happy. We have additional tips for caring for your senior cat.",
"comments_found": "False",
"comments": null,
"img": "[[None, 'http://catfriendly.com/wp-content/uploads/2016/08/carecare-senior.jpg', 'carecare-senior', '247', '330'], [None, 'http://catfriendly.com/wp-content/uploads/2016/11/Senior-CareBrochureCover-497x600.png', 'senior-carebrochurecover', '200', '241']]",
"class": "cats"
}