{
"url": "https://www.britannica.com/animal/Rex-cat",
"title": "Rex cat | breed of cat | Britannica.com",
"meta": "{'keywords': 'Rex cat, encyclopedia, encyclopeadia, britannica, article', 'description': 'Rex cat: Rex cat, curly-coated breed of domestic cat that has a dense, soft coat lacking any projecting guard hairs, or outer coat. Except on the head, legs, and paws, the coat forms fairly deep waves, or crimps. The eyebrows and whiskers of the Rex cat are crinkled, the eyes are almond-shaped, and the ears', 'og:type': 'ARTICLE', 'og:title': 'Rex cat | breed of cat', 'og:site_name': 'Encyclopedia Britannica'}",
"article_content": "Rex cat,\ncurly-coated breed of domestic cat that has a dense, soft coat lacking any projecting guard hairs, or outer coat. Except on the head, legs, and paws, the coat forms fairly deep waves, or crimps. The eyebrows and whiskers of the Rex cat are crinkled, the eyes are almond-shaped, and the ears are large and high set. The adult Rex cat is slender and usually has long legs, a long neck and head, and a long, tapering tail. Show cats may be any of the colours or patterns that are accepted for domestic cats.Devon Rex, white.\u00a9 Chanan Photography\nThis article was most recently revised and updated by Adam Augustyn, Managing Editor.\nLearn More in these related Britannica articles:\nCat,\n(Felis catus),\ndomesticated member of the family Felidae, order Carnivora, and the smallest member of that family. Like all felids, domestic cats are characterized by supple low-slung bodies, finely molded heads, long tails that aid in balance, and specialized teeth and claws\u2026\nHistory at your fingertips\nSign up here to see what happened On This Day, every day in your inbox!\nBy signing up, you agree to our Privacy Notice.\nThank you for subscribing!\nBe on the lookout for your Britannica newsletter to get trusted stories delivered right to your inbox.",
"comments_found": "False",
"comments": null,
"img": "[[None, 'https://cdn.britannica.com/s:700x450,q:1/37/7137-004-732EE406.jpg', 'Devon Rex, white.', None, None], [None, 'https://cdn.britannica.com/s:180x300/39/7139-004-4C7C99F2.jpg', 'Himalayan, chocolate point.', None, None], [None, 'https://cdn.britannica.com/marketing/newsletter-icon-white-SM.png', 'newsletter icon', None, None]]",
"class": "cats"
}