{
"url": "https://www.petfinder.com/cats/cat-care/cat-outdoor-indoor/",
"title": "Should You Let Your Cat Go Outdoors? | Petfinder",
"meta": "{'description': 'Learn how to responsibly decide if your cat should be let oudoors and check out these safety tips for letting cats outdoors.', 'og:type': 'article', 'og:title': 'Should You Let Your Cat Go Outdoors? | Petfinder', 'og:site_name': 'Petfinder'}",
"article_content": "Should You Let Your Cat Go Outdoors? | Petfinder\nlogo-consumericon-accountsicon-search\nTo stay signed in, click continue\nYou will be logged out of your account in 2 minutes\nSign Out\nLog in to Petfinder\nPassword\nLog in\nForgot Password?\nDon't have an account?\nRegister now\nPetfinder Makes Adopting Easier\nCreate and save your adopter profile.\nSave and manage your pet searches and email communications.\nLearn helpful pet care tips and receive expert advice.\nGet involved and help promote adoptable pets in your area.\nClose this dialog\nFirst Name\nLast Name\nChoose country\nPetfinder Is Available Only In Specific Regions\nPetfinder currently includes pets and adoption organizations from the regions listed above. Please check back in the future for any potential expansion.\nPostal Code\nYou will use your email address to log in\nYou will use your email address to log in\nTo keep your account secure, your new password must be at least 8 characters long and contain a minimum of 3 of the following: 1 number, 1 lowercase letter, 1 uppercase letter or 1 special character.\nPassword Requirements\nMust be at least 8 characters\nMust contain at least 3 out of 4 of these:\nCapital letters\nLowercase letters\nSpecial characters\nNumbers\nValid!\nConfirm Password\nClose this dialog\nPetfinder Logo\nSkip to content\nFind a Pet\nResources\nResources\nSearch Articles:\nSubmit Search\nClose Search\nSign In / Register\nDog Breeds\nCat Breeds\nAbout Pet Adoption\nDog Adoption\nCat Adoption\nOther Pet Adoption\nHappy Tails Pet Adoption Stories\nPet Adoption Information\nExotic Pets\nDog Care\nDog Adoption\nDog Breeds\nBringing A Dog Home\nDog Nutrition\nDog Training\nDog Problems\nDog Grooming\nPet Care Videos\nCat Care\nCat Adoption\nCat Breeds\nBringing A Cat Home\nCat Nutrition\nCat Behavior & Training\nCat Problems\nCat Grooming\nPet Care Videos\nAll Pet Care\nPet Care Videos\nCats\nHorses\nSmall And Furry Pets\nShelters & Rescues\nFind an Animal Shelter or Rescue Group\nStarting A Pet-Adoption Organization\nVolunteering With Dogs\nVolunteering With Cats\nVolunteering With Shelters & Rescues\nFostering Dogs\nFostering Cats\nHelping Pets\nGet Involved\nRead Our Blog\nPut Petfinder on Your Site\nPetfinder Foundation\nClose Resources Navigation Menu\nClose Resources Navigation Menu\nDog Breeds\nCat Breeds\nAbout Pet Adoption\nOverview Dog Adoption\nCat Adoption\nOther Pet Adoption\nHappy Tails Pet Adoption Stories\nPet Adoption Information\nExotic Pets\nClose Main Navigation Menu.\nGo back to the top level navigation.\nDog Care\nOverview Dog Adoption\nDog Breeds\nBringing A Dog Home\nDog Nutrition\nDog Training\nDog Problems\nDog Grooming\nPet Care Videos\nClose Main Navigation Menu.\nGo back to the top level navigation.\nCat Care\nOverview Cat Adoption\nCat Breeds\nBringing A Cat Home\nCat Nutrition\nCat Behavior & Training\nCat Problems\nCat Grooming\nPet Care Videos\nClose Main Navigation Menu.\nGo back to the top level navigation.\nAll Pet Care\nOverview Pet Care Videos\nCats\nHorses\nSmall And Furry Pets\nClose Main Navigation Menu.\nGo back to the top level navigation.\nShelters & Rescues\nOverview Find an Animal Shelter or Rescue Group\nStarting A Pet-Adoption Organization\nVolunteering With Dogs\nVolunteering With Cats\nVolunteering With Shelters & Rescues\nFostering Dogs\nFostering Cats\nClose Main Navigation Menu.\nGo back to the top level navigation.\nHelping Pets\nOverview Get Involved\nRead Our Blog\nPut Petfinder on Your Site\nPetfinder Foundation\nClose Main Navigation Menu.\nGo back to the top level navigation.\nSearch\nSign In/Register\nClose Main Navigation Menu\nFind a dog\nFind a cat\nFind Other Pets\nSaved searches\nMain Content\nHomeCatsCaring for Cats\nShould You Let Your Cat Go Outdoors?\nJacque Lynn Schultz, CPDT, Companion Animal Programs Adviser, National Outreach, APSCA\nThanks to the creation and marketing of cat litter since the mid 1940s, more and more cats are staying in \u2014 becoming indoors-only pets, that is. As such, cats are generally leading longer, healthier lives. The average indoor cat lives to be ten to twelve years old, and many of us know felines who are older than twenty. Conversely, outdoor-only cats survive for an average of two years in that situation. Our homes offer a safer, healthier environment than life on the street. Just think, no ticks and fleas unless the family dog brings them in; no tangling with rabid raccoons, aromatic skunks or hungry coyotes, and no one-on-ones with moving vehicles. There\u2019s no doubt about it \u2014 indoors is safest!\nYet, when we choose to make our cats indoors-only companions, we have a responsibility to provide the stimulation that nature provides automatically. Scratching and climbing posts become pseudo-trees; interactive toys become hunted birds, bugs and field mice. A rotating array of cat playthings provides excitement, variety and exercise.\nTaking Them to the Street\nThat said, many cat lovers still prefer to share the Great Outdoors with their feline friends. Happily, there are ways to minimize the risks. While vaccinations are important to indoor cats, they are essential to the health of cats allowed outside. The soil of a garden or yard can harbor diseases spread by stray, unvaccinated cats for many months. And rabies has spread over much of the country, transmitted mainly through altercations with wildlife such as foxes, raccoons and bats.\nThe safest ways to allow your cat to enjoy some time outdoors is to either harness-train him or her and go for walks together or to provide a screened-in enclosure or fenced-in yard topped with cat-proof netting.\nHold the Line\nHarness training, like many things, is easiest taught during kittenhood. But some adult cats can acclimate to it. Choose a figure-8 or H-type harness and make sure it fits well. (The fit is right if you can barely get your finger between the cat and the harness.) At first, put the harness on for a few minutes at a time, preferably just before mealtime or during play so that the cat associates it with something positive. Repeat this several times a day. When the cat begins to ignore the harness, attach the leash and let him or her drag it around for a few more short sessions; stay nearby in case the leash catches on something. The next step is to pick up the leash and follow the cat around the house. This will allow the cat to get used to a human following behind, prior to providing gentle guidance with the leash.\nWhen your cat is comfortable taking light direction, proceed to a quiet area outdoors. Keep your first sessions short, frequent and upbeat; little food rewards come in handy. If you are leaving your property, keep your eyes peeled for off-leash dogs, in-line skaters or bicyclists who could put Tabby in danger or give her a scare.\nHey, Fence Me In!\nSince outdoor enclosures can be homemade or commercially constructed, they come in all shapes and sizes. For durability, chain link, chicken wire or wire mesh hardware cloth \u2014 secured around a simple wood frame \u2014 is preferable to ordinary window screening. Roofing is a necessity since cats are exceptional climbers. The most successful structures include climbing and resting furniture inside. A shaded area complete with a water bowl is required for warm or hot weather usage.\nWhether you choose an outdoor enclosure or add cat-proof netting to the top of traditional fencing, remember that they are best used only when you are at home and outdoors with your cats or able to check on them often. Pet theft only takes a few moments, whether perpetrated by pesky neighborhood kids or an organized group rounding up animals to sell to research facilities. Don\u2019t forget, a microchip, tattoo or ID tag is the very thing to reunite you and your family feline if all precautions fail.\nShare this Article\nMore in Outdoor Safety\n6 Reasons To Keep Your Cat Indoors\nLearn the main reasons people let their cats roam freely ... and why it's not such a good idea.\nCan I Keep My Indoor/Outdoor Cat Inside Only?\nTransitioning an Outdoor Cat to Indoors\nPreventing Feline High-Rise Syndrome\nShould You Let Your Cat Go Outdoors?\nRead More\nRecently Viewed Pets\nFinding pets for you\u2026\nMORE ADOPTION RESOURCES\nDog Breeds\nCat Breeds\nHome Forever Home New Pet Guide\nRead Adoption Stories\nExplore More\nEvents near you\nPetfinder Logo\nAbout Petfinder\nAbout Petfinder\nPartnerships\nTerms of Service\nMobile Site & Apps\nPetfinder Foundation\nFree Widgets & Graphics\nFor Developers\nContact Us\nPet Adoption\nDog Adoption\nCat Adoption\nOther Pet Adoption\nSearch Adoption Organizations\nPet-Adoption Stories\nLocal Adoption Events\nShelters & Rescues\nPet Care Topics\nDog Care\nDog Breeds\nCat Care\nCat Breeds\nAll Pet Care\nPet Care Videos\nHelping Pets\nPrivacy Policy\nAbout Our Ads\nShelter & Rescue Login\nShelter & Rescue Registration\nTo get the latest on pet adoption and pet care, sign up for the Petfinder newsletter.\nSign Up\nTwitter\nYouTube\n\u00a92019 Petfinder.com\nAll trademarks are owned by Soci\u00e9t\u00e9 des Produits Nestl\u00e9 S.A., or used with permission.\nicon-404icon-alertBell_checkedicon-alertBellicon-binocularsdevicesicon-resourcesicon-sheltericon-sheltericon-sheltericon-paw_colorPrimaryicon-paw_colorWhiteicon-pawicon-404icon-404icon-accounticon-account_colorPrimaryicon-addAnimalicon-addUsericon-alerticon-arrowDownSmallicon-arrowRightSmallicon-articleicon-calendaricon-check_colorDarkicon-check_colorPrimaryicon-check_colorWhiteicon-checkicon-chevronDown_colorDarkicon-chevronDown_colorPrimaryicon-chevronDown_colorDarkicon-chevronDownicon-chevronLeft_colorDarkicon-chevronLeft_colorPrimaryicon-chevronLeft_colorWhiteicon-chevronLefticon-chevronRight_colorDarkicon-chevron_colorPrimaryicon-chevron_colorWhiteicon-chevronRighticon-chevronUp_colorDarkicon-chevronUp_colorPrimaryicon-chevronUp_colorWhiteicon-chevronUpicon-circleAlerticon-circleBorderPlayicon-circleBorderPlus_colorPrimaryS2icon-circleBorderPlusicon-circleBorderQuestionicon-circleCheck_colorPrimaryS1icon-circleCheckicon-circleDeletedicon-cicleDownArrowicon-circleEditicon-circleMinus_colorPrimaryS1icon-circleMinusicon-ciclePlusicon-cicleQuestionicon-circleTransferredicon-circleUndeletedicon-close_colorDarkicon-close_colorPrimaryicon-close_colorWhiteicon-close_colorWhiteicon-closeicon-dashboardicon-editicon-emailicon-eventsicon-expandicon-facebookicon-favoriteicon-filtericon-gearicon-hoursicon-instagramicon-linkicon-location_colorPrimaryicon-locationicon-lockmenumenuicon-pauseicon-pawicon-phoneicon-photoicon-pinteresticon-playicon-printicon-privateicon-reportingicon-rssicon-saveicon-searchicon-searchicon-shareicon-shareicon-shareicon-share_colorWhiteStrokeDarkicon-share_outlineicon-shareicon-sizeExtraLargeicon-sizeLargeicon-sizeMediumicon-sizeSmallicon-trashicon-twittericon-videoicon-viewicon-youtube",
"comments_found": "False",
"comments": null,
"img": "[[None, 'https://d17fnq9dkz9hgj.cloudfront.net/uploads/2012/11/99843837-cat-outdoor-indoor-632x475.jpg', 'Should You Let Your Cat Go Outdoors?'], [None, 'https://d17fnq9dkz9hgj.cloudfront.net/uploads/2012/11/99843837-cat-outdoor-indoor-632x475.jpg', 'cat sitting in the grass'], [None, 'https://d17fnq9dkz9hgj.cloudfront.net/uploads/2012/11/91716266-merial-puppy-fleas-ticks-251x1891.jpg', 'labrador puppy lying down']]",
"class": "cats"
}