{
"url": "https://www.litter-robot.com/blog/2019/05/09/can-cats-sense-pregnancy/",
"title": "Can Cats Sense Pregnancy? | Learn more on Litter-Robot Blog",
"meta": "{'description': 'Can cats sense pregnancy? Let\u2019s explore how cats sense pregnancy, such as by smell, and how you can help your cat adjust to your pregnancy.', 'og:type': 'article', 'og:title': 'Can Cats Sense Pregnancy? | Learn more on Litter-Robot Blog', 'og:site_name': 'Litter-Robot Blog'}",
"article_content": "Cat Facts, Lifestyle\nCan Cats Sense Pregnancy?\nMay 9, 2019\n/ by Callie\nMother\u2019s Day is around the corner, which made us wonder: Can cats sense pregnancy? It may sound like an old wives\u2019 tale; indeed, there is no reliable scientific evidence to validate this odd sort of sixth sense. However, many a cat mom can offer her own anecdote about how a pet\u2019s behavior changed after she became pregnant. Let\u2019s explore why that might be, and how you can help your cat adjust to your pregnancy.\nHow can cats sense pregnancy?\nThey pick up on body language and mood\nEven with all their napping, cats are characteristically alert. Some would call them experts at reading body language and mood, especially when it comes to their \u201cpreferred\u201d (read: favorite) human. As one of the earliest signs of pregnancy is fatigue, your cat will probably react to the fact that you\u2019re resting more often (hello, cat naps!) and that you\u2019re\u2014understandably\u2014a little moodier or more emotional. Even a slight change in body posture may attract your cat\u2019s attention.\nThey have an excellent sense of smell\nCats have an even stronger sense of smell than many dog breeds do. As Flo Health explains, \u201cDuring pregnancy, [a woman] experiences profound changes in her hormonal levels, when her body begins producing more progesterone, estrogen, and human chorionic gonadotropin (hCG) hormones. These changes in her hormonal levels can affect her personal scent.\u201d\nIn fact, this keen sense of smell has shown that sometimes cats sense pregnancy even before women do. For instance, an anecdote featured on The Dodo relays how a woman named Lisa adopted a cat that much preferred her husband\u2019s company over her own\u2014until one day the cat began meowing at her, seeking her affection, and constantly curling up with her as she slept. Days later, Lisa found out she was pregnant.\nThey seek out warmth\nDuring the first trimester, a woman\u2019s basal body temperature may rise slightly. As cats\u2019 internal body temperature is a toasty 102 degrees Fahrenheit, they have to compensate for greater heat loss than us humans. So, cats tend to seek out heat\u2014especially if it\u2019s radiating from someone with whom they already enjoy cuddling.\nHelp your cat adjust to your pregnancy\nCats are creatures of habit, so it\u2019s important to give them the same love and attention during your pregnancy. Sometimes when cats sense pregnancy, they may even act more protective toward you. Stick to your regular routine for as long as you can to avoid your cat developing behavioral problems. If a cat feels neglected, he may act aggressively or begin urinating outside of the litter box. If you begin to feel overwhelmed, talk to your partner or enlist a friend\u2019s help to maintain an ideal routine for your cat.\nDue to toxoplasmosis concerns, you shouldn\u2019t scoop the litter box while pregnant. If you were primarily the one who cleaned the litter box before and are concerned your cat will negatively react to this, you can hover in the same room as your partner, friend, or child takes over the litter box duties. Or, if you have a self-cleaning Litter-Robot, you don\u2019t need to worry about scooping at all! Just make sure someone else empties the waste drawer when it becomes full.\nBefore the baby arrives, start acclimating your cat to the idea of a baby in the house: Help him get comfortable with a baby\u2019s crying and other sounds by playing recordings online, and introduce him to a friend\u2019s or family member\u2019s baby if possible.\nFinally, when the day comes for you to officially introduce your cat and baby, be calm. Being an astute reader of mood and body language, your cat is more likely to react well to this strange bundle of joy if you remain patient and encouraging. In all likelihood, you\u2019re in for a beautiful relationship\u2014read more about why cats are the best pets for kids!\nRecommendations",
"comments_found": "False",
"comments": null,
"img": "[['Can Cats Sense Pregnancy?', 'https://www.litter-robot.com/blog/wp-content/uploads/2019/04/IMG_1295.jpg', '', '760', '339'], [None, 'https://www.litter-robot.com/blog/wp-content/uploads/2019/04/IMG_1306.jpg', 'pregnant mom, child, and cat with a Litter-Robot Connect', None, None], [None, 'https://www.litter-robot.com/blog/wp-content/uploads/2019/04/IMG_1354.jpg', 'cat with grey Litter-Robot 3 Connect and ramp', None, None], [None, 'https://www.litter-robot.com/blog/wp-content/uploads/2019/04/can-cats-sense-pregnancy_-600x900.png', 'can cats sense pregnancy?', '272', '408'], [None, 'https://www.litter-robot.com/blog/wp-content/uploads/2015/06/Recommendations-11-reasons-e1531758272348.png', '11 reasons why', '175', '128'], [None, 'https://www.litter-robot.com/blog/wp-content/uploads/2015/06/Recommendations-VIDEO.png', '', '175', '128'], [None, 'https://www.litter-robot.com/blog/wp-content/uploads/2015/06/Recommendations-convert-years.png', '', '175', '128'], [None, 'https://www.litter-robot.com/blog/wp-content/uploads/2015/06/760x335-FUTURE-CALLED-2-LEARN-MORE-510x225.png', '', '532', '238']]",
"class": "cats"
}