{
"url": "https://www.buzzfeednews.com/article/ryancbrooks/valerie-jarret-joe-biden-2020-election",
"title": "Former Obama Adviser Valerie Jarrett Said Biden Would Make A \"Terrific President\" If Elected In 2020",
"meta": "{'description': 'Jarrett won\u2019t endorse anyone in the primary yet but is speaking to many of the candidates in a field she described as \u201can embarrassment of riches\u201d on BuzzFeed News\u2019 Profile.', 'og:type': 'article', 'og:title': 'Former Obama Adviser Valerie Jarrett Said Joe Biden Would Make A \u201cTerrific President\u201d', 'og:site_name': 'BuzzFeed News'}",
"article_content": "Former Obama Adviser Valerie Jarrett Said Biden Would Make A \"Terrific President\" If Elected In 2020\nSkip To Content\nBuzzFeed News Home\nReporting To You\nMenu Icon\nFormer Obama Adviser Valerie Jarrett Said Joe Biden Would Make A \u201cTerrific President\u201d\nFacebook\nBuzzFeed News Logo\nSections\n\ud83c\udf7f Arts & Entertainment\n\ud83d\udcda Books\n\ud83d\udcbc Business\n\ud83d\udd75\ufe0f\u200d Investigations\n\ud83c\udff3\ufe0f\u200d\ud83c\udf08 LGBT\n\ud83d\udc69\ud83c\udffd\u200d\u2696\ufe0f Politics\n\ud83d\udd2c Science\n\ud83d\udcbb Tech\n\ud83c\udf0d World\nAbout Us\nGot a tip?\nSupport Us\nbuzzfeed.com\npolitics\nFormer Obama Adviser Valerie Jarrett Said Joe Biden Would Make A \u201cTerrific President\u201d\nJarrett won\u2019t endorse anyone in the primary yet but is speaking to many of the candidates in a field she described as \u201can embarrassment of riches\u201d on BuzzFeed News\u2019 Profile.\nRyan C. Brooks\nRyan C. Brooks\nBuzzFeed News Reporter\nLast updated on May 31, 2019, at 5:21 p.m. ET\nPosted on May 31, 2019, at 3:20 p.m. ET\nTweet\nShare\nCopy\nBuzzFeed News\nFormer Obama adviser Valerie Jarrett said she thinks Joe Biden would make a \u201cterrific president,\u201d but she won\u2019t endorse anyone in the crowded Democratic primary right now.\u201cI think right now in the Democratic Party we have an embarrassment of riches,\u201d Jarrett said on BuzzFeed News\u2019 Profile. \u201cI think it\u2019s also early and I think in this campaign unlike president Obama where I got in very early because I\u2019d known him forever I was completely willing to jump in. I want to see how they do.\u201dJarrett did say, however, she\u2019s speaking to many of the candidates, including Elizabeth Warren and Biden, about the primary.\u201cIt\u2019s a gauntlet and having now been through two presidential campaigns, I know what it takes to get in there and really earn the trust of the American people, and so I think I\u2019ve talked to many of the candidates,\u201d Jarrett said.Jarrett said she\u2019s advised candidates to be authentic and recognize no one is going to give them the election.\u201cShow us what it is that your vision is, but also more importantly or just as importantly, how are you going to execute on that vision,\u201d Jarrett said she told the candidates. \u201cWhat is it that you have in your talent bank that\u2019s going to enable you to deliver on what you say you\u2019re going to do.\u201dJarrett added that she wants to see the candidates running for the nomination not harshly attack each other over the course of the primary.\u201cDon\u2019t beat up on the other guys and gals in the race so much that when we emerge from the primary with a nominee that that person is in a weakened state,\u201d Jarrett said. \u201cKeep your eye on the prize, which is the general election.\u201d\u201cI\u2019m not interested in what you think about the other guy, I can formulate my own opinions about that person,\u201d Jarrett added. \u201cTell me why I should believe in you.\u201dWatch the full interview with Valerie Jarrett on Profile, Sunday morning at 8 ET.\nRyan C. Brooks is a politics reporter for BuzzFeed News and is based in New York.\nContact Ryan C. Brooks at ryan.brooks@buzzfeed.com.\nGot a confidential tip? Submit it here.\nView Comments\nLooks like your browser doesn't support JavaScript.\nSections\nArts & Entertainment\nBusiness\nLGBT\nPolitics\nScience\nWorld\nFollow Us\nFacebook\nTwitter\nInstagram\nSupport Us\nBuzzFeed.com\nPrivacy Policy\nUser Agreement\nBuzzFeed News Home\nBuzzFeed\nOur serif font, Pensum, is brought to you by Typemates.\nTwitter\nCopy",
"comments_found": "False",
"comments": null,
"img": "[[None, 'https://img.buzzfeed.com/buzzfeed-static/static/2018-07/18/9/user_images/buzzfeed-prod-web-06/maggieschultz-v2-30849-1531921927-0_large.jpg', None], [None, 'https://img.buzzfeed.com/buzzfeed-static/static/2019-05/31/17/asset/buzzfeed-prod-web-06/sub-buzz-11201-1559337582-1.jpg?downsize=700%3A%2A&output-quality=auto&output-format=auto&output-quality=auto&output-format=auto&downsize=360:*', ''], [None, 'https://img.buzzfeed.com/buzzfeed-static/static/2018-07/18/9/user_images/buzzfeed-prod-web-06/maggieschultz-v2-30849-1531921927-0_large.jpg', 'Picture of Ryan C. Brooks'], [None, 'https://pixiedust.buzzfeed.com/v1.gif?source=buzz_web&platform=news_bpager&type=instrumentation&target=javascript&value=disabled', None]]",
"class": "random"
}