{
"url": "http://ddegrandis.com/trading-granite-for-quiet/",
"title": "Trading Granite for Quiet \u2013 Learnings on Lean Kanban Flow",
"meta": "{'og:type': 'article', 'og:title': 'Trading Granite for Quiet', 'og:site_name': 'Learnings on Lean Kanban Flow'}",
"article_content": "Trading Granite for Quiet\nTrading Granite for Quiet\nDecember 30, 2017\ndominica Comments\n0 Comment\nThis year, we celebrated Christmas with an old family favorite \u2013 spaghetti with meatballs and spareribs \u2013\u00a0cooked in a large crock-pot that consumes 18 inches of countertop space. With 16 people for dinner, space is a premium. I covered the small second kitchen sink with a cutting board and placed the crock-pot on top of it. Counter space problem solved.\nWe use the small second kitchen sink less and less these days. Installed during a kitchen remodel years ago, when children crowded the kitchen, it was convenient to have one sink for meal prep and one sink for cleanup. The second sink had a water filter which provided clean drinking water and served the cook. The old sink collected dirty dishes and served the dish washers. As the years went on, the water filter on the second sink became cumbersome to maintain and I elected to replace it with a better quality under-counter water filter on the old sink.\nNow that the crock-pot covers the second sink, I realize there is not only more countertop space, but a whole other cabinet below to store pots & pans \u2013 that is \u2013 if plumbing pipes were not in the way. This suggests a new countertop though.\nThere are umpteen options for kitchen counters: laminate, corian, lapitec, stainless steel, concrete, granite, recycled glass, recycled paper, butcher block, soapstone, quartz, marble, tile, travertine. What to do?\nI called Robin \u2013 a friend who is also a talented interior designer. She asked what I was looking for. I said that I wanted to replace the laminate counter (yes \u2013 laminate, not granite) with a honed-like material like recycled paper or soapstone.\nRobin arrived a few days later to assess the kitchen counter.\nRobin: \u201cWhat about the flooring?\u201d\nMe: \u201cThe flooring?\u201d\nRobin: \u201cYes. The flooring. Are you going to keep it? Good design, no matter what style, selects one area to focus your attention on and all other design elements become supportive to that one item.\u201d\nThen, as politely as possible, Robin said, \u201cYour floor is pretty busy.\u201d\nA random pattern of bright red, green and blue primary colors, our checkered kitchen floor is about as busy as it gets. Happy, but busy.\nMe: \u201cWell \u2013 it\u2019s vinyl. We installed it 18 years ago before I knew how toxic vinyl was. It\u2019s cracked and hard to clean. I\u2019m ready to replace it.\u201d\nRelieved, Robin gave me some flooring and countertop ideas to ponder.\nOn her way out, I gave her my book, Making Work Visible \u2013 Exposing Time Theft to Optimize Work & Flow. She responded, \u201cWell \u2013 I don\u2019t know if I\u2019ll understand much of it \u2013 I\u2019m not technical, but thank you!\u201d\nI explained that while the book does have an IT bent to it, people outside of tech have found it helpful. The technology sector does not have a monopoly on overload. People in all industries are overwhelmed with conflicting priorities\u00a0and unplanned work.\nSeveral days later, Robin emailed me, \u201cI like the idea of grey quartz countertops with your pretty cabinets and this should be the focal point of your kitchen. A place for your eyes to rest. So that is why I think it\u2019s best if your floors are\u00a0quiet.\u201d\nThankful for Robin\u2019s sound advice, I read on.\n\u201cI\u2019m reading your book and find it interesting that a lot of what you write about are issues which strongly influence interior design.\u00a0I\u2019ve attended many industry seminars (both local and regional), and the consensus is that the bombardment from social media, cell phones, and constant email have swayed design trends more than you would realize. It is one reason why the mid-century revitalization has come around so strongly. And why there has been a strong turn toward making interiors quiet, spacious, even spare. The need to escape the constant \u201ctapping on your shoulder, just one more thing\u201d, environment of today has brought about interiors that attempt to give your mind space to wander and relax. People are ripping out their flashy granite countertops in favor of solid color countertops. They want to come home to a serene, tranquil space.\u201d\nThis is the reality of our everyday world. Continuous demand from children, school, aging parents, cooking, cleaning, laundry, social media, hosting holiday parties \u2013 it all adds up. Does any working parent have a normal thyroid anymore? Or non-stressed adrenal glands? The litany of health issues from stress is real and compounded from\u00a0Facebook depression, decision fatigue, and\u00a0digital dementia. It makes sense then that finding ways to cope with overload has bled into the kitchen.\nQuiet colors help reduce stress.\u00a0Finishing existing work before starting new work also helps to reduce stress. Limiting the amount of work-in-progress enables smooth work. Creative work. Quality work. Like a\u00a0clean calm kitchen, limiting work-in-progress helps people enjoy a fluid workflow.\nThe small second sink has not been used for over a week and the crock-pot still sits on the cutting board. It\u2019s currently empty \u2013 but not for long. Tomorrow it will cook\u00a0Lau Lau\u2019s for our New Year\u2019s Eve dinner. So, I\u2019m trading the small kitchen sink for more counter space. One less sink to clean, less plumbing to maintain.\nBy cutting out the unnecessary, the mind gets a moment of calm \u2013 a quiet bit of time to simply breathe. And like purging unused items, limiting work-in-progress enables us to simply think \u2013 a must have for the new year.\nShare this:Click to share on Twitter (Opens in new window)Click to share on Facebook (Opens in new window)\nShare on Facebook\nShare on TwitterTweet\nShare on Google Plus\nShare on LinkedIn\nUncategorized",
"comments_found": "False",
"comments": "Comment",
"img": "[[None, 'https://i0.wp.com/ddegrandis.com/wp-content/uploads/2017/12/IMG_crockpot-over-small-kitchen-sink.png?resize=640%2C381', '', '640', '381']]",
"class": "random"
}