{
"url": "https://blog.codinghorror.com/the-cloud-is-just-someone-elses-computer/",
"title": "The Cloud Is Just Someone Else's Computer",
"meta": "{'description': 'a blog by Jeff Atwood on programming and human factors'}",
"article_content": "17 Feb 2019\nThe Cloud Is Just Someone Else's Computer\nWhen we started Discourse in 2013, our server requirements were high:\n1GB RAM\nmodern, fast dual core CPU\nspeedy solid state drive with 20+ GB\nI'm not talking about a cheapo shared cpanel server, either, I mean a dedicated virtual private server with those specifications.\nWe were OK with that, because we were building in Ruby for the next decade of the Internet. I predicted early on that the cost of renting a suitable VPS would drop to $5 per month, and courtesy of Digital Ocean that indeed happened in January 2018.\nThe cloud got cheaper, and faster. Not really a surprise, since the price of hardware trends to zero over time. But it's still the cloud, and that means it isn't exactly cheap. It is, after all, someone else's computer that you pay for the privilege of renting.\nBut wait \u2026 what if you could put your own computer \"in the cloud\"?\nWouldn't that be the best of both worlds? Reliable connectivity,\nplus a nice low monthly price for extremely fast hardware? If this sounds crazy, it shouldn't \u2013 Mac users have been doing this for years now.\nI suppose it's understandable that Mac users would be on the cutting edge here since Apple barely makes server hardware, whereas the PC world has always been the literal de-facto standard for server hardware.\nGiven the prevalence and maturity of cloud providers, it's even a little controversial these days to colocate actual servers. We've also experimented with colocating mini-pcs in various hosting roles. I'm still curious why there isn't more of a cottage industry for colocating mini PCs. Because \u2026 I think there should be.\nI originally wrote about the scooter computers we added to our Discourse infrastructure in 2016, plus my own colocation experiment that ran concurrently. Over the last three years of both experiments, I've concluded that these little boxes are plenty reliable, with one role specific caveat that I'll explain in the comments. I remain an unabashed fan of mini-PC colocation. I like it so much I put together a new 2019 iteration:\n2017 \u2014 $6702019 \u2014 $820\ni7-7500u2.7-3.5 Ghz, 2c / 4ti7-8750h2.2-4.1 Ghz, 6c / 12t\n16GB DDR3 RAM32GB DDR4 RAM\n500GB SATA SSD500GB NVMe SSD\nThis year's scooter computer offers 3\u00d7 the cores, 2\u00d7 the memory, and 3\u00d7 faster drive. It is, as the kids say \u2026 an absolute unit. \ud83d\ude31\nIt also has a rather elegant dual-sided internal layout. There is a slot for an old-school 2.5\" drive, plus built in wi-fi, but you won't see it in my pictures because I physically removed both.\nI vetted each box via my recommended burn in and stability testing and they all passed with flying colors, though I did have to RMA one set of bodgy RAM sticks in the process. The benchmarks tell the story, as compared to the average Digital Ocean droplet:\nPer-core performance\nsysbench cpu --cpu-max-prime=20000 run\nDO Droplet2,988\n2017 Mini-PC4,800\n2019 Mini-PC5,671\nMulti-core performance\nsysbench cpu --cpu-max-prime=40000 --num-threads=8 run\nDO Droplet2,200\n2017 Mini-PC5,588\n2019 Mini-PC14,604\nDisk performance\ndd bs=1M count=512 if=/dev/zero of=test conv=fdatasync\nhdparm -Tt /dev/sda\nDO Droplet701 / 8818 / 471 MB/sec\n2017 Mini-PC444 / 12564 / 505 MB/sec\n2019 Mini-PC1200 / 17919 / 3115 MB/sec\nDiscourse rebuild\ntime ./launcher rebuild app\nDO Droplet6:59\n2017 Mini-PC3:41\n2019 Mini-PC3:24\nPower consumption could be a concern, as the 2017 version had a much lower 15 watt TDP, compared to the 45 watts of this version. That 3\u00d7 increase in core count ain't free! So I tested that, too, with a combination of i7z, stress,\nand my handy dandy watt meter.\n(idle login)800 Mhz10w\nstress --cpu 14.1 GHz30w\nstress --cpu 24.1 GHz42w\nstress --cpu 34.0 GHz53w\nstress --cpu 43.9 GHz65w\nstress --cpu 53.7 GHz65w\nstress --cpu 63.5 GHz65w\nstress --cpu 123.3 Ghz65w\nI'd expect around 10 - 20 watts doing typical low-load stuff that isn't super CPU intensive. Note that running current-ish versions of mprime jacks power consumption up to 75w \ud83d\udd25 and the overall clock scales down to 3.1 Ghz \u2026 let me tell you, I've learned to be very, very afraid of AVX2 extensions.\n(If you're worried about noise, don't be. This active cooling solution is clearly overkill for a 65w load, because it barely spun up at all even under full core load. It was extremely quiet.)\nSo we're happy that this machine is a slammin' deal for $820, it's super fast, and plenty reliable. But how about colocation costs? My colocation provider is EndOffice out of Boston, and they offer very competitive rates to colocate a Mini-PC: $29/month.\nI personally colocate three Mini-PCs for redundancy and just-in-case; there are discounts for colocating more than one. Here they are racked up and in action. Of course I labelled the front and rear before shipping because that's how I roll.\nLet's break this down and see what the actual costs of colocating a Mini-PC are versus the cloud. Given the plateauing of CPU speeds, I think five years of useful life for these boxes is realistic, but let's assume a conservative three year lifespan to be safe.\n$880 mini-pc 32GB RAM, 6 CPUs, 500GB SSD\n$120 taxes / shipping / misc\n$29 \u00d7 12 \u00d7 3 = $1,044\nThat's $2,044 for three years of hosting. How can we do on Digital Ocean? Per their current pricing page:\n32GB RAM, 8 vCPUs, 640GB SSD\n$160/month\n$160 \u00d7 12 \u00d7 3 = $5,760\nThis isn't quite apples to apples, as we are getting an extra 140GB of disk and 2 bonus CPUs, but those CPUs are both slower and partially consumed by multi-tenancy compared to our brand new dedicated, isolated CPUs. (I was curious about this, so I just spun up a new $160/month DO instance for a quick test. The sysbench results are 4086 and 11760 respectively, considerably below the 2019 Mini-PC results, above.) As you can see, you pay almost three times as much for a cloud server. \ud83e\udd11\nI'm not saying this is for everyone. If you just need to spin up a quick server or two for testing and experimentation, there's absolutely no way you need to go to the trouble and up-front cost of building and then racking colocated mini-pcs. There's no denying that spinning servers up in the cloud offers unparalleled flexibility and redundancy. But if you do have need for dedicated computing resources over a period of years, then building your own small personal cloud, with machines you actually own, is not only one third the cost but also \u2026 kinda cool?\nIf you'd also like to embark upon this project, you can get the same Partaker B18 box I did for $490 from Amazon, or $460 direct from China via AliExpress. Add memory and drive to taste, build it up, then check out endoffice.com who I can enthusiastically recommend for colocation, or the colocation provider of your choice.\nGet something cool hosted out there; let's do our part to keep the internet fun and weird!\nAn Exercise Program for the Fat Web\nWhat does Stack Overflow want to be when it grows up?\nWritten by Jeff Atwood\nIndoor enthusiast. Co-founder of Stack Overflow and Discourse. Disclaimer: I have no idea what I'm talking about. Find me here:\nhttp://twitter.com/codinghorror",
"comments_found": "False",
"comments": null,
"img": "[[None, '/content/images/2019/02/there-is-no-cloud.png', 'there-is-no-cloud', None, None], [None, '/content/images/2019/02/mac-colocation-2019-1.png', 'mac-colocation-2019-1', None, None], [None, '/content/images/2019/02/mac-stadium-colocation.jpg', 'mac-stadium-colocation', None, None], [None, '/content/images/2019/02/2019-scooter-computer-top-interior-1.jpeg', '2019-scooter-computer-top-interior-1', None, None], [None, '/content/images/2019/02/2019-scooter-computer-bottom-interior.jpeg', '2019-scooter-computer-bottom-interior', None, None], [None, '/content/images/2019/02/2019-scooter-computer-front-and-back.jpg', '2019-scooter-computer-front-and-back', None, None], [None, '/content/images/2019/02/2019-mini-pc-i7z-testing.png', '2019-mini-pc-i7z-testing', None, None], [None, '/content/images/2019/02/endoffice-mini-pc-colocation.png', 'endoffice-mini-pc-colocation', None, None], [None, '/content/images/2019/02/endoffice-colocated-2019-mini-pcs.jpg', 'endoffice-colocated-2019-mini-pcs', None, None], [None, '/content/images/2019/02/your-own-personal-cloud.jpg', 'your-own-personal-cloud', None, None]]",
"class": "random"
}