{
"url": "https://thecatsite.com/ams/17-hilarious-photos-of-adorable-cats-going-undercover.33874/",
"title": "17 Hilarious Photos Of Adorable Cats Going Undercover | TheCatSite",
"meta": "{'description': 'Going undercover - or under the covers - is something every self-respecting feline tries to do occasionally! Every once in a while Kitty turns into a secret undercover agent. Literally. Going...', 'og:type': 'article', 'og:title': '17 Hilarious Photos Of Adorable Cats Going Undercover', 'og:site_name': 'TheCatSite'}",
"article_content": "Going undercover - or under the covers - is something every self-respecting feline tries to do occasionally! Every once in a while Kitty turns into a secret undercover agent. Literally. Going under the covers is the feline version of 007, trying to avoid detection by real - or imaginary - adversaries!\nHere are 17 TCS cats demonstrating how cats go undercover - with varying degrees of success.\nFor a cat, our home is a wonderland of blankets that offer the aspiring secret agent the perfect cover -\nBlankets provide the purrfect cover for our feline spies!\nA decent blanket can offer shelter to more than one secret agent!\nHowever, some covers can be too comfy. So much so that even a dedicated agent may let down his guard and fall asleep.\nAnd once asleep, one's cover may be blown! All it takes is a tip of the tail showing -\nOr perhaps a rogue paw!\nGet too sleepy and an entire head might slip right out from under the cover!\nOr it could be the other half of one's furry body -\nThe real problem however is when you can't find an available blanket to serve as your cover. When that happens, a cat may turn to a pillow -\nOr perhaps a small rug -\nHere's a spy who couldn't find a blanket and had to take cover inside a blanket storage bag!\nClearly, these options don't always provide a feline with good coverage. A bed sheet is a far better option which can often offer full coverage. Just look at this pro!\nSo, what can you do about it all? As a responsible owner, if you ever adopt a new kitten, provide him with plenty of blankets to make sure your little spy gets trained from a young age!\nIt's never too early to start!\nSo, what do you think of our undercover agents? We think that they all excel in one thing: total cuteness! If you think so too, let us know in a comment, or even share a photo of your own cat under the covers!\nDon't forget to share this with your friends so they can enjoy our furspies!",
"comments_found": "False",
"comments": "Comments\nTo make a comment simply sign up and become a member!\nSort Comments\nSort Comments By\nDate: Newest to Oldest\nDate: Oldest to Newest\nPurraise\nThis is so cute... something neither of my cats ever do, though. They like to sleep on top of them.\nGreyLady, Mar 6, 2019\nSuch an amazing article! Here\u2019s my agent, barely trying to hide.\nramscici, Sep 19, 2018\nMidnight_The_Meowing_Cat and tarasgirl06 purraised this.\nSOOOOOOOO cute! my cat just hides in a box and awaits that unfortunate moment when I put something in there. Or when my toes are in reach.\nFiretail, Aug 25, 2018\ntarasgirl06 purraised this.\nOkay that was serious cuteness overload! LOL\nCandybee, May 15, 2018\ntarasgirl06, Frankophile Feline Fan and dustydiamond1 purraised this.\nmy kitty hides on the windowsill behind the curtains,but her cover is blown when we go outside...\nsnowpawprint, Jan 6, 2018\ntarasgirl06, dustydiamond1, raysmyheart and 1 other person purraised this.\nThis is too funny! I burst out laughing!\nraysmyheart, Jan 14, 2018\ntarasgirl06, 1CatOverTheLine and snowpawprint purraised this.\nWe must be mistaken. I don't see any cats!?\nActually, I love the hiding cats, they think they are amidst a real adventure, it seems.\nMy Speedy has a little, inexpensive felt rug that she goes crazy hiding under. I just have to be extra careful to keep her little rug off limits for me to step on because she is too good at hiding sometimes.\nAll the cats are gorgeous in these photos and I see familiar faces!\nThat is awesome!!\nraysmyheart, Jan 4, 2018\ntarasgirl06, 1CatOverTheLine, Merlin77 and 2 others purraised this.\nAnd they just THINK they are hiding...!!!\ncalico man, Jan 3, 2018\ntarasgirl06, Anne, dustydiamond1 and 1 other person purraised this.\nThese are the most superest duperest photos! First class spies all the way!\ncatwoman=^..^=, Jan 2, 2018\nMidnight_The_Meowing_Cat, tarasgirl06, Anne and 2 others purraised this.\nSnug as a bug in a rug.\nBrian007, Jan 2, 2018\nMerlin77, Anne, raysmyheart and 2 others purraised this.\nLove the pictures!\nRennie72, Jan 2, 2018\nAnne, raysmyheart and tarasgirl06 purraised this.\nI love the black tail sticking out (and Smedley has a white tip on his black tail). I love it when cats try to hide, but leave a body part showing. Loki (I miss him so much) used to wait until we changed the bed sheets, and would jump in under the fitted bottom sheet. I used to call him \"Loch Ness Kitty\", as the sheet had humps in it like the famous photo of the Loch Ness Monster!\nmargecat, Dec 30, 2017\nraysmyheart, betsygee, Anne and 2 others purraised this.\nThat's my Ozzy with the tail sticking out. Too cute.\nbetsygee, Jan 2, 2018\nAnne and raysmyheart purraised this.\nThese are great!\nbetsygee, Dec 30, 2017\nraysmyheart, tarasgirl06 and lavishsqualor purraised this.\nSo pleased to see our girl Gypsy (#7) Thanks for her inclusion.\ndustydiamond1, Dec 30, 2017\nraysmyheart, betsygee, Anne and 2 others purraised this.\nThank you for calling our beloved Rani angel (#15) a pro. She certainly was.\ntarasgirl06, Dec 28, 2017\nraysmyheart, betsygee, Anne and 2 others purraised this.",
"img": "[[None, 'https://thecatsite.com/attachments/blue-blanket-cat-jpg.211258/', 'blue-blanket-cat.jpg', None, None], [None, 'https://thecatsite.com/attachments/cat-under-blanket-jpg.211259/', 'cat-under-blanket.jpg', None, None], [None, 'https://thecatsite.com/attachments/hidingfiggy-jpg.211260/', 'HidingFiggy.jpg', None, None], [None, 'https://thecatsite.com/attachments/blanket-cat-jpg.211270/', 'blanket-cat.jpg', None, None], [None, 'https://thecatsite.com/attachments/undercover-black-cat-jpg.211261/', 'undercover-black-cat.jpg', None, None], [None, 'https://thecatsite.com/attachments/two-undercover-cats-jpg.211262/', 'two-undercover-cats.jpg', None, None], [None, 'https://thecatsite.com/attachments/cat-sleeping-under-blanket-jpg.211266/', 'cat-sleeping-under-blanket.jpg', None, None], [None, 'https://thecatsite.com/attachments/ozzy-hiding-jpg.211271/', 'Ozzy-hiding.jpg', None, None], [None, 'https://thecatsite.com/attachments/undercover-paw-jpg.211272/', 'undercover-paw.jpg', None, None], [None, 'https://thecatsite.com/attachments/cat-blankets-1-jpg.211273/', 'cat-blankets-1.jpg', None, None], [None, 'https://thecatsite.com/attachments/under-towel-cat-jpg.211274/', 'under-towel-cat.jpg', None, None], [None, 'https://thecatsite.com/attachments/cat-under-pillow-jpg.211275/', 'cat-under-pillow.jpg', None, None], [None, 'https://thecatsite.com/attachments/samai-in-ambush-jpg.211278/', 'samai-in-ambush.jpg', None, None], [None, 'https://thecatsite.com/attachments/transparent-undercover-cat-jpg.211276/', 'transparent-undercover-cat.jpg', None, None], [None, 'https://thecatsite.com/attachments/cat-under-sheets-jpg.211280/', 'cat-under-sheets.jpg', None, None], [None, 'https://thecatsite.com/attachments/kitten-undercover-tree-jpg.211284/', 'kitten-undercover-tree.jpg', None, None], [None, 'https://thecatsite.com/attachments/undercover-kitten-jpg.211286/', 'undercover-kitten.jpg', None, None]]",
"class": "funny_cats"
}