{
"url": "http://justsomething.co/20-funny-cat-comics-that-only-cat-owners-will-understand/",
"title": "20 Funny Cat Comics That Only Cat Owners Will Understand",
"meta": "{'og:type': 'article', 'og:title': '20 Funny Cat Comics That Only Cat Owners Will Understand', 'og:site_name': 'Just something (creative)'}",
"article_content": "20 Funny Cat Comics That Only Cat Owners Will Understand\nShare this post on FB: Share\nIf there\u2019s one thing we love here at Just Something, are humorous cat comics, and Marcus Connor\u2019s Brainless Tales, a series of comics depicting a black cat\u2019s dark thoughts and hilarious behaviors are just what it takes to make our day better.\nMarcus\u2019 collection of pun-filled, oddly humorous, and lighthearted daily comics had been an ongoing art project for him for 9 years, and sadly he decided to end his project on May 7, 2016. However,\u00a0he\u2019s made all his projects available to interested viewers on his website, and he\u2019s also selling Brainless Comics merchandise on Zazzle.\nWhenever Marcus comes up with something new, he\u2019ll surely let us know, so don\u2019t forget to follow him on Instagram and check out his website for more. In the meantime, enjoy our favorite picks from Marcus\u2019 comics below.\n1.\n2.\n3.\n4.\n5.\n6.\n7.\n8.\n9.\n10.\nPage 1 of 2Previous 12Next\nYou may also like\nin Animals, Funny\nMeet Ah Fei, The Cat Who Deserves An Oscar For His Hilariously Dramatic Reactions\nin Animals, Funny\nCrocheted Cat Butt Coasters Are A Thing Now, And Feline Lovers Can\u2019t Get Enough Of Them\nin Animals, Funny\nCat Figures Out Owner Doesn\u2019t Appreciate Dead Mice And Birds As Gifts, Finally Starts Bringing Giant Leaves Instead\nin Animals, Funny\n28 Hilarious Photos That Perfectly Depict What It\u2019s Like To Be A Cat Owner\nin Animals, Funny\n34 Of The Best Cat Tweets Ever\nin Animals, Art, Funny, Illustrations\nArtist Draws A Hilarious Guide To Dog Breeds To Help You Choose Your Next Dog\nMore From: Animals\nMan Dedicates His Life To Adopting Senior Dogs Who Can\u2019t Find A Forever Home\nWoman Drags Dog Behind Her Electric Scooter Until His Paws Bleed, Then Laughs About It\nThis German Circus Is Using Holograms Instead Of Live Animals To Stop Animal Abuse\nDog Comforts His Little Human Brother By Bringing Him His Favorite Toy Every Time He Cries\nBridesmaids Carry Shelter Dogs Instead Of Bouquets To Help Them Find A Forever Home\nMan Asks For A Refund On Unopened Food After His Dog Passed Away, They Send Him An Oil Painting Of His Dog As A Tribute\nLeave a Reply Cancel reply\nYour email address will not be published. Required fields are marked *Name *\nEmail *\nWebsite",
"comments_found": "False",
"comments": "Comment",
"img": "[[None, 'http://justsomething.co/wp-content/uploads/2018/10/20-funny-cat-comics-that-only-cat-owners-will-understand-758x397.jpg', '', '758', '397'], [None, 'http://justsomething.co/wp-content/uploads/2018/10/20-funny-cat-comics-that-only-cat-owners-will-understand-03.jpg', '', '497', '406'], [None, 'http://justsomething.co/wp-content/uploads/2018/10/20-funny-cat-comics-that-only-cat-owners-will-understand-02.jpg', '', '497', '406'], [None, 'http://justsomething.co/wp-content/uploads/2018/10/20-funny-cat-comics-that-only-cat-owners-will-understand-01.jpg', '', '497', '406'], [None, 'http://justsomething.co/wp-content/uploads/2018/10/20-funny-cat-comics-that-only-cat-owners-will-understand-21.jpg', '', '497', '406'], [None, 'http://justsomething.co/wp-content/uploads/2018/10/20-funny-cat-comics-that-only-cat-owners-will-understand-20.jpg', '', '501', '410'], [None, 'http://justsomething.co/wp-content/uploads/2018/10/20-funny-cat-comics-that-only-cat-owners-will-understand-29.jpg', '', '497', '406'], [None, 'http://justsomething.co/wp-content/uploads/2018/10/20-funny-cat-comics-that-only-cat-owners-will-understand-04.jpg', '', '690', '565'], [None, 'http://justsomething.co/wp-content/uploads/2018/10/20-funny-cat-comics-that-only-cat-owners-will-understand-05.jpg', '', '690', '565'], [None, 'http://justsomething.co/wp-content/uploads/2018/10/20-funny-cat-comics-that-only-cat-owners-will-understand-07.jpg', '', '690', '565'], [None, 'http://justsomething.co/wp-content/uploads/2018/10/20-funny-cat-comics-that-only-cat-owners-will-understand-08.jpg', '', '690', '565'], [None, 'http://justsomething.co/wp-content/uploads/2019/05/meet-ah-fei-the-cat-who-deserves-an-oscar-for-his-hilariously-dramatic-reactions-364x205.jpg', '', '364', '205'], [None, 'http://justsomething.co/wp-content/uploads/2019/02/crocheted-cat-butt-coasters-are-a-thing-now-and-feline-lovers-cant-get-enough-of-them-364x205.jpg', '', '364', '205'], [None, 'http://justsomething.co/wp-content/uploads/2019/01/cat-finally-figures-out-owner-doesnt-appreciate-her-live-gifts-finally-starts-bringing-giant-leaves-instead-364x205.jpg', '', '364', '205'], [None, 'http://justsomething.co/wp-content/uploads/2019/01/15-hilarious-photos-that-perfectly-depict-what-its-like-to-be-a-cat-owner-ft-364x205.jpg', '', '364', '205'], [None, 'http://justsomething.co/wp-content/uploads/2018/12/20-cats-who-made-2017-a-little-more-pawsome-364x205.jpg', '', '364', '205'], [None, 'http://justsomething.co/wp-content/uploads/2018/12/artist-draws-a-hilarious-guide-to-dog-breeds-to-help-you-choose-your-next-dog-364x205.jpg', '', '364', '205'], [None, 'http://justsomething.co/wp-content/uploads/2019/06/man-dedicates-his-life-to-adopting-senior-dogs-who-cant-find-a-forever-home-364x205.jpg', '', '364', '205'], [None, 'http://justsomething.co/wp-content/uploads/2019/06/woman-drags-dog-scooter-laughs-364x205.jpg', '', '364', '205'], [None, 'http://justsomething.co/wp-content/uploads/2019/06/this-german-circus-is-using-holograms-instead-of-live-animals-to-stop-animal-abuse-364x205.jpg', '', '364', '205'], [None, 'http://justsomething.co/wp-content/uploads/2019/06/dog-brings-little-brother-favorite-toy-364x205.jpg', '', '364', '205'], [None, 'http://justsomething.co/wp-content/uploads/2019/06/bridesmaids-carried-shelter-dogs-instead-of-bouquets-to-help-them-find-a-forever-home-364x205.jpg', '', '364', '205'], [None, 'http://justsomething.co/wp-content/uploads/2019/06/man-asks-for-a-refund-on-unopened-food-after-his-dog-passed-away-they-send-him-an-oil-painting-of-his-dog-as-a-tribute-364x205.jpg', '', '364', '205']]",
"class": "funny_cats"
}