{
"url": "https://www.petfinder.com/cats/cat-care/how-choose-cat-scratching-post/",
"title": "How Should I Choose a Scratching Post? | Petfinder",
"meta": "{'description': 'Shopping for a scratching post means confronting dozens of sizes, shapes and materials. Read these tips for choosing this vital accessory for your cat.', 'og:type': 'article', 'og:title': 'How Should I Choose a Scratching Post? | Petfinder', 'og:site_name': 'Petfinder'}",
"article_content": "How Should I Choose a Scratching Post? | Petfinder\nlogo-consumericon-accountsicon-search\nTo stay signed in, click continue\nYou will be logged out of your account in 2 minutes\nSign Out\nLog in to Petfinder\nPassword\nLog in\nForgot Password?\nDon't have an account?\nRegister now\nPetfinder Makes Adopting Easier\nCreate and save your adopter profile.\nSave and manage your pet searches and email communications.\nLearn helpful pet care tips and receive expert advice.\nGet involved and help promote adoptable pets in your area.\nClose this dialog\nFirst Name\nLast Name\nChoose country\nPetfinder Is Available Only In Specific Regions\nPetfinder currently includes pets and adoption organizations from the regions listed above. Please check back in the future for any potential expansion.\nPostal Code\nYou will use your email address to log in\nYou will use your email address to log in\nTo keep your account secure, your new password must be at least 8 characters long and contain a minimum of 3 of the following: 1 number, 1 lowercase letter, 1 uppercase letter or 1 special character.\nPassword Requirements\nMust be at least 8 characters\nMust contain at least 3 out of 4 of these:\nCapital letters\nLowercase letters\nSpecial characters\nNumbers\nValid!\nConfirm Password\nClose this dialog\nPetfinder Logo\nSkip to content\nFind a Pet\nResources\nResources\nSearch Articles:\nSubmit Search\nClose Search\nSign In / Register\nDog Breeds\nCat Breeds\nAbout Pet Adoption\nDog Adoption\nCat Adoption\nOther Pet Adoption\nHappy Tails Pet Adoption Stories\nPet Adoption Information\nExotic Pets\nDog Care\nDog Adoption\nDog Breeds\nBringing A Dog Home\nDog Nutrition\nDog Training\nDog Problems\nDog Grooming\nPet Care Videos\nCat Care\nCat Adoption\nCat Breeds\nBringing A Cat Home\nCat Nutrition\nCat Behavior & Training\nCat Problems\nCat Grooming\nPet Care Videos\nAll Pet Care\nPet Care Videos\nCats\nHorses\nSmall And Furry Pets\nShelters & Rescues\nFind an Animal Shelter or Rescue Group\nStarting A Pet-Adoption Organization\nVolunteering With Dogs\nVolunteering With Cats\nVolunteering With Shelters & Rescues\nFostering Dogs\nFostering Cats\nHelping Pets\nGet Involved\nRead Our Blog\nPut Petfinder on Your Site\nPetfinder Foundation\nClose Resources Navigation Menu\nClose Resources Navigation Menu\nDog Breeds\nCat Breeds\nAbout Pet Adoption\nOverview Dog Adoption\nCat Adoption\nOther Pet Adoption\nHappy Tails Pet Adoption Stories\nPet Adoption Information\nExotic Pets\nClose Main Navigation Menu.\nGo back to the top level navigation.\nDog Care\nOverview Dog Adoption\nDog Breeds\nBringing A Dog Home\nDog Nutrition\nDog Training\nDog Problems\nDog Grooming\nPet Care Videos\nClose Main Navigation Menu.\nGo back to the top level navigation.\nCat Care\nOverview Cat Adoption\nCat Breeds\nBringing A Cat Home\nCat Nutrition\nCat Behavior & Training\nCat Problems\nCat Grooming\nPet Care Videos\nClose Main Navigation Menu.\nGo back to the top level navigation.\nAll Pet Care\nOverview Pet Care Videos\nCats\nHorses\nSmall And Furry Pets\nClose Main Navigation Menu.\nGo back to the top level navigation.\nShelters & Rescues\nOverview Find an Animal Shelter or Rescue Group\nStarting A Pet-Adoption Organization\nVolunteering With Dogs\nVolunteering With Cats\nVolunteering With Shelters & Rescues\nFostering Dogs\nFostering Cats\nClose Main Navigation Menu.\nGo back to the top level navigation.\nHelping Pets\nOverview Get Involved\nRead Our Blog\nPut Petfinder on Your Site\nPetfinder Foundation\nClose Main Navigation Menu.\nGo back to the top level navigation.\nSearch\nSign In/Register\nClose Main Navigation Menu\nFind a dog\nFind a cat\nFind Other Pets\nSaved searches\nMain Content\nHomeCatsCaring for Cats\nHow Should I Choose a Scratching Post?\nBy Dr. Stephanie Janeczko, D.V.M., Medical Director for Animal Care & Control of New York City\nYou should provide your cat with several different scratching options to see which he likes best. Good surfaces to start with include cardboard, sisal rope, wood, and upholstery or carpet, and you should present them in a variety of formats. As mentioned earlier, most cats prefer vertical posts but others prefer horizontal posts and still others favor slanted posts.\nProvide as many scratching posts around your home as you can. If you can only have one or two, the best places to strategically locate these would be in areas where your cat spends most of his time and wherever he is currently scratching inappropriately (if that\u2019s the case). Once you have determined what you cat\u2019s favorite scratching post is, provide more of these posts in various locations.\nShare this Article\nMore in Cat Enrichment\n6 Ways to Beat Cat Boredom\nLearn how to keep your cat from getting bored with these six fun activities.\nHow Should I Choose a Scratching Post?\nFat Cats and Treat Balls\nBirds for Cats? How to Set Up a Bird Feeder for Indoor Cats\nEntertainment for Cats: 5 Ways to Keep Kitty Happy\nRead More\nRecently Viewed Pets\nFinding pets for you\u2026\nMORE ADOPTION RESOURCES\nDog Breeds\nCat Breeds\nHome Forever Home New Pet Guide\nRead Adoption Stories\nExplore More\nEvents near you\nPetfinder Logo\nAbout Petfinder\nAbout Petfinder\nPartnerships\nTerms of Service\nMobile Site & Apps\nPetfinder Foundation\nFree Widgets & Graphics\nFor Developers\nContact Us\nPet Adoption\nDog Adoption\nCat Adoption\nOther Pet Adoption\nSearch Adoption Organizations\nPet-Adoption Stories\nLocal Adoption Events\nShelters & Rescues\nPet Care Topics\nDog Care\nDog Breeds\nCat Care\nCat Breeds\nAll Pet Care\nPet Care Videos\nHelping Pets\nPrivacy Policy\nAbout Our Ads\nShelter & Rescue Login\nShelter & Rescue Registration\nTo get the latest on pet adoption and pet care, sign up for the Petfinder newsletter.\nSign Up\nTwitter\nYouTube\n\u00a92019 Petfinder.com\nAll trademarks are owned by Soci\u00e9t\u00e9 des Produits Nestl\u00e9 S.A., or used with permission.\nicon-404icon-alertBell_checkedicon-alertBellicon-binocularsdevicesicon-resourcesicon-sheltericon-sheltericon-sheltericon-paw_colorPrimaryicon-paw_colorWhiteicon-pawicon-404icon-404icon-accounticon-account_colorPrimaryicon-addAnimalicon-addUsericon-alerticon-arrowDownSmallicon-arrowRightSmallicon-articleicon-calendaricon-check_colorDarkicon-check_colorPrimaryicon-check_colorWhiteicon-checkicon-chevronDown_colorDarkicon-chevronDown_colorPrimaryicon-chevronDown_colorDarkicon-chevronDownicon-chevronLeft_colorDarkicon-chevronLeft_colorPrimaryicon-chevronLeft_colorWhiteicon-chevronLefticon-chevronRight_colorDarkicon-chevron_colorPrimaryicon-chevron_colorWhiteicon-chevronRighticon-chevronUp_colorDarkicon-chevronUp_colorPrimaryicon-chevronUp_colorWhiteicon-chevronUpicon-circleAlerticon-circleBorderPlayicon-circleBorderPlus_colorPrimaryS2icon-circleBorderPlusicon-circleBorderQuestionicon-circleCheck_colorPrimaryS1icon-circleCheckicon-circleDeletedicon-cicleDownArrowicon-circleEditicon-circleMinus_colorPrimaryS1icon-circleMinusicon-ciclePlusicon-cicleQuestionicon-circleTransferredicon-circleUndeletedicon-close_colorDarkicon-close_colorPrimaryicon-close_colorWhiteicon-close_colorWhiteicon-closeicon-dashboardicon-editicon-emailicon-eventsicon-expandicon-facebookicon-favoriteicon-filtericon-gearicon-hoursicon-instagramicon-linkicon-location_colorPrimaryicon-locationicon-lockmenumenuicon-pauseicon-pawicon-phoneicon-photoicon-pinteresticon-playicon-printicon-privateicon-reportingicon-rssicon-saveicon-searchicon-searchicon-shareicon-shareicon-shareicon-share_colorWhiteStrokeDarkicon-share_outlineicon-shareicon-sizeExtraLargeicon-sizeLargeicon-sizeMediumicon-sizeSmallicon-trashicon-twittericon-videoicon-viewicon-youtube",
"comments_found": "False",
"comments": null,
"img": "[[None, 'https://d17fnq9dkz9hgj.cloudfront.net/uploads/2012/11/92572752-how-choose-cat-scratching-post-632x475.jpg', 'How Should I Choose a Scratching Post?'], [None, 'https://d17fnq9dkz9hgj.cloudfront.net/uploads/2012/11/147243300-beating-boredom-cat-632x475.jpg', 'Keeping Your Cat from Getting Bored'], [None, 'https://d17fnq9dkz9hgj.cloudfront.net/uploads/2012/11/91716266-merial-puppy-fleas-ticks-251x1891.jpg', 'labrador puppy lying down']]",
"class": "cats"
}