{
"url": "https://thecatsite.com/ams/18-hilarious-cat-photobombs-and-one-dog-taking-revenge.33405/",
"title": "18 Hilarious Cat Photobombs (and One Dog Taking Revenge!) | TheCatSite",
"meta": "{'description': 'Try to take a picture of a cat and he or she is sure to turn their head the other way. However, try to take a picture of something else, and Kitty will rush over and stick his face right in front...', 'og:type': 'article', 'og:title': '18 Hilarious Cat Photobombs (and One Dog Taking Revenge!)', 'og:site_name': 'TheCatSite'}",
"article_content": "Hmmm what is a photobomb anyway?A photobomb is a picture ruined by someone or something that got in front of the camera right when the picture was being taken. Curious cats are therefore the ultimate photobombers. There's nothing a cat likes more than checking out a camera right before the shutter clicks!\nTry to take a picture of a cat and he or she is sure to turn their head the other way. However, try to take a picture of something else, and Kitty will rush over and stick his face right in front of your camera!\nThese cats photobombed photos of other cats1.\"Hold on, just let me check the settings here\"\n2. \"I don't care if you're trying to photograph that funny white cat. I decided to come and sit here right now.\"\n3. \"No! Mom is trying to take MY picture! Get your white chin out of my picture right now!\"\n4. \"Why are you posing like this? Is this thing taking your picture right now? Let me take a close look and find out.\"\n5. \"What's this clicking sound? What are you doing over there on the bed with Mom's phone?\"\n6. \"Just passing through.... Ooops!\"\n7. \"At last! I can get my picture taken without my brother showing in it somewhere\".\n8. \"What's this? Stop taking pictures of this ugly tabby and get back to packing! Right now!\"\n9. \"Please tell me he's not making that silly face behind me? Not again...\"\n10. \"Yes, I hear ya. You need a good picture for the TCS contest where we both look serious and beautiful.\"\n11. \"Hold your pose! I know I can make it to the camera and back before the timer goes off!\"\n12. \"What's that? You want to get a closeup shot there?\"\n13. \"Will you get your tail out of there?!?!\"\n14. \"A good shot of a black cat on a black and white suitcase? You mean you're finally sending him away?\"\nCats are great at photobombing pictures of the dog too! 15. \"You're sending this to the dog photo contest? You really should have a cat in there, you know\".\n16. \"What's going on over there with that pooch?\"\n17. \"A picture perfect shot? Don't you know that is MY pet bed?\"\n18. \"Where are you going to? Mom said she wants a picture of all three of us. Didn't you hear her say \"Sit!\"?\"\nAnd finally, a dog taking revenge!19. \"Let me check the settings here!\"\nHas your cat ever photobombed one of your pictures? We want to see it in the Fur Pictures forum!",
"comments_found": "False",
"comments": "Comments\nTo make a comment simply sign up and become a member!\nSort Comments\nSort Comments By\nDate: Newest to Oldest\nDate: Oldest to Newest\nPurraise\nHilarious! My laugh for the day!\nDreamerRose, May 11, 2017\nYes, now that you mention this, it is Soooo true! Never a pose when you need it. I love the little faces in the backgrounds! They are really hysterical if you look at them!\nraysmyheart, May 9, 2017\ndustydiamond1, akaLuann and Anne purraised this.\nLOL.............these photos made my day!\ntabbytom, Jun 23, 2016\nakaLuann purraised this.\nGreat Shots\nSeventhHeaven, Jun 19, 2016\nakaLuann purraised this.\nThose are hysterical. \u00a0Love the ones with the tails in the photos.\nrickr, Jun 19, 2016\nakaLuann purraised this.\nI love these!\u00a0 All of them are good for a chuckle but #4 really made me laugh.\nmargd, Jun 19, 2016\nakaLuann purraised this.\nHeheheh, great fun. \u00a0All fabulous but I especially love 3 for the composition, and that last one with the dog's revenge.\nmservant, Jun 18, 2016\nakaLuann purraised this.\n@jtbo, glad that\u00a0worked -- you had me scared there for a moment, as I see NO cars of any kind in No. 9!\ntarasgirl06, Jun 17, 2016\nakaLuann purraised this.\nOh, refresh fixed it, I just saw those avatar kind of small images as a large images before refresh.\njtbo, Jun 17, 2016\nakaLuann purraised this.\nSome pics show up weird way, number 9. for example has lot of race cars in it, maybe my puter is making weird things happen again?\njtbo, Jun 17, 2016\nakaLuann purraised this.\nLove all of the cat ones! *But there ARE no \"ugly\" tabbies*\ntarasgirl06, Jun 17, 2016\nOh, those are great! \u00a0:-)\nbetsygee, Jun 17, 2016",
"img": "[]",
"class": "funny_cats"
}