{
"url": "https://www.bbc.com/news/world-us-canada-48432705",
"title": "Cartoon scavenger hunts brighten Portland - BBC News",
"meta": "{'description': 'Wooden cutouts of famous cartoon characters and memes are popping up all over the city in Oregon.', 'og:type': 'article', 'og:title': 'Cartoon scavenger hunts brighten Portland', 'og:site_name': 'BBC News'}",
"article_content": "Cartoon scavenger hunts brighten Portland - BBC News\nHomepageAccessibility linksSkip to contentAccessibility HelpBBC AccountNotificationsHomeNewsSportWeatheriPlayerSoundsCBBCCBeebiesFoodBitesizeArtsTasterLocalTVRadioThreeMenuSearchSearch the BBCSearch the BBC\nBBC News Navigation\nHome\nWorld\nUK\nTech\nStories\nEntertainment & Arts\nWorld News TV\nIn Pictures\nReality Check\nSpecial Reports\nThe Reporters\nHave Your Say\nUS & Canada selected\nUS & Canada\nUS & Canada\nCartoon scavenger hunts brighten Portland\nBy Dhruti Shah\nBBC News\n30 May 2019\nShare this with Facebook\nShare this with Messenger\nShare this with Twitter\nShare this with Email\nShare this with Facebook\nShare this with WhatsApp\nShare this with Messenger\nShare this with Twitter\nShare this with\nThese are external links and will open in a new window\nShare this with Email\nShare this with Facebook\nShare this with Messenger\nShare this with Messenger\nShare this with Twitter\nShare this with Pinterest\nShare this with WhatsApp\nShare this with LinkedIn\nCopy this link\nhttps://www.bbc.com/news/world-us-canada-48432705\nRead more about sharing.\nThese are external links and will open in a new window\nClose share panel\nImage copyright\n@mikebennettart\nImage caption\nThe cutouts are based on characters such as Spongebob Squarepants (Viacom International Inc and Stephen Hillenburg), Pikachu (Pokemon) and Bugs Bunny (Warner Bros)\nGiant cartoon cutouts are popping up in parts of Portland, Oregon, in the US, thanks to one man's love of scavenger hunts and his dream to \"just put a smile on people's faces\".By day, Mike Bennett spends his time in an estate agent's office, working on spreadsheets, administration and paperwork. By night, he is in his home workshop, using recycled wood and paint picked up free from Craigslist to give physical form to online memes and childhood cartoon favourites, such as Spongebob Squarepants, Pokemon's Pikachu, Futurama's Fry, and Homer Simpson.At first, they were displayed in his garden - but three times over the past fortnight, he has unleashed his creations across Portland, leaving clues to their whereabouts on the city's Reddit forum and earning himself the title of Regional Memesmith, from its moderators, in the process.\nImage copyright\n@mikebennettart\nImage caption\nMike finds inspiration in pop culture such as the Why not Zoidberg? meme (Futurama and 20th Century Fox)\nThe next of these scavenger hunts will be on Friday.\n\"I've been experimenting with these images for a while,\" Mike, who goes by the name Lemmy_Koopa on Reddit, told BBC News. \"I just want to give people an excuse to smile. \"I've always loved scavenger hunts but I've been blown away by the reaction.\"\nImage copyright\n@mikebennettart\nImage caption\nThis cutout of Hobbes was used to ask Reddit for ideas for Mike's next project (Calvin and Hobbes copyright - Andrews McMeel Publishing and Bill Watterson)\nOne fan even left an anonymous donation of plywood outside Mike's house.Mike made his first big cutout three months ago, when snow was expected in Portland. \"I'm a huge fan of the comic Calvin and Hobbes,\" he said. \"When it snows, Calvin makes snowmen that his parents can't stand as they are just grotesque and violent.\nImage copyright\n@mikebennettart\nImage caption\nMike drops his characters in unusual locations, such as this tea-sipping Kermit the Frog (The Muppets Studio, LLC) in Portland Rose Garden\n\"I created some out of spare wood we had and put them in the front yard. This is how the idea started.\"Fellow Reddit user cuterus-uterus sums up of a lot of the response to Mike's project throughout a town known for attracting people across the US to live and work: \"You seem like a fun person and your wooden monstrosities are amazing. \"Seeing those suckers around town would be a lovely reminder to all the transplants why they chose this odd little city to call home.\"\nSwapping Pokemon cards for Instagram art\n'The comics that show my life with ADHD\u2019\nHow a bookshop wolf handles awkward customers\nImage copyright\nMike Bennett\nImage caption\nMike Bennett loves illustrating comics and cartoons\nAs well as his \"art drops\", Mike also creates films for Instagram and the short-video app TikTok.In these, he shows how he makes the large sculptures that have propelled him to minor fame, as well as his attempts to cheer up the community by going into local shops and adding cartoon faces and little drawings to everyday items such as bananas and books.At one company, they give him pizza, make a donation to charity and ask 30 staff members to take part in some sort of community service in lieu of payment for Mike's work.\nSkip Instagram post\nby mikebennettart\nView this post on Instagram\nIs this the Biggest Chungus? I must know. A post shared by\nMike Bennett! (@mikebennettart) on May 11, 2019 at 3:50pm PDT\nEnd of Instagram post\nby mikebennettart\nImage Copyright mikebennettart\nReport\n\"I don't make a penny out of this,\" he said.\"I just like making things out of wood and then sharing the creations on social [media]. \"It's great that people are taking the ones they find home. \"So far, we've only had one instance where a, [video game] Mario, character seemed to have been picked up by someone not from Reddit.\"There are some creations Mike is loath to give away, however, and so they will be staying local.\nImage copyright\nMike Bennett\nImage caption\nIf you're in Portland, you may spot Homer Simpson (20th Century Fox) peeping out from a bush\nHe has paid homage to a gif of Homer Simpson moving backwards into a bush, for example, by installing his own version in his garden hedge. \"Homer's a fan favourite,\" he said. \"People who spot him in our neighbourhood like to take pictures of him.\"I also don't want to burn myself out. \"I want to move beyond the memes and make what people appreciate. \"When I asked Reddit what I should make with the plywood that had been left outside my house, the votes came out in favour of Dr Seuss's Lorax, so I'm working on that right now.\" All images courtesy of Mike Bennett\nRelated TopicsOregonViral postsComics\nShare this story\nAbout\u00a0sharing\nFacebook\nMessenger\nPinterest\nLinkedIn\nMore on this story\nWhat is TikTok?\n9 February 2019\nWhy you can trust BBC News\nBBC News Navigation\nUS & Canada\nVideo\nselected\nWorld Home\nAsia\nEurope\nLatin America\nMiddle East\nUS & Canada selected\nUK Home\nN. Ireland\nWales\nBusiness\nBusiness Home\nMarket Data\nGlobal Trade\nEntrepreneurship\nTechnology of Business\nConnected World\nGlobal Education\nTech\nStories\nEntertainment & Arts\nWorld News TV\nIn Pictures\nReality Check\nSpecial Reports\nThe Reporters\nHave Your Say\nBBC News Services\nOn your mobile\nOn your connected tv\nGet news alerts\nContact BBC News\nExplore the BBCHomeNewsSportWeatheriPlayerSoundsCBBCCBeebiesFoodBitesizeArtsTasterLocalTVRadioThree Terms of UseAbout the BBCPrivacy PolicyCookiesAccessibility HelpParental GuidanceContact the BBCGet Personalised NewslettersCopyright \u00a9 2019 BBC. The BBC is not responsible for the content of external sites. Read about our approach to external linking.",
"comments_found": "False",
"comments": null,
"img": "[[None, 'https://ichef.bbci.co.uk/news/320/cpsprodpb/4CEE/production/_107149691_mikebennetmontage.jpg', 'Various cut-outs by Mike Bennet, ranging from Spongebob Squarepants to Bugs Bunny'], [None, 'https://ichef.bbci.co.uk/news/320/cpsprodpb/17B75/production/_105914179_blank_white_space-nc.png', 'Presentational white space'], [None, 'https://ichef.bbci.co.uk/news/320/cpsprodpb/B2BB/production/_107155754_8ca1a90c-aa38-448d-8f12-7b9ebcef5a18.jpg', 'A plywood cut-out of Dr John A Zoidberg'], [None, 'https://ichef.bbci.co.uk/news/320/cpsprodpb/17B75/production/_105914179_blank_white_space-nc.png', 'Presentational white space'], [None, 'https://ichef.bbci.co.uk/news/320/cpsprodpb/D77D/production/_107156155_6adc0f13-7793-48da-bf16-8a3d6f7d704e.jpg', 'Plywood chunk with a wooden cutout of Hobbes, the sarcastic tiger from Calvin and Hobbes'], [None, 'https://ichef.bbci.co.uk/news/320/cpsprodpb/17B75/production/_105914179_blank_white_space-nc.png', 'Presentational white space'], [None, 'https://ichef.bbci.co.uk/news/320/cpsprodpb/8BAB/production/_107155753_b13201ab-9866-43d5-8bad-6b727bce284d.jpg', \"Kermit the Frog sips tea in Portland's Rose Garden\"], [None, 'https://ichef.bbci.co.uk/news/320/cpsprodpb/17B75/production/_105914179_blank_white_space-nc.png', 'Presentational white space'], [None, 'https://ichef.bbci.co.uk/news/320/cpsprodpb/3D8B/production/_107155751_mikeb1.jpg', 'Mike Bennett selfie'], [None, 'https://ichef.bbci.co.uk/news/320/cpsprodpb/17B75/production/_105914179_blank_white_space-nc.png', 'Presentational white space'], [None, 'https://ichef.bbci.co.uk/news/1024/socialembed/https://www.instagram.com/p/BxVu-gLFcAv/~/news/world-us-canada-48432705', 'Instagram post by mikebennettart: Is this the Biggest Chungus? I must know.'], [None, 'https://ichef.bbci.co.uk/news/320/cpsprodpb/17B75/production/_105914179_blank_white_space-nc.png', 'Presentational white space'], [None, 'https://ichef.bbci.co.uk/news/320/cpsprodpb/1878/production/_107146260_bush_homer.png', 'Home Simpson in a bush'], [None, 'https://ichef.bbci.co.uk/news/320/cpsprodpb/17B75/production/_105914179_blank_white_space-nc.png', 'Presentational white space'], [None, '//ssc.api.bbc.com/?c1=2&c2=19293874&ns_site=bbc&name=', '']]",
"class": "random"
}