{
"url": "https://www.bbc.com/news/world-africa-48483242",
"title": "Etienne Tshisekedi funeral takes place in DR Congo - BBC News",
"meta": "{'description': 'Etienne Tshisekedi is buried in DR Congo after a dispute with the former government was resolved.', 'og:type': 'article', 'og:title': \"Mass funeral for president's father - two years late\", 'og:site_name': 'BBC News'}",
"article_content": "Etienne Tshisekedi funeral takes place in DR Congo - BBC News\nHomepageAccessibility linksSkip to contentAccessibility HelpBBC AccountNotificationsHomeNewsSportWeatheriPlayerSoundsCBBCCBeebiesFoodBitesizeArtsTasterLocalTVRadioThreeMenuSearchSearch the BBCSearch the BBC\nBBC News Navigation\nHome\nWorld\nUK\nTech\nStories\nEntertainment & Arts\nWorld News TV\nIn Pictures\nReality Check\nSpecial Reports\nThe Reporters\nHave Your Say\nWorld selected\nselected\nAustralia\nLatin America\nMiddle East\nUS & Canada\nAfrica\nEtienne Tshisekedi funeral takes place in DR Congo\n1 June 2019\nShare this with Facebook\nShare this with Messenger\nShare this with Twitter\nShare this with Email\nShare this with Facebook\nShare this with WhatsApp\nShare this with Messenger\nShare this with Twitter\nShare this with\nThese are external links and will open in a new window\nShare this with Email\nShare this with Facebook\nShare this with Messenger\nShare this with Messenger\nShare this with Twitter\nShare this with Pinterest\nShare this with WhatsApp\nShare this with LinkedIn\nCopy this link\nhttps://www.bbc.com/news/world-africa-48483242\nRead more about sharing.\nThese are external links and will open in a new window\nClose share panel\nImage copyright\nTwo years after his death in Belgium, a state funeral has been held for veteran opposition leader Etienne Tshisekedi in the Democratic Republic of Congo.His body was only flown home on Thursday following a row between his family and the former government.The deadlock ended when his son, F\u00e9lix, became president last year.Tens of thousands of people attended the funeral mass in a stadium in the capital, led by Archbishop of Kinshasa Fridolin Ambongo.The country's influential Catholic church had urged its members to turn out at the 80,000-capacity Martyrs' Stadium.\nOn Friday, the presidents of Rwanda and Angola, were among huge crowds to pay their respects in the same stadium in the capital, Kinshasa.Analysts say the presence of Rwandan President Paul Kagame was significant, following years of conflict and enmity between his country and DR Congo.\nImage copyright\nImage caption\nCould the presence of Rwanda's President Paul Kagame signal a new start in relations with DR Congo?\nImage copyright\nImage caption\nFor his supporters, the funeral in Kinshasa represents a victory over the former government\nThe casket containing Etienne Tshisekedi's body remained in the stadium overnight. After the funeral ceremony, Etienne Tshisekedi is to be buried at his private N'sele residence, some 40km (25 miles) east of central Kinshasa. He died aged 84 in Brussels and his body was kept in a funeral parlour until it could be returned home.\nThe man who stepped out of his father's shadow\nFive things to know about the nation that powers mobile phones\nImage copyright\nImage caption\nSupporters of the veteran opposition leader turned out in their thousands\nImage copyright\nImage caption\nOnly those with official invitations were allowed into the stadium\nImage copyright\nImage caption\nFlowers were on sale outside\nImage copyright\nImage caption\nThe former opposition leader is being given a state funeral\nOn Friday afternoon, the Martyrs' Stadium in Kinshasa erupted in cheers as the casket containing Tshisekedi's remains entered, reports the BBC's Gaius Kowene.His supporters screamed and blew whistles in the 80,000-capacity arena.\nImage copyright\nImage caption\nEtienne Tshisekedi had a troubled relationship with former leader Mobutu Sese Seko\nThe campaign to bury Tshisekedi's remains in his home country faced obstacles from President F\u00e9lix Tshisekedi's predecessor, Joseph Kabila.For his supporters, Tshisekedi coming home represents a victory over the former government, our correspondent says.A life of oppositionTshisekedi spent decades in politics but failed in several attempts to become president.He served as interior minister under the country's authoritarian leader Mobutu Sese Seko, before joining the political opposition.After serving time in prison, he founded the Union for Democracy and Social Progress (UDPS) in 1982 and was appointed prime minister by Mobutu, though the two frequently clashed.In 1997, Mobutu was ousted as leader in a rebellion led by Joseph Kabila's father, Laurent. Tshisekedi became an opponent of the new regime, and of Joseph Kabila after Laurent Kabila was assassinated in 2001.\nImage copyright\nImage caption\nTshisekedi's son F\u00e9lix won a bitterly contested election last year\nHe boycotted DR Congo's elections in 2006, alleging vote fraud, and was beaten in a 2011 race marked by allegations of widespread voting irregularities.F\u00e9lix Tshisekedi won a bitterly contested election last year. It marked the first peaceful transition of power since DR Congo gained independence from Belgium in 1960. However, several observer groups believe that another opposition candidate, Martin Fayulu, was the rightful winner.Since coming to power, President Tshisekedi has agreed to work with the party of former President Joseph Kabila.All pictures subject to copyright\nRelated TopicsDemocratic Republic of CongoFelix Tshisekedi\nShare this story\nAbout\u00a0sharing\nFacebook\nMessenger\nPinterest\nLinkedIn\nMore on this story\nFelix Tshisekedi steps out of his father's shadow to lead DR Congo\n24 January 2019\nFive things to know about the nation that powers mobile phones\n29 December 2018\nWhy you can trust BBC News\nBBC News Navigation\nSections\nselected\nAustralia\nLatin America\nMiddle East\nUS & Canada\nVideo\nselected\nWorld Home\nAfrica selected\nAustralia\nLatin America\nMiddle East\nUS & Canada\nUK Home\nN. Ireland\nWales\nBusiness\nBusiness Home\nMarket Data\nGlobal Trade\nEntrepreneurship\nTechnology of Business\nConnected World\nGlobal Education\nTech\nStories\nEntertainment & Arts\nWorld News TV\nIn Pictures\nReality Check\nSpecial Reports\nThe Reporters\nHave Your Say\nBBC News Services\nOn your mobile\nOn your connected tv\nGet news alerts\nContact BBC News\nExplore the BBCHomeNewsSportWeatheriPlayerSoundsCBBCCBeebiesFoodBitesizeArtsTasterLocalTVRadioThree Terms of UseAbout the BBCPrivacy PolicyCookiesAccessibility HelpParental GuidanceContact the BBCGet Personalised NewslettersCopyright \u00a9 2019 BBC. The BBC is not responsible for the content of external sites. Read about our approach to external linking.",
"comments_found": "False",
"comments": null,
"img": "[[None, 'https://ichef.bbci.co.uk/news/320/cpsprodpb/CD8B/production/_107191625_coffin.jpg', 'Pallbearers carry the casket with the remains of Etienne Tshisekedi, former Congolese opposition figurehead who died in Belgium two years ago, at a mourning ceremony at the Martyrs of Pentecost Stadium in Kinshasa, Democratic Republic of Congo May 31, 2019.'], [None, 'https://ichef.bbci.co.uk/news/320/cpsprodpb/160CF/production/_107191309_kagamertr.jpg', \"Rwanda's President Paul Kagame pays his respects\"], [None, 'https://ichef.bbci.co.uk/news/320/cpsprodpb/139BF/production/_107191308_fingersrtr.jpg', 'The casket with the remains of Etienne Tshisekedi, former Congolese opposition figurehead who died in Belgium two years ago, is seen on a podium during a mourning ceremony at the Martyrs of Pentecost Stadium in Kinshasa, Democratic Republic of Congo May 31, 2019.'], [None, 'https://ichef.bbci.co.uk/news/320/cpsprodpb/CCA4/production/_107188325_hi054340055.jpg', 'Supporters of former DR Congo Prime Minister and opposition leader Etienne Tshisekedi sing and dance ahead of his mourning ceremony.'], [None, 'https://ichef.bbci.co.uk/news/320/cpsprodpb/93CE/production/_107183873_mediaitem107183872.jpg', 'Tshisekedi supporters'], [None, 'https://ichef.bbci.co.uk/news/320/cpsprodpb/2C37/production/_107191311_flowersafp.jpg', 'Flower arrangements are displayed for sale during the mourning ceremony of late former DR Congo Prime Minister and opposition leader Etienne Tshisekedi in Kinshasa, on May 31, 2019.'], [None, 'https://ichef.bbci.co.uk/news/320/cpsprodpb/5347/production/_107191312_soldiersafp.jpg', 'Government forces escort a hearse carrying the coffin of former DR Congo Prime Minister and opposition leader Etienne Tshiseked'], [None, 'https://ichef.bbci.co.uk/news/320/cpsprodpb/142BB/production/_107191628_d19fe596-240f-4274-8dd1-cdf2649668a0.jpg', 'A banner dedicated to Etienne Tshisekedi, former Congolese opposition figurehead who died in Belgium two years ago, is seen hanging above supporters during a mourning ceremony at the Martyrs of Pentecost Stadium in Kinshasa, Democratic Republic of Congo May 31, 2019'], [None, 'https://ichef.bbci.co.uk/news/320/cpsprodpb/542B/production/_107174512_hi053236187.jpg', \"Democratic Republic of Congo's Felix Tshisekedi swears into office during an inauguration ceremony as the new president\"], [None, '//ssc.api.bbc.com/?c1=2&c2=19293874&ns_site=bbc&name=', '']]",
"class": "random"
}