{
"url": "https://edition.cnn.com/2019/05/31/entertainment/rihanna-name-pronunciation/index.html",
"title": "We've been saying Rihanna's name wrong - CNN",
"meta": "{'keywords': \"entertainment, We've been saying Rihanna's name wrong - CNN\", 'description': \"Ooh na na, what's her name? Raise your hand if you were today years old when you discovered you may have been mispronouncing Rihanna's name all this time.\", 'og:type': 'article', 'og:title': \"We've been saying Rihanna's name wrong\", 'og:site_name': 'CNN'}",
"article_content": "We've been saying Rihanna's name wrongBy Lisa Respers France, CNNUpdated 1628 GMT (0028 HKT) May 31, 2019 Chat with us in Facebook Messenger. Find out what's happening in the world as it unfolds.JUST WATCHEDRihanna: The pop star turned humanitarian ReplayMore Videos ...MUST WATCH (16 Videos)Rihanna: The pop star turned humanitarian Chris Pratt and Katherine Schwarzenegger tie the knotPhoto of theme park worker's kind gesture goes viralBaby found in plastic bag in the woodsActress tears up watching scene from 'When They See Us'Viral food video is chock full of inaccuraciesJames Van Der Beek interviewer has no idea who he isBreak-in gets hairy when cops see animal is to blameDolly Parton reveals her unusual beauty habitTourist cracks code to decades-old museum safe Babbling baby has conversation with dad in heartwarming videoNew York City seizes 46 ice cream trucks in crackdownSophie Turner blames co-star for coffee cup mishapThis airless tire could eliminate flatsWhat kept Trump awake in London? Bette MidlerHowie Mandel steps on golden buzzer for 'electric' singer (CNN)Ooh na na, what's her name?Raise your hand if you were today years old when you discovered you may have been mispronouncing Rihanna's name all this time.The singer, who was born Robyn Rihanna Fenty, has been on the scene for years and most of us have been calling her \"ree-AH-nuh.\"But the singer, when identifying herself, pronounces it \"ree-ANN-uh.\"Wait, we want you to \"Stay\" while we explain how this grand discovery came about.Read MoreFirst look at @Rihanna's Fenty collection at her pop-up in Paris: https://t.co/KU0Uqg8Vlt pic.twitter.com/dseHhqadQu\u2014 British Vogue (@BritishVogue) May 23, 2019\nWhile recently promoting her Fenty brand, Rihanna said her name during a video she made for British Vogue.Color the internet stunned.so we've been pronouncing Rihanna's name wrong this whole time pic.twitter.com/lLZAQVRBzu\u2014 b (@boopyape) May 29, 2019\nRihanna tells us - we are pronouncing her name incorrectly. And tells us how to pronounce her name, \"Ree-Anna\" not \"Ree-Ah-Na,\" she says on Twitter pic.twitter.com/DVLX2ynvkc\u2014 Jim O'Donnell (@jimsteve) May 30, 2019\n\"So we've been pronouncing Rihanna's name wrong this whole time,\" one person tweeted.Some people think it's just a case of Americans not knowing the proper pronunciation. rihanna moved to britain bc we pronounce her name right https://t.co/ia7lk8fC4E\u2014 holly archibald (@hollyarchibald) May 31, 2019\nI can't believe how dumb Americans are... how do you not know how to pronounce Rihanna's name...She's been introducing herself for years im-\u2014 CHERYL\ud83c\udf39 (@destiny_ifoot) May 31, 2019\n\"Rihanna moved to britain bc we pronounce her name right,\" one tweet read. Rihanna moved to London and didn't tell usFor the record, Rihanna told HLN on the red carpet back in 2012 how her name should be said.Showbiz Tonight's AJ Hammer asked the singer to clear up the confusion.\"I knew this was the question,\" she told Hammer. \"It is 'ree-ANN-uh.'\"Thanks RiRi!",
"comments_found": "False",
"comments": null,
"img": "[[None, '//cdn.cnn.com/cnnnext/dam/assets/170124143134-rihanna-met-gala-exlarge-169.jpg', 'Rihanna: The pop star turned humanitarian ', None, None], [None, '//cdn.cnn.com/cnnnext/dam/assets/170124143134-rihanna-met-gala-exlarge-169.jpg', 'Rihanna: The pop star turned humanitarian ', None, None], [None, 'data:image/gif;base64,R0lGODlhEAAJAJEAAAAAAP///////wAAACH5BAEAAAIALAAAAAAQAAkAAAIKlI+py+0Po5yUFQA7', 'NEW YORK, NY - MAY 04:  Rihanna attends the &quot;China: Through The Looking Glass&quot; Costume Institute Benefit Gala at the  Metropolitan Museum of Art on May 4, 2015 in New York City.  (Photo by Mike Coppola/Getty Images)', None, None], [None, '//cdn.cnn.com/cnnnext/dam/assets/170124143134-rihanna-met-gala-large-169.jpg', 'NEW YORK, NY - MAY 04:  Rihanna attends the &quot;China: Through The Looking Glass&quot; Costume Institute Benefit Gala at the  Metropolitan Museum of Art on May 4, 2015 in New York City.  (Photo by Mike Coppola/Getty Images)', None, None], [None, 'data:image/gif;base64,R0lGODlhEAAJAJEAAAAAAP///////wAAACH5BAEAAAIALAAAAAAQAAkAAAIKlI+py+0Po5yUFQA7', 'Katherine Schwarzenegger and Chris Pratt attend the Los Angeles World Premiere of Marvel Studios&#39; &quot;Avengers: Endgame&quot; at the Los Angeles Convention Center on April 23, 2019 in Los Angeles, California. ', None, None], [None, '//cdn.cnn.com/cnnnext/dam/assets/190422222435-chris-pratt-katherine-schwarzenegger-large-169.jpg', 'Katherine Schwarzenegger and Chris Pratt attend the Los Angeles World Premiere of Marvel Studios&#39; &quot;Avengers: Endgame&quot; at the Los Angeles Convention Center on April 23, 2019 in Los Angeles, California. ', None, None], [None, 'data:image/gif;base64,R0lGODlhEAAJAJEAAAAAAP///////wAAACH5BAEAAAIALAAAAAAQAAkAAAIKlI+py+0Po5yUFQA7', '', None, None], [None, '//cdn.cnn.com/cnnnext/dam/assets/190608125851-01-boy-with-autism-theme-park-trnd-0608-large-169.jpg', '', None, None], [None, 'data:image/gif;base64,R0lGODlhEAAJAJEAAAAAAP///////wAAACH5BAEAAAIALAAAAAAQAAkAAAIKlI+py+0Po5yUFQA7', '', None, None], [None, '//cdn.cnn.com/cnnnext/dam/assets/190608024256-baby-found-abandoned-in-woods-large-169.jpg', '', None, None], [None, 'data:image/gif;base64,R0lGODlhEAAJAJEAAAAAAP///////wAAACH5BAEAAAIALAAAAAAQAAkAAAIKlI+py+0Po5yUFQA7', '', None, None], [None, '//cdn.cnn.com/cnnnext/dam/assets/190607160150-niecy-nash-6-7-19-large-169.jpg', '', None, None], [None, 'data:image/gif;base64,R0lGODlhEAAJAJEAAAAAAP///////wAAACH5BAEAAAIALAAAAAAQAAkAAAIKlI+py+0Po5yUFQA7', 'facebook viral video blossom food facebook snopes orig js_00011214', None, None], [None, '//cdn.cnn.com/cnnnext/dam/assets/190607152653-facebook-viral-video-blossom-food-facebook-snopes-orig-js-00011214-large-169.jpg', 'facebook viral video blossom food facebook snopes orig js_00011214', None, None], [None, 'data:image/gif;base64,R0lGODlhEAAJAJEAAAAAAP///////wAAACH5BAEAAAIALAAAAAAQAAkAAAIKlI+py+0Po5yUFQA7', '', None, None], [None, '//cdn.cnn.com/cnnnext/dam/assets/190607134633-tig-notaro-james-van-der-beek-interview-1-large-169.jpg', '', None, None], [None, 'data:image/gif;base64,R0lGODlhEAAJAJEAAAAAAP///////wAAACH5BAEAAAIALAAAAAAQAAkAAAIKlI+py+0Po5yUFQA7', '', None, None], [None, '//cdn.cnn.com/cnnnext/dam/assets/190607103205-deer-break-in-lufkin-police-department-large-169.jpg', '', None, None], [None, 'data:image/gif;base64,R0lGODlhEAAJAJEAAAAAAP///////wAAACH5BAEAAAIALAAAAAAQAAkAAAIKlI+py+0Po5yUFQA7', '', None, None], [None, '//cdn.cnn.com/cnnnext/dam/assets/190607084723-dolly-parton-makeup-sleep-in-large-169.jpg', '', None, None], [None, 'data:image/gif;base64,R0lGODlhEAAJAJEAAAAAAP///////wAAACH5BAEAAAIALAAAAAAQAAkAAAIKlI+py+0Po5yUFQA7', '', None, None], [None, '//cdn.cnn.com/cnnnext/dam/assets/190606154352-tourist-cracks-safe-large-169.jpg', '', None, None], [None, 'data:image/gif;base64,R0lGODlhEAAJAJEAAAAAAP///////wAAACH5BAEAAAIALAAAAAAQAAkAAAIKlI+py+0Po5yUFQA7', '', None, None], [None, '//cdn.cnn.com/cnnnext/dam/assets/190606124716-baby-talk-dad-facebook-large-169.jpg', '', None, None], [None, 'data:image/gif;base64,R0lGODlhEAAJAJEAAAAAAP///////wAAACH5BAEAAAIALAAAAAAQAAkAAAIKlI+py+0Po5yUFQA7', '', None, None], [None, '//cdn.cnn.com/cnnnext/dam/assets/190606090252-nyc-ice-cream-trucks-operation-meltdown-2-large-169.jpg', '', None, None], [None, 'data:image/gif;base64,R0lGODlhEAAJAJEAAAAAAP///////wAAACH5BAEAAAIALAAAAAAQAAkAAAIKlI+py+0Po5yUFQA7', 'sophie turner conan', None, None], [None, '//cdn.cnn.com/cnnnext/dam/assets/190606092106-sophie-turner-conan-large-169.png', 'sophie turner conan', None, None], [None, 'data:image/gif;base64,R0lGODlhEAAJAJEAAAAAAP///////wAAACH5BAEAAAIALAAAAAAQAAkAAAIKlI+py+0Po5yUFQA7', 'The Michelin Uptis Prototype is tested on a Chevrolet Bolt EV Wednesday, May 29, 2019 at the General Motors Milford Proving Ground in Milford, Michigan. GM intends to develop this airless wheel assembly with Michelin and aims to introduce it on passenger vehicles as early as 2024. (Photo by Steve Fecht for General Motors)', None, None], [None, '//cdn.cnn.com/cnnnext/dam/assets/190605112103-02-airless-wheel-large-169.jpeg', 'The Michelin Uptis Prototype is tested on a Chevrolet Bolt EV Wednesday, May 29, 2019 at the General Motors Milford Proving Ground in Milford, Michigan. GM intends to develop this airless wheel assembly with Michelin and aims to introduce it on passenger vehicles as early as 2024. (Photo by Steve Fecht for General Motors)', None, None], [None, 'data:image/gif;base64,R0lGODlhEAAJAJEAAAAAAP///////wAAACH5BAEAAAIALAAAAAAQAAkAAAIKlI+py+0Po5yUFQA7', 'Donald Trump and Bette Midler', None, None], [None, '//cdn.cnn.com/cnnnext/dam/assets/190605200445-trump-midler-split-large-169.jpg', 'Donald Trump and Bette Midler', None, None], [None, 'data:image/gif;base64,R0lGODlhEAAJAJEAAAAAAP///////wAAACH5BAEAAAIALAAAAAAQAAkAAAIKlI+py+0Po5yUFQA7', '', None, None], [None, '//cdn.cnn.com/cnnnext/dam/assets/190605113120-americas-got-talent-joseph-allen-howie-mandel-zoomed-in-large-169.jpg', '', None, None]]",
"class": "random"
}