{
"url": "https://www.liquidmatrix.org/blog/2018/07/10/if-an-infosec-policy-falls-in-the-forest/",
"title": "If An Infosec Policy Falls In The Forest | Liquidmatrix Security Digest",
"meta": "{'description': 'When you are building an Information Security practice you need a solid governance structure in place in the guise of your infosec policy.'}",
"article_content": "Briefings,Features |\nJuly 10, 2018\nWhen you are building an Information Security practice you need a solid governance structure in place. For those of you who might not be familiar we can look at it a more accessible way. If you are building a house you need a solid foundation otherwise the thing will collapse.\nMuch in the same vein, if you do not have a solid set of policies, you are destined to fail.\nAll is not lost as there are all sorts of resources that are available to help you online. The key point to remember is that with anything you find should never be used verbatim. If you cut and paste a policy you find online and swap the letterhead you should just hang up your tin star now. Do not pass go. Do not collect $200.\nWhy? Well, let\u2019s cut to the chase. No company is the same as the next. You would be doing yourself and your organization a disservice if you are to maintain this perspective. OK, so if you are maintaining the idea that because you work at Bank A and Bob has a job in governance at Bank B that you will not be able to take their policy and simply use it at your own. Realistically you will need to tailor any policy to your own environment.\nIf you don\u2019t have a proper governance structure in place it can cause you some angst. As an example, how can you remove an employee who is surfing porn on the Internet if you have no framework in place to deal with such an action? That is the simplest example that comes to mind.\nTo spin it differently, there was a shop that I worked for at which I was told that I could not use a certain piece of software. It was a fairly benign software application so, I couldn\u2019t help but to ask why. Now, bearing in mind I had no argument with being told no. I was just interested in knowing what the rationale was for that decision. The answer I received was, \u201cbecause $group said no.\u201d\nWhat?\nI asked the unforgivable question. I said, \u201cOK, can I see the documentation regarding that decision? I just want to better understand why.\u201d I was greeted with a Jedi hand wave. This isn\u2019t OK. If you don\u2019t have things documented then they do not exist. Pure and simple.\nSo, when you are tackling the policies for your organization be sure to go beyond the flaming sword of justice approach to governance. It is simply a dead method for dealing with the foundation for your security program. You want to facilitate the business in a safe and secure way to ensure that security is not the \u201croad block\u201d of old while saving the organization from itself.\nWhen you create your policy documents make sure that they receive reviews from senior leadership, legal and human resources departments. Failing to do so will limit the veracity and adoption of a policy.\nIf you do not communicate your policies within your organization, how can you expect people to abide by them? Communication is a mainstay of any governance program. Go forth and bring the positive word of security to the masses.\nIf an information security policy falls in the corporate forest\u2026does anyone read it?\nOriginally posted on CSO Online by me.\nRepost: Hacking the power grid through air conditioners\nBlackhat, BSidesLV and DEF CON Parties 2018",
"comments_found": "False",
"comments": "Comment",
"img": "[]",
"class": "random"
}