{
"url": "https://www.wikihow.com/Take-Care-of-a-Cat",
"title": "5 Ways to Take Care of a Cat - wikiHow",
"meta": "{'keywords': 'WikiHow, Take Care of a Cat, wiki, how to articles, how to instructions, DIY, tips, howto, learn, how do I', 'description': 'How to Take Care of a Cat. With their playful personalities, affectionate behavior, and adorable faces, cats can be the ideal pet. But, despite popular opinion, cats are not maintenance-free! To keep your cat healthy and happy, you need to...', 'og:type': 'article', 'og:title': 'How to Take Care of a Cat', 'og:site_name': 'wikiHow'}",
"article_content": "5 Ways to Take Care of a Cat - wikiHow\nLOG IN\nLog in\nFacebookLoading...\nGoogleLoading...\nCivicLoading...\nwikiHow Account\nNo account yet?\t\tCreate an account\nCommunity DashboardRandom ArticleAbout UsCategoriesRecent Changes\nHELP US\nWrite an ArticleRequest a New ArticleAnswer a RequestMore Ideas...\nEdit this Article\nWe use cookies to make wikiHow great. By using our site, you agree to our cookie policy.Okay\u2716\nHome\u00bb Categories\n\u00bb Pets and Animals \u00bb Cats\nHow to Take Care of a Cat\nCo-authored by\nPippa Elliott, MRCVS\nUpdated: May 8, 2019\nExplore this Article\nHousetraining Your Cat\nFeeding Your Cat\nKeeping Your Cat Healthy\nGetting a Good Cat\nFoods to Provide and Avoid Giving Your Cat\nShow 2 more...\nShow less...\nArticle Summary\nQuestions & Answers\nThis article was co-authored by Pippa Elliott, MRCVS. Dr. Elliott is a veterinarian with over thirty years of experience. She graduated from the University of Glasgow in 1987, and worked as a veterinary surgeon for 7 years. Afterward, Dr. Elliott worked as a veterinarian at an animal clinic for over a decade.There are 21 references cited in this article, which can be found at the bottom of the page.\nWith their playful personalities, affectionate behavior, and adorable faces, cats can be the ideal pet. But, despite popular opinion, cats are not maintenance-free! To keep your cat healthy and happy, you need to know how to take care of and provide the best possible life for your new furry friend.\nMethod 1\nHousetraining Your Cat\nEncourage the cat to use a litter box.[1] Most cats will prefer the litter box to other parts of the house because of the texture of the litter. But, there are still steps you need to take to make sure you're offering the litter box as the best place to use the bathroom.\nPlace the box in a quiet spot where the cat won\u2019t be bothered by people, dogs, or loud noises.\nTo keep the litter box clean, make sure you scoop the litter daily, and clean the box weekly. You should also replace or refresh the litter at least once a week.[2]\nProvide enough litter boxes for more than one cat. If you have 2 cats, you need 3 litter boxes in different areas of the home. One cat might try to intimidate a less dominate cat away from using a single box.\nMake the litter box a comfortable place. Don't frighten or startle your cat when it's using the box, or it may form a bad association with the box and start avoiding it. Buy a large box, even if you have to spend a little money on it. Cats are more comfortable in a larger (in area, not height) box.[3]\nDon\u2019t switch brands of litter on your cat, because cats don\u2019t like sudden change. Switching from a clay litter to a scoopable clumping type of litter or vice versa might upset the cat so much it stops using the box.\nDon\u2019t use heavily scented litters that might deter a cat from litter box use.\nTake young or old cats needs into consideration. Keep in mind that kittens and older cats with arthritis or other health problems may have problems getting in and out of a box that's too tall. Use low-height boxes in an easily accessible area for kittens and cats with special needs, or buy an adjustable litter box.\nProvide the cat with a scratching post. Scratching is a normal part of cat behavior, and there's no way you can train it out of them. If your cat still has its claws, he'll need one or two scratching posts to keep him from scratching up furniture, woodwork, and so on. By providing a post, you allow the cat to indulge in normal, healthy behavior.[4]\nDiscourage the cat from exploring forbidden surfaces. Cats are curious, and will jump on counters or other places you'd like them to steer clear of. Scat mats, a perfectly timed mist of water from a spray bottle, or even a stern \u201cno\u201d can correct this behavior. With time and patience, you can teach your cat to stay away from your protected areas.\nYou can also use a rattle can (an empty soda can filled with a few pebbles and the opening taped over). Toss it gently on the ground to scare a cat away from forbidden surfaces. DO NOT throw the can at the cat, for that may harm your cat.\nConsider using feline pheromone products. These products, which fill the air with calming synthetic pheromones, come as sprays or diffusers that plug into electrical outlets.[5] They can help resolve litter box or scratching issues, and have also been proven to calm stressed or anxious cats.\nMethod 2\nFeeding Your Cat\nDecide what type of food to feed your cat. Cat food comes in a vast array of types: dry food, semi-moist, and canned are the common types. Dry food is easily and efficiently stored, but cats go wild for the taste of semi-moist and canned foods. The latter types can add more fluid to the cat\u2019s diet than dry foods. In general, food type comes down to owner preference.\nOccasionally, a cat with a medical condition might need one type over another. Consult your veterinarian for recommendations.\nChoose a good brand of cat food. Like other animals, cats have some specific nutritional needs. They are \"obligate carnivores,\" which means they need animal proteins to avoid severe health consequences.[6] Ask your vet for suggestions about a good quality food. Cheaper products may not provide enough nutrition to keep your cat happy and healthy.\nLook for cat foods that list large amounts of animal meat like beef, chicken, turkey, or fish.[7]\nAlso look for important amino acids like taurine and arginine and fatty acids like arachidonic and linoleic acid.[8]\nAvoid feeding your cat human foods unless you have cleared the food with your veterinarian. Some human foods can make a cat severely sick or are even toxic to cats (e.g., chocolate).\nFollow your cat food's suggested feeding guide.[9] In general, cats are fed according to age, weight and activity levels. They prefer to eat frequent, small meals throughout the day.[10]\nAsk your vet for recommendations on what and how to feed your cat if you have any reservations.\nDon't overfeed your cat. Follow your veterinarian's recommendations closely and make sure your cat gets plenty of exercise, as obesity is one of the biggest health issues facing cats today. Obese cats are more likely to develop diabetes when they approach middle age. Extra weight also contributes to arthritis, heart disease, and other health problems in cats.[11]\nMethod 3\nKeeping Your Cat Healthy\nBrush your cat depending on it's coat needs. You may think that because cats seem to groom themselves, you don't need to brush them. But you do need to brush long-hair cats several times a week and short-hair cats weekly. This will help reduce shedding in your home and also help the cat avoid the dreaded hairballs.\nFor cats that tend to shed (long-haired ones especially), use a comb that has fine strands of metal. This gets deep into the undercoat and eliminates shedding.\nCheck the cat for skin conditions as you brush. Be on the lookout for any fleas or other parasites, and for any unusual redness, lumps, bumps, or other skin problems. If you see anything suspicious, let your veterinarian know and ask for advice on how you should take care of it.\nSchedule yearly vet visits.[12] Just like any member of the family, a cat needs regular medical visits. Unlike human children, cats can't let us know when they're not feeling well. They rely on their humans to take them to a veterinarian for regular medical examinations to keep them healthy. It is important that a cat sees a vet at least once a year, for a physical check-up: teeth, ears, eyes, heart, booster vaccinations, and deflea/deworm treatments. All cat owners should consider getting their pet vaccinated against the following: feline infectious enteritis (FIE), cat \u2018flu and feline leukemia virus (FeLV). All can kill cats if they become infected and so it is important to protect your pet. You may also find that a cattery will not accept your pet, should you need their services, without proof of these and potentially other vaccinations. Your vet can advise exactly what vaccinations are required for your pet. If you are at all concerned about your cat\u2019s health or behaviour you should see your vet as soon as possible.\nOlder cats might need to see a veterinarian twice yearly for optimal health.\nVisit the vet more frequently for kittens. Just like human babies, kittens need to see the vet more often than adult cats. Starting at around 8 weeks of age, they'll need 2-3 visits to have their vaccination series and worm treatments. At minimum, this includes the feline distemper vaccine and a rabies vaccine. Your vet will discuss the benefits of optional vaccinations as well. Ask about the risks of diseases like feline leukemia and make an informed decision about which vaccinations you want.\nThe vet will also check the kitten for fleas and ear mites, and treat them if needed.\nMake sure the kitten gets its worm treatment. Most kittens have roundworms that can stunt growth and potentially be transmitted to humans.\nGet your cat spayed or neutered (or \"fixed\"). Spaying a female cat or neutering a male cat has many positive benefits. It will cut down on unwanted behaviors like roaming and the tendency to spray urine. Physically, it protects against unwanted pregnancies and diseases like pyometra. The most important thing, though, is that it cuts down on the number of unwanted kittens in the world!\nAsk your vet for a recommendation on when to get kittens spayed or neutered. In general, vets recommend a range from 2-6 months.\nGet the cat used to tooth brushing. Cats can and do suffer from dental disease. To brush your cat's teeth, you need a soft-bristled toothbrush and veterinary toothpaste. Never use human toothpaste \u2014 too much fluoride can upset your cat's stomach, and with the high fluoride concentration in human toothpaste, too much could be toxic. Start by offering him/her a taste of the veterinary toothpaste. The next time, let him/her taste the toothpaste, and then run your finger along the gums of the upper teeth. Repeat the process with the toothbrush. Get the bristles of the brush along the gum line of the upper back teeth and angle slightly up, so the bristles get under the gum line. Work from back to front, making small circles along the gum lines. It should take you less than 30 seconds to brush your pet's teeth.\nDo not try to brush the entire mouth at first. If he/she only lets you brush the outside of her upper teeth, it's better than nothing. You're still addressing the most important area of dental disease prevention.\nSchedule professional tooth cleaning if needed. Even with the best tooth brushing, some cats may still need an occasional professional cleaning. While brushing reduces the plaque and buildup on the visible surfaces of the teeth it cannot get to the buildup just under the gum line. A professional cleaning also gives the vet a chance to fully examine her mouth under sedation. Some signs of dental disease include:[13]\nBad breath\nLoose teeth\nDiscolored teeth or teeth covered in tartar\nSensitivity or pain in the mouth\nDrooling a lot or dropping food while trying to eat\nLoss of appetite or weight loss\nMake sure your cat gets enough play time. Your cat needs interaction with you daily to keep him/her both emotionally happy and physically fit. Use cat toys, talking, and grooming as chances to spend time together. Laser pointers, balls, play mice, and feather toys are also good ways to engage your cat in play.\nMethod 4\nGetting a Good Cat\nDecide if you want a kitten or a full-grown cat.[14] Kittens are adorably tempting, but be honest with yourself about whether you'll be able to match that energy level, and handle that level of responsibility. Shelters are full of loving adult cats who have a much harder time getting adopted. An adult cat will be calmer and quieter than a kitten, but may also have behavioral issues from its early life. Adult cats may also have medical conditions you'll have to address sooner than you would with a kitten. Also, kittens often scratch very painfully; Decide if you want that.\nConsider medical concerns that may come with a specific cat. If you have your eye on one cat, in particular, ask about its medical history to see if it requires any long-term care. Would you be able to afford this cat's medical needs?\nEven if the cat is healthy, consider its breed. Purebred cats of different breeds can have their own genetic problems to overcome. For example, flat-faced cats like Manx and Scottish folds often develop breathing problems.[15]\nPurebred cats are more likely to have genetic medical problems than non-pedigreed cats.[16]\nConsider the amount of time you have for a cat. While a cat doesn't need daily walking like a dog, don't be fooled into thinking that cats and kittens aren't a time commitment. They're still active pets that need a lot of play, and affectionate companions who demand attention. You'll also spend time cleaning the litter box and giving the cat structured meals.\nThe average lifespan of an indoor cat is 13-17 years, so be aware that you're making a long-term commitment to a new family member.[17]\nCalculate whether you can afford a cat. The one-time purchase fee for a cat can range from $45 for a shelter adoption to several hundred dollars for a purebred cat. Beyond that, though, you'll have to pay for food, litter, toys, and regular medical expenses. The ASPCA estimates that in the first year of owning a cat, you will likely spend about $1,035 on it.[18] (That amount goes down after you've bought the major equipment and had your initial medical procedures.)\nConsider adopting a cat from an animal shelter. The cost is minimal considering what you get: a fully vaccinated, health examined, and spayed or neutered cat.[19] Any \u201cfree\u201d cat is ultimately going to cost you those things down the line, if you're a responsible cat owner.\nFoods to Provide and Avoid Giving Your Cat\nFoods Cats Can Eat\nFoods to Avoid Feeding Your Cat\nCommunity Q&A\nAdd New Question\nHow should you split your time with the cat if you have family members?\nPippa Elliott, MRCVS\nVeterinarian, Royal College of Veterinary Surgeons\nDr. Elliott is a veterinarian with over thirty years of experience. She graduated from the University of Glasgow in 1987, and worked as a veterinary surgeon for 7 years. Afterward, Dr. Elliott worked as a veterinarian at an animal clinic for over a decade.\nPippa Elliott, MRCVS\nVeterinarian, Royal College of Veterinary Surgeons\nExpert Answer\nCats need love and attention just like we do, but won't always demand it. This means you can chose the time to concentrate on the cat and give your undivided attention. Try and incorporate two five-minute play sessions into each day, a few minutes each day to groom the cat, and then speak and fuss the cat at mealtimes. Aside from that it only takes a few seconds for an ear or chin rub when the cat strolls by, but your cat will really appreciate the extra affection.\nThanks!\nNo\nNot Helpful 20\nHelpful 156\nWhich breed of cat we should choose?\nPippa Elliott, MRCVS\nVeterinarian, Royal College of Veterinary Surgeons\nDr. Elliott is a veterinarian with over thirty years of experience. She graduated from the University of Glasgow in 1987, and worked as a veterinary surgeon for 7 years. Afterward, Dr. Elliott worked as a veterinarian at an animal clinic for over a decade.\nPippa Elliott, MRCVS\nVeterinarian, Royal College of Veterinary Surgeons\nExpert Answer\nThis is a great question to ask and it's super to put thought into which type of cat is best suited to your household. Different cat breeds have different personalities, so the first thing is to decide what type of traits you want your cat to have. For example, a single older person might prefer a lapcat to cuddle and fuss, whilst a young family need a bombproof cat who loves to play and isn't phased by activity and noise. Write down a list of what your ideal cat would do e.g. playful, outgoing, loving or likes only one person, intelligent, easy to train. Then do some research online as to whether your preferred breed has those characteristics or not. Happily, there is a breed to match most people's ideal, so enjoy your research!\nThanks!\nNo\nNot Helpful 20\nHelpful 134\nWhy does my cat sometimes look at something when there's nothing there?\nCommunity Answer\nSometimes cats will stare off into space just like humans, or they might hear a sound and look around to identify where it came from.\nThanks!\nNo\nNot Helpful 1\nHelpful 34\nHow do I convince my parents to get a cat and a dachshund?\nCommunity Answer\nPerhaps start with just one pet -- the cat or the dachshund -- since two pets are a lot to ask. Before asking, prove to your parents that you are responsible and trustworthy. Find a good time to bring up the topic and give them good reasons to have a pet. If they had pets that they talked to you about, reminding them about how much they loved their pets may help.\nThanks!\nNo\nNot Helpful 0\nHelpful 20\nI have re-homed a cat but she is refusing to eat or drink. What do I do?\nSpiritWind The Fairy\nCommunity Answer\nTake her to the vet to make sure nothing is wrong. If nothing is wrong then ask for ways to get her to eat. She might not like her food, or maybe you need to wash her bowls and regularly put in fresh water. For my cat I got duck liver treats and crumbled them into a powder over my cats food and then she ate her food.\nThanks!\nNo\nNot Helpful 0\nHelpful 20\nHow much time should I spend with my cat every day?\nCommunity Answer\nAt a bare minimum, half an hour. While cats do sleep a lot, a lot of the time can be spent sitting near them while they sleep as you watch TV, read, knit or whatever, just so that you're all in the same place, happy together. Many hours can be whiled away like this. When they want to play, do so, as this will be the most fun time around them and is the best time for bonding.\nThanks!\nNo\nNot Helpful 23\nHelpful 223\nWhen should I give my cat a bath?\nCommunity Answer\nCats are not fond of water and can generally look after themselves when it comes to cleaning and grooming. However, you should bathe your cat at least monthly if it spends time outside. If your cat has fleas, bathing should happen as directed by your vet.\nThanks!\nNo\nNot Helpful 3\nHelpful 47\nIs it healthy for humans to keep a cat inside there house? What if the cat bites?\nCommunity Answer\nYes, it is healthy. Cats are clean animals and provided they're wormed and vaccinated regularly, they won't pass on anything to you. The only time to be extra vigilant is during a human pregnancy (see How to Prevent Infection from Toxoplasmosis for example). And the cat is not likely to bite if you have cared for it and don't let the cat bite (see How to Stop a Cat Biting You). Cats are good indoors.\nThanks!\nNo\nNot Helpful 21\nHelpful 181\nCan cats escape from an apartment that's on a high floor?\nCommunity Answer\nYes they can, especially if there is a tree nearby. If your balcony has a railing, try to put a mesh around it. Also, never leave your cat unattended on the balcony. Cats are agile, but they can fall; if your cat sits on the railing, there is no guarantee that she will keep her balance.\nThanks!\nNo\nNot Helpful 15\nHelpful 129\nWhat is the best type of scratching post? And how do I get my cat to use it?\nCommunity Answer\nThe type of scratching post that you get should always be a tall, vertical one. Before cats were tamed and still lived in the wild, and wild cats today, too, they sharpened their claws on the trunks of trees, and tame cats today still have that instinct to sharpen their claws on vertical objects. When you are choosing a scratching post for your cat, always go for the taller ones. Your cat should be able to stretch fairly far to be able to reach the very top. They like to reach really far up, and then drag their claws downward to sharpen their claws. If your cat scratcher is too short, your cat could resort to sharpening their claws on other objects that are tall enough for them.\nThanks!\nNo\nNot Helpful 1\nHelpful 25\nShow more answers\nAsk a Question\n200 characters left\nInclude your email address to get a message when this question is answered.\nAlready answered\nNot a question\nBad question\nwikiHow Video: How to Take Care of a Cat\nArticle SummaryX\nTo take care of a cat, feed it high-quality wet or dry food that contains a lot of meat, like beef, chicken, and turkey. The right amount to feed your cat depends on its age, weight, and activity levels, so make sure you're following the guidelines on the packaging so you're not overfeeding your feline friend. On top of feeding your cat a healthy diet, you'll want to set up a litter box so it can go to the bathroom indoors. Also, give your cat lots of toys, like yarn balls and stuffed mice, so it doesn't get bored. For tips on housetraining your cat, keep reading!\nDid this summary help you?YesNo\nMilk can upset a cat's stomach; water is the best fluid to give to your cat.\nTry giving filtered water to your cat, not tap water if your cat is a picky drinker.\nCats have claws and if they are excited, scared, angry, etc., they will use them. So beware, the cat will scratch you. Most scratches are accidental. If your cat scratches you during playtime just say: \"NO\" and stop playing with him/her. The cat will eventually learn to control their claws while playing.\nIf you get bitten or scratched by a cat, clean the wound with soap and water and then alcohol (or some other disinfectant) and apply a bandage. If you see swelling, or signs of infection, go see a doctor.\nBe careful what types of plants you keep in the house. Certain types of ornamental flowers can be extremely toxic to pets (e.g., Poinsettias).\nKeep your kitty indoors; outdoor cats have a much shorter lifespan than indoor cats due to injuries, disease, dog attacks, and other dangers.\nFor a fun treat, buy some catnip and pour a tiny pile onto a tile or hard floor (don't use on carpet unless you plan to vacuum!) Cats love catnip! They will frequently roll around in it, or eat it. Warning: cats sometimes get very active after exposure to catnip. It's harmless and a lot of fun.\nAsk your local vet to insert a tracking chip in your cat. This will make it easier to find your cat and track it down in case it gets lost.\nIf you are planning on getting a cat, make sure to have pet insurance in case something happens to your kitty. You could be saving thousands!\nGive your cat the chance to roam free all around the house untouched if it really wants you to pet it. It will come to you by itself.\nMake sure your cat has freedom to roam inside the house or else they may feel boxed in.\nMake sure your cat has it's own space; a space that nobody will bother it; a space to go to when it feels stressed or just wants to rest.\nNever abandon a cat if you don't want it anymore. Always take unwanted animals to the nearest animal shelter. They will take your dog or cat and try to find a good home for them. Abandoning animals is cruel.\nIf you play with your cat for a long time please provide water.\nNever use products intended for other animals on your cat.\nDon't make them do things against their will such as:\nRandomly picking them up whenever you like\nSqueezing them really tight\nNever declaw your cat, as it is equivalent to cutting a person's finger off at the first knuckle. It causes lifelong pain and makes the cat vulnerable to injury (if a predator somehow attacks it). [20]\nAlternatives to declawing include providing scratching posts, trimming claws, and using cat nail caps.[21]\nEditRelated wikiHows\nHow toTake Care of Your Pet\nHow toTake Care of Kittens\nHow toCare for a Cat with Feline Leukemia\nHow toTake Care of a Stray Cat\nHow toKeep a Stray Cat Away from Your Cat\nHow toCope with the Death of Your Cat\nHow toPet a Cat\nHow toRaise a Cat\nHow toBuy a Cat\nHow toAttract Cats\nHow toTest Your Cat's Intelligence\nHow toConvince Your Landlord to Accept Your Cat\n\u2191 Feline Internal Medicine Secrets. Michael R. Lappin, DVM, PhD. Hanley and Belfus, Inc. 2001\n\u2191 Litter Box Preference in Domestic cats: Covered Versus Uncovered. E.K. Grigg, et al. Journal of Feline Medicine and Surgery April 2013 vol. 15 no. 4 280-284\n\u2191 Litterbox Size Preference in Domestic Cats (Felis catus). N.C. Guy, et al. Journal of Veterinary Behavior-Clinical Applications and Research. March\u2013April, 2014Volume 9, Issue 2, Pages 78\u201382\n\u2191 Canine and Feline Behavior for Veterinary Technicians and Nurses. Edited by Julie Shaw and Debbie Martin. John Wiley & Sons, Inc. 2015\n\u2191 Clinical Trial of a Feline Pheromone Analogue for Feline Urine Marking. Niwako Ogata and Yukari Takeuch. Journal of Veterinary Medical Science Vol. 63 (2001) No. 2 P 157-161\n\u2191 Differences between cats and dogs: a nutritional view. 7. Veronique Legrand-Defretin (1994). Proceedings of the Nutrition Society, 53, pp 15-24. doi:10.1079/PNS19940004.\n\u2191 http://www.petmd.com/cat/slideshows/nutrition-center/choosing-best-cat-food\n\u2191 http://www.peteducation.com/article.cfm?c=1+2230&aid=2660\n\u2191 https://www.aspca.org/pet-care/cat-care/feeding-your-adult-cat\n\u2191 The Evolutionary Basis for the Feeding Behavior of Domestic Dogs (Canis familiaris) and Cats (Felis catus) John W.S. Bradshaw The Journal of Nutrition. July 2006 vol. 136 no. 7 1927S-1931S\n\u2191 The Growing Problem of Obesity in Dogs and Cats. Alexander J. German. The Journal of Nutrition. July 2006 vol. 136 no. 7 1940S-1946S\n\u2191 Feline Medicine and Therapeutics. E. A. Chandler, R. M. Gaskell, and C. J. Gaskel. Blackwell Publishing. 2004.\n\u2191 http://www.avdc.org/ownersinfo.html\n\u2191 http://www.adoptapet.com/blog/adopting-a-cat-or-a-kitten-which-is-better-for-me/\n\u2191 http://www.worldofdani.com/healthproblemsextremepersiansen2.htm\n\u2191 http://www.icatcare.org/advice/cat-breeds/inherited-disorders-cats\n\u2191 https://www.aspca.org/pet-care/cat-care/general-cat-care\n\u2191 https://www.aspca.org/adopt/pet-care-costs\n\u2191 http://www.animalhumanesociety.org/adopt/adoption-fees\n\u2191 https://www.peta.org/living/companion-animals/8-reasons-never-declaw-cats/\n\u2191 https://www.peta.org/living/companion-animals/8-reasons-never-declaw-cats/\nShow more... (12)\nMade Recently\nView more (40 total)\nUploaded 7 months ago\nUploaded 8 months ago\nUploaded 10 months ago\nUploaded 11 months ago\nUploaded 11 months ago\nLoading...\nAdd a photo\t\t\t\t\t\tUpload error\nAwesome picture! Tell us more about it? Click here to share your story.\nArticle Info\nFEATURED ARTICLE This article was co-authored by Pippa Elliott, MRCVS. Dr. Elliott is a veterinarian with over thirty years of experience. She graduated from the University of Glasgow in 1987, and worked as a veterinary surgeon for 7 years. Afterward, Dr. Elliott worked as a veterinarian at an animal clinic for over a decade.\nCategories: Featured Articles | Cats\nIn other languages:\nEspa\u00f1ol:\u00a0cuidar un gato,\u00a0Italiano:\u00a0Prenderti Cura di un Gatto,\u00a0\u0420\u0443\u0441\u0441\u043a\u0438\u0439:\u00a0\u0437\u0430\u0431\u043e\u0442\u0438\u0442\u044c\u0441\u044f \u043e \u043a\u043e\u0448\u043a\u0435,\u00a0Deutsch:\u00a0Sich um eine Katze k\u00fcmmern,\u00a0Fran\u00e7ais:\u00a0prendre soin d'un chat,\u00a0Ti\u1ebfng Vi\u1ec7t:\u00a0Ch\u0103m s\u00f3c M\u00e8o,\u00a0\u65e5\u672c\u8a9e:\u00a0\u732b\u306e\u4e16\u8a71\u3092\u3059\u308b,\u00a0Nederlands:\u00a0Voor een kat zorgen,\u00a0\u0627\u0644\u0639\u0631\u0628\u064a\u0629:\u00a0\u0627\u0644\u0627\u0647\u062a\u0645\u0627\u0645 \u0628\u0642\u0637\u0629,\u00a0\ud55c\uad6d\uc5b4:\u00a0\uace0\uc591\uc774\ub97c \ub3cc\ubcf4\ub294 \ubc95,\u00a0\u0e44\u0e17\u0e22:\u00a0\u0e27\u0e34\u0e18\u0e35\u0e01\u0e32\u0e23\u0e40\u0e25\u0e35\u0e49\u0e22\u0e07\u0e41\u0e21\u0e27,\u00a0Bahasa Indonesia:\u00a0Memelihara Kucing,\u00a0\u010ce\u0161tina:\u00a0Jak se starat o ko\u010dku,\u00a0Portugu\u00eas:\u00a0Cuidar de Gatos,\u00a0\u4e2d\u6587:\u00a0\u7167\u6599\u732b\u54aa\nEdit\nSend fan mail to authors\nThanks to all authors for creating a page that has been read 467,671 times.\nDid this article help you?\nNo\nCookies make wikiHow better. By continuing to use our site, you agree to our cookie policy.\nCo-Authored By:\nPippa Elliott, MRCVS\nVeterinarian, Royal College of Veterinary Surgeons\nCo-authors:\nUpdated: May 8, 2019\nViews:\u00a0467,671\n88% of readers found this article helpful.\n20 votes - 88%\nClick a star to add your vote\n88% of people told us that this article helped them.\nZinnia Wall\nJan 19\n\"I have two cats that I needed to look after, so I read this article and it helped me! \"\nRated this article:\nAnna Hernandz\nMar 6, 2018\n\"I have a female cat which my granddaughter fostered and decided to adopt from Ft Lauderdale and she is now with me in New Jersey.\nYour article has helped me learned about alot of things which I have been doing since I already owned a cat years ago.\nVery good article.\"...\" more\nDara Moh'd\nOct 9, 2017\n\"My father is getting 2 cats in a few days, but he doesn't know how to take care of them. He lives overseas, he lives alone and he works, so he wanted to know how to groom, play, feed, and treat them. This helped a lot. Thanks. \"...\" more\nAnonymous\nJan 20, 2018\n\"I have 3 cats, and this helped me to know how to care for them properly. Some of the tips were fantastic! I am also doing a project on this, and my content was marked as 100% and I got an A+. Thanks so much!\"...\" more\nRated this article:\nSadhna Sarla\nAug 14, 2016\n\"Yes, it's really helped me. Like\nhow to give the food, brushing, and all things. Thanks for giving all the instructions on how to take care of the cat.\"...\" more\nJasmine Myadmin\nMay 3, 2018\n\"I really love cats and wanted to buy one, but didn't know how to take care of it. Now that I know how to, I am very soon going to buy a cat!\"...\" more\nRated this article:\nRozlinizam Kudori\nNov 8, 2016\n\"This article really helped me to understand the basic needs when we plan to have cat at home, especially on cat behavior dos and don'ts.\"...\" more\nAnonymous\nFeb 27, 2017\n\"My cat is so awesome and it's all thanks to you guys! Even though he used to be mean, he is not any more! Thank you guys so much!\"...\" more\nAnonymous\nAug 2, 2016\n\"This helped me a lot because I'm getting a cat soon and I needed to know the things to do to keep her happy and heathly. \"...\" more\nTumisang Matloa\nJun 15, 2017\n\"I really wanted to know the intricacies of owning a cat and being a good owner. These tips gave a lot of perspective.\"...\" more\nPaige Turner\nOct 29, 2016\n\"This is really helpful and helped me take good care of my new cat. I really recommend this page for new cat-owners.\"\nDeborah Laslie\nAug 18, 2016\n\"There is a lot of different things about cats I didn't know.\nAlso, how to clean up urine odors. \"\nVi Nguyen\nJan 30, 2017\n\"I love the fact that it has pictures for the readers to better understand the article.\"\nXinXin Rose\nJul 27, 2017\n\"It increased my knowledge on caring for cats. It also prepares me for a cat.\"\nAnonymous\nOct 25, 2016\n\"Amazing! When I got my cat, he loved everything I got him! Thank you!\"\nMatt Barnes\nMar 20, 2016\n\"This helped because I did not know you had to brush your cat's teeth.\"\nM. Irfan Shakir\nAug 25, 2016\n\"I am totally new to this field. This article is very helpful to me.\"\nHelen\nJul 20, 2016\n\"Fantastic and informative article, the illustrations really helped.\"\nAvery Zeone\nMay 21, 2017\n\"The tips were really helpful. It taught me stuff I never knew.\"\nHannah Saffo\nFeb 16, 2018\n\"Thank you! Your articles are very good. I'm very pleased.\"\nZainab Khurram\nMar 25, 2018\n\"I am going to buy a cat, and this article helped me.\"\nRated this article:\nLittle rock rabbit\nJun 3, 2018\n\"Wow! This article is the best, my cat is so happy!\"\nTanaka Garikai\nOct 9, 2017\n\"It helped me get more information on keeping cats.\"\nM. Irfan Shakir\nAug 2, 2016\n\"I found the article very good, as I'm a beginner.\"\nLittle rock rabbit\nJun 3, 2018\n\"This is the most perfect thing I've ever seen!\"\nBuffy Champ\nMay 6, 2018\n\"The kitty litter training helped me very much!\"\nRated this article:\nAbby Sckull\nDec 12, 2016\n\"I was doing a project on this and I got an A.\"\nTanaka Garikai\nOct 9, 2017\n\"I now have more information on keeping cats.\"\nAnonymous\nApr 4, 2016\n\"This really helped for when I get a cat.\"\nKaren Summers\nMay 2, 2017\n\"This article has been extremely helpful.\"\nRated this article:\nShare yours!\nMore success stories\nAll success stories\nHide success stories\nQuick Tips\nRelated ArticlesHow toTake Care of Your PetHow toTake Care of KittensHow toCare for a Cat with Feline LeukemiaHow toTake Care of a Stray Cat\nDid this article help you?\nNo\nThanks for letting us know.\nAbout wikiHow\nTerms of Use\nSite Map\nMobile view\n390",
"comments_found": "False",
"comments": null,
"img": "[[None, 'https://www.wikihow.com/skins/owl/images/wikihow_logo.png', 'wikiHow logo'], [None, '/images/thumb/1/1c/Pippa_Elliott1.jpeg/-crop-200-200-150px-Pippa_Elliott1.jpeg', None], [None, None, 'Image titled Take Care of a Cat Step 6'], [None, 'https://www.wikihow.com/images/thumb/4/47/Take-Care-of-a-Cat-Step-6-Version-3.jpg/aid1101379-v4-728px-Take-Care-of-a-Cat-Step-6-Version-3.jpg', 'Image titled Take Care of a Cat Step 6'], [None, None, 'Image titled Take Care of a Cat Step 7'], [None, 'https://www.wikihow.com/images/thumb/6/6e/Take-Care-of-a-Cat-Step-7-Version-2.jpg/aid1101379-v4-728px-Take-Care-of-a-Cat-Step-7-Version-2.jpg', 'Image titled Take Care of a Cat Step 7'], [None, None, 'Image titled Take Care of a Cat Step 8'], [None, 'https://www.wikihow.com/images/thumb/d/d6/Take-Care-of-a-Cat-Step-8-Version-2.jpg/aid1101379-v4-728px-Take-Care-of-a-Cat-Step-8-Version-2.jpg', 'Image titled Take Care of a Cat Step 8'], [None, None, 'Image titled Take Care of a Cat Step 9'], [None, 'https://www.wikihow.com/images/thumb/0/0f/Take-Care-of-a-Cat-Step-9-Version-2.jpg/aid1101379-v4-728px-Take-Care-of-a-Cat-Step-9-Version-2.jpg', 'Image titled Take Care of a Cat Step 9'], [None, None, 'Image titled Take Care of a Cat Step 10'], [None, 'https://www.wikihow.com/images/thumb/0/0d/Take-Care-of-a-Cat-Step-10-Version-2.jpg/aid1101379-v4-728px-Take-Care-of-a-Cat-Step-10-Version-2.jpg', 'Image titled Take Care of a Cat Step 10'], [None, None, 'Image titled Take Care of a Cat Step 11'], [None, 'https://www.wikihow.com/images/thumb/d/dc/Take-Care-of-a-Cat-Step-11-Version-2.jpg/aid1101379-v4-728px-Take-Care-of-a-Cat-Step-11-Version-2.jpg', 'Image titled Take Care of a Cat Step 11'], [None, None, 'Image titled Take Care of a Cat Step 12'], [None, 'https://www.wikihow.com/images/thumb/2/26/Take-Care-of-a-Cat-Step-12-Version-2.jpg/aid1101379-v4-728px-Take-Care-of-a-Cat-Step-12-Version-2.jpg', 'Image titled Take Care of a Cat Step 12'], [None, None, 'Image titled Take Care of a Cat Step 13'], [None, 'https://www.wikihow.com/images/thumb/c/c0/Take-Care-of-a-Cat-Step-13-Version-2.jpg/aid1101379-v4-728px-Take-Care-of-a-Cat-Step-13-Version-2.jpg', 'Image titled Take Care of a Cat Step 13'], [None, None, 'Image titled Take Care of a Cat Step 14'], [None, 'https://www.wikihow.com/images/thumb/7/7b/Take-Care-of-a-Cat-Step-14-Version-2.jpg/aid1101379-v4-728px-Take-Care-of-a-Cat-Step-14-Version-2.jpg', 'Image titled Take Care of a Cat Step 14'], [None, None, 'Image titled Take Care of a Cat Step 15'], [None, 'https://www.wikihow.com/images/thumb/1/13/Take-Care-of-a-Cat-Step-15-Version-2.jpg/aid1101379-v4-728px-Take-Care-of-a-Cat-Step-15-Version-2.jpg', 'Image titled Take Care of a Cat Step 15'], [None, None, 'Image titled Take Care of a Cat Step 16'], [None, 'https://www.wikihow.com/images/thumb/f/fe/Take-Care-of-a-Cat-Step-16-Version-2.jpg/aid1101379-v4-728px-Take-Care-of-a-Cat-Step-16-Version-2.jpg', 'Image titled Take Care of a Cat Step 16'], [None, None, 'Image titled Take Care of a Cat Step 17'], [None, 'https://www.wikihow.com/images/thumb/7/72/Take-Care-of-a-Cat-Step-17-Version-2.jpg/aid1101379-v4-728px-Take-Care-of-a-Cat-Step-17-Version-2.jpg', 'Image titled Take Care of a Cat Step 17'], [None, None, 'Image titled Take Care of a Cat Step 18'], [None, 'https://www.wikihow.com/images/thumb/5/52/Take-Care-of-a-Cat-Step-18-Version-2.jpg/aid1101379-v4-728px-Take-Care-of-a-Cat-Step-18-Version-2.jpg', 'Image titled Take Care of a Cat Step 18'], [None, None, 'Image titled Take Care of a Cat Step 19'], [None, 'https://www.wikihow.com/images/thumb/a/a2/Take-Care-of-a-Cat-Step-19-Version-2.jpg/aid1101379-v4-728px-Take-Care-of-a-Cat-Step-19-Version-2.jpg', 'Image titled Take Care of a Cat Step 19'], [None, None, 'Image titled Take Care of a Cat Step 20'], [None, 'https://www.wikihow.com/images/thumb/9/95/Take-Care-of-a-Cat-Step-20-Version-2.jpg/aid1101379-v4-728px-Take-Care-of-a-Cat-Step-20-Version-2.jpg', 'Image titled Take Care of a Cat Step 20'], [None, None, 'Image titled Take Care of a Cat Step 21'], [None, 'https://www.wikihow.com/images/thumb/2/28/Take-Care-of-a-Cat-Step-21-Version-2.jpg/aid1101379-v4-728px-Take-Care-of-a-Cat-Step-21-Version-2.jpg', 'Image titled Take Care of a Cat Step 21'], [None, None, 'Image titled Take Care of a Cat Step 22'], [None, 'https://www.wikihow.com/images/thumb/8/87/Take-Care-of-a-Cat-Step-22-Version-2.jpg/aid1101379-v4-728px-Take-Care-of-a-Cat-Step-22-Version-2.jpg', 'Image titled Take Care of a Cat Step 22'], [None, None, 'Image titled Take Care of a Cat Step 23'], [None, 'https://www.wikihow.com/images/thumb/f/ff/Take-Care-of-a-Cat-Step-23-Version-2.jpg/aid1101379-v4-728px-Take-Care-of-a-Cat-Step-23-Version-2.jpg', 'Image titled Take Care of a Cat Step 23'], [None, None, 'Image titled Take Care of a Cat Step 1'], [None, 'https://www.wikihow.com/images/thumb/7/71/Take-Care-of-a-Cat-Step-1-Version-3.jpg/aid1101379-v4-728px-Take-Care-of-a-Cat-Step-1-Version-3.jpg', 'Image titled Take Care of a Cat Step 1'], [None, None, 'Image titled Take Care of a Cat Step 2'], [None, 'https://www.wikihow.com/images/thumb/f/f1/Take-Care-of-a-Cat-Step-2-Version-3.jpg/aid1101379-v4-728px-Take-Care-of-a-Cat-Step-2-Version-3.jpg', 'Image titled Take Care of a Cat Step 2'], [None, None, 'Image titled Take Care of a Cat Step 3'], [None, 'https://www.wikihow.com/images/thumb/a/a3/Take-Care-of-a-Cat-Step-3-Version-3.jpg/aid1101379-v4-728px-Take-Care-of-a-Cat-Step-3-Version-3.jpg', 'Image titled Take Care of a Cat Step 3'], [None, None, 'Image titled Take Care of a Cat Step 4'], [None, 'https://www.wikihow.com/images/thumb/c/c6/Take-Care-of-a-Cat-Step-4-Version-3.jpg/aid1101379-v4-728px-Take-Care-of-a-Cat-Step-4-Version-3.jpg', 'Image titled Take Care of a Cat Step 4'], [None, None, 'Image titled Take Care of a Cat Step 5'], [None, 'https://www.wikihow.com/images/thumb/1/1a/Take-Care-of-a-Cat-Step-5-Version-3.jpg/aid1101379-v4-728px-Take-Care-of-a-Cat-Step-5-Version-3.jpg', 'Image titled Take Care of a Cat Step 5'], [None, 'https://www.wikihow.com', None], [None, 'https://www.wikihow.com/images/thumb/c/c5/Foods-Cats-Can-Eat_sample.png/340px-Foods-Cats-Can-Eat_sample.png', None], [None, 'https://www.wikihow.com', None], [None, 'https://www.wikihow.com/images/thumb/b/b4/Foods-to-Avoid-Feeding-Your-Cat_sample.png/340px-Foods-to-Avoid-Feeding-Your-Cat_sample.png', None], [None, None, None], [None, None, 'Take Care of Your Pet'], [None, 'https://www.wikihow.com/images/thumb/2/28/Take-Care-of-a-Pet-Step-10-Version-2.jpg/-crop-342-184-245px-Take-Care-of-a-Pet-Step-10-Version-2.jpg', None], [None, None, 'Take Care of Kittens'], [None, 'https://www.wikihow.com/images/thumb/4/46/Take-Care-of-Kittens-Step-31-Version-3.jpg/-crop-342-184-245px-Take-Care-of-Kittens-Step-31-Version-3.jpg', None], [None, None, 'Care for a Cat with Feline Leukemia'], [None, 'https://www.wikihow.com/images/thumb/d/db/Care-for-a-Cat-with-Feline-Leukemia-Step-19.jpg/-crop-342-184-245px-Care-for-a-Cat-with-Feline-Leukemia-Step-19.jpg', None], [None, None, 'Take Care of a Stray Cat'], [None, 'https://www.wikihow.com/images/thumb/d/dc/Take-Care-of-a-Stray-Cat-Step-12.jpg/-crop-342-184-245px-Take-Care-of-a-Stray-Cat-Step-12.jpg', None], [None, None, 'Keep a Stray Cat Away from Your Cat'], [None, 'https://www.wikihow.com/images/thumb/8/83/Keep-a-Stray-Cat-Away-from-Your-Cat-Step-13.jpg/-crop-342-184-245px-Keep-a-Stray-Cat-Away-from-Your-Cat-Step-13.jpg', None], [None, None, 'Cope with the Death of Your Cat'], [None, 'https://www.wikihow.com/images/thumb/4/43/Cope-with-the-Death-of-Your-Cat-Step-14-Version-2.jpg/-crop-342-184-245px-Cope-with-the-Death-of-Your-Cat-Step-14-Version-2.jpg', None], [None, None, 'Pet a Cat'], [None, 'https://www.wikihow.com/images/thumb/7/7e/Pet-a-Cat-Step-15-Version-4.jpg/-crop-342-184-245px-Pet-a-Cat-Step-15-Version-4.jpg', None], [None, None, 'Raise a Cat'], [None, 'https://www.wikihow.com/images/thumb/4/46/Raise-a-Cat-Step-22.jpg/-crop-342-184-245px-Raise-a-Cat-Step-22.jpg', None], [None, None, 'Buy a Cat'], [None, 'https://www.wikihow.com/images/thumb/f/fe/Buy-a-Cat-Step-13-Version-2.jpg/-crop-342-184-245px-Buy-a-Cat-Step-13-Version-2.jpg', None], [None, None, 'Attract Cats'], [None, 'https://www.wikihow.com/images/thumb/6/6f/Attract-Cats-Step-13.jpg/-crop-342-184-245px-Attract-Cats-Step-13.jpg', None], [None, None, \"Test Your Cat's Intelligence\"], [None, 'https://www.wikihow.com/images/thumb/9/9a/Test-Your-Cat%27s-Intelligence-Step-7.jpg/-crop-342-184-264px-Test-Your-Cat%27s-Intelligence-Step-7.jpg', None], [None, None, 'Convince Your Landlord to Accept Your Cat'], [None, 'https://www.wikihow.com/images/thumb/2/2e/Convince-Your-Landlord-to-Accept-Your-Cat-Step-11.jpg/-crop-342-184-245px-Convince-Your-Landlord-to-Accept-Your-Cat-Step-11.jpg', None], [None, None, ''], [None, 'https://www.wikihow.com/images/thumb/8/81/User-Completed-Image-Take-Care-of-a-Cat-2018.11.03-14.35.36.0.jpg/-crop-225-225-225px-User-Completed-Image-Take-Care-of-a-Cat-2018.11.03-14.35.36.0.jpg', ''], [None, None, ''], [None, 'https://www.wikihow.com/images/thumb/2/25/User-Completed-Image-Take-Care-of-a-Cat-2018.10.12-21.21.13.0.jpg/-crop-225-225-225px-User-Completed-Image-Take-Care-of-a-Cat-2018.10.12-21.21.13.0.jpg', ''], [None, None, ''], [None, 'https://www.wikihow.com/images/thumb/d/de/User-Completed-Image-Take-Care-of-a-Cat-2018.08.15-08.08.46.0.jpeg/-crop-225-225-225px-User-Completed-Image-Take-Care-of-a-Cat-2018.08.15-08.08.46.0.jpeg', ''], [None, None, ''], [None, 'https://www.wikihow.com/images/thumb/d/d0/User-Completed-Image-Take-Care-of-a-Cat-2018.07.12-22.13.59.0.jpeg/-crop-225-225-225px-User-Completed-Image-Take-Care-of-a-Cat-2018.07.12-22.13.59.0.jpeg', ''], [None, None, ''], [None, 'https://www.wikihow.com/images/thumb/e/e1/User-Completed-Image-Take-Care-of-a-Cat-2018.07.12-22.12.08.0.jpeg/-crop-225-225-225px-User-Completed-Image-Take-Care-of-a-Cat-2018.07.12-22.12.08.0.jpeg', ''], [None, None, None], [None, 'https://www.wikihow.com/skins/WikiHow/images/80x80_user.png', None], [None, 'https://www.wikihow.com/skins/WikiHow/images/80x80_user.png', None], [None, None, None], [None, None, 'Take Care of Your Pet'], [None, 'https://www.wikihow.com/images/thumb/2/28/Take-Care-of-a-Pet-Step-10-Version-2.jpg/-crop-127-140-127px-Take-Care-of-a-Pet-Step-10-Version-2.jpg', None], [None, None, 'Take Care of Kittens'], [None, 'https://www.wikihow.com/images/thumb/4/46/Take-Care-of-Kittens-Step-31-Version-3.jpg/-crop-127-140-127px-Take-Care-of-Kittens-Step-31-Version-3.jpg', None], [None, None, 'Care for a Cat with Feline Leukemia'], [None, 'https://www.wikihow.com/images/thumb/d/db/Care-for-a-Cat-with-Feline-Leukemia-Step-19.jpg/-crop-127-140-127px-Care-for-a-Cat-with-Feline-Leukemia-Step-19.jpg', None], [None, None, 'Take Care of a Stray Cat'], [None, 'https://www.wikihow.com/images/thumb/d/dc/Take-Care-of-a-Stray-Cat-Step-12.jpg/-crop-127-140-127px-Take-Care-of-a-Stray-Cat-Step-12.jpg', None]]",
"class": "cats"
}