{
"url": "https://www.britannica.com/animal/longhair",
"title": "longhair | Cat, Description, & Facts | Britannica.com",
"meta": "{'keywords': 'Longhair, encyclopedia, encyclopeadia, britannica, article', 'description': 'Longhair: Longhair, breed of domestic cat noted for its long, soft, flowing coat. Long-haired cats were originally known as Persians or Angoras. These names were later discarded in favor of the name longhair, although the cats are still commonly called Persians in the United States.', 'og:type': 'ARTICLE', 'og:title': 'longhair | Cat, Description, & Facts', 'og:site_name': 'Encyclopedia Britannica'}",
"article_content": "Longhair, also called Persian,\nbreed of domestic cat noted for its long, soft, flowing coat. Long-haired cats were originally known as Persians or Angoras. These names were later discarded in favour of the name longhair, although the cats are still commonly called Persians in the United States. The longhair, a medium-sized or large cat with a cobby (stocky), short-legged body, has a broad, round head, a snub nose, and a short, heavily haired tail. The large, round eyes may be blue, orange, golden, green, or copper-coloured, depending on the colour of the cat. The soft, finely textured coat forms a heavy ruff about the neck.The longhair is bred in a number of colour varieties. The solid, or self, colours are white, black, blue, red, and cream. Patterned coats include shaded silver and black (smoke); silver, brown, blue, or red with darker markings (tabby); white finely ticked with black (chinchilla); cream, red, and black (tortoiseshell); calico, or tortoiseshell and white; blue-gray and cream intermingled (blue cream); and bicoloured. The colours of tortoiseshells, calicos, and blue creams are genetically linked with the sex of the cat. Almost all are females, and most of the few males are sterile. Blue-eyed white cats may be deaf.Longhairs with Siamese markings (i.e., pale body and dark face, ears, legs, and tail) are Himalayans, or colourpoints. Similarly marked longhairs with white paws are called Birmans. Peke-faced longhairs have short, pushed-in, Pekingese-like faces.Longhair cats, although generally considered more languorous than short-haired cats, are, like shorthairs, noted for playfulness, affection, and the ability to defend themselves if necessary.\nLike what you\u2019re reading?\nStart your free trial today for unlimited access to Britannica.\nSee the Table of Selected Longhair Breeds of Cats for further information.\nSelected longhair breeds of cats\nU.S.\nlong svelte body; sapphire-blue eyes\nmutation of Siamese; tail sways when walking, resembling Balinese dancers\nBurma (Myanmar)\ndeep blue eyes; bushy tail; white-gloved paws\nknown as the \u201cSacred Cat of Burma\u201d\nCanada\nstout with heavy chest; tailless\na longhair Manx\nHimalayan, or Colourpoint Longhair\nU.S., Europe\ncobby body; short full tail; sapphire-blue eyes\ncross between Siamese and Persian\nU.S.\ngraceful with long lithe body; silky coat\ncross between Balinese and Colourpoint Shorthair\nMaine Coon\nU.S.\nlarge and well-muscled; shaggy coat\noldest American breed\nNorwegian Forest\nrobust muscular body; double coat\na favourite of the goddess Freya in Norse mythology\nexact origin unknown, possibly Iran\ncobby body; massive head\none of the oldest and most popular breeds; many varieties\nU.S.\nheavy and powerful build; blue eyes\nrelaxes muscles when picked up, resembling a floppy rag doll\nU.S.\nlithe and muscular body; green or golden eyes; full brush tail\na longhair Abyssinian\nTurkish Angora\nlong plumed tail; large pointed ears\none of the first longhair cats in Europe\nThis article was most recently revised and updated by Adam Augustyn, Managing Editor.\nLearn More in these related Britannica articles:\ncat: Domestication\nThe Persian, whose colouring is often the same as that of mixed breeds (although the length of hair and the body conformation are distinctive), was probably crossed at various times with other breeds. The tailless Manx cat, like the hairless Sphynx cat and curly-coated Devon Rex,\u2026\nHimalayan,\nbreed of domestic cat with the colouring of the Siamese and the build and coat of the longhair, or Persian. The Himalayan is produced by matings between Siamese and longhairs followed by selected breeding of the offspring to bring out the proper colouring, coat,\u2026\nHistory at your fingertips\nSign up here to see what happened On This Day, every day in your inbox!\nBy signing up, you agree to our Privacy Notice.\nThank you for subscribing!\nBe on the lookout for your Britannica newsletter to get trusted stories delivered right to your inbox.\nADDITIONAL MEDIAMore About Longhair1 reference found in Britannica articlesAssorted Referencescharacteristics In cat: Domestication",
"comments_found": "False",
"comments": "name\norigin\ncharacteristics\ncomments",
"img": "[[None, 'https://cdn.britannica.com/s:700x450,q:1/90/178790-003-D88468D9.jpg', 'Balinese cat', None, None], [None, 'https://cdn.britannica.com/s:700x450,q:1/97/105097-003-F09EDB51.jpg', 'Birman cat', None, None], [None, 'https://cdn.britannica.com/s:700x450,q:1/92/178792-003-4E66D450.jpg', 'Cymric cat', None, None], [None, 'https://cdn.britannica.com/s:700x450,q:1/96/105096-003-BE17EB0E.jpg', 'Himalayan cat', None, None], [None, 'https://cdn.britannica.com/s:700x450,q:1/88/178788-003-CD75194F.jpg', 'Javanese cat', None, None], [None, 'https://cdn.britannica.com/s:700x450,q:1/95/105095-003-B68ADBE6.jpg', 'Maine Coon cat', None, None], [None, 'https://cdn.britannica.com/s:700x450,q:1/86/178786-003-6217378E.jpg', 'Norwegian Forest cat', None, None], [None, 'https://cdn.britannica.com/s:700x450,q:1/94/105094-003-8E27A400.jpg', 'Persian, or Persian Longhair, cat', None, None], [None, 'https://cdn.britannica.com/s:700x450,q:1/87/178787-003-8AEA3AF7.jpg', 'Ragdoll cat', None, None], [None, 'https://cdn.britannica.com/s:700x450,q:1/89/178789-003-20F6F6A7.jpg', 'Somali cat', None, None], [None, 'https://cdn.britannica.com/s:700x450,q:1/91/178791-003-918989D1.jpg', 'Turkish Angora cat', None, None], [None, 'https://cdn.britannica.com/s:180x300/39/7139-004-4C7C99F2.jpg', 'Himalayan, chocolate point.', None, None], [None, 'https://cdn.britannica.com/s:180x300/39/7139-004-4C7C99F2.jpg', 'Himalayan, chocolate point.', None, None], [None, 'https://cdn.britannica.com/marketing/newsletter-icon-white-SM.png', 'newsletter icon', None, None], [None, 'https://cdn.britannica.com/s:500x150,q:1/98/10198-004-17E2E9BD.jpg', 'White longhair', None, None]]",
"class": "cats"
}