{
"url": "https://www.sadanduseless.com/funny-bleps/#more-46897",
"title": " Cats Who Forgot To Put The Tongue Away",
"meta": "{'description': 'A stunning collection of adorable little bleps.', 'og:type': 'article', 'og:title': 'Cats Who Forgot To Put The Tongue Away'}",
"article_content": "t",
"comments_found": "False",
"comments": null,
"img": "[[None, 'https://sadanduseless.b-cdn.net/wp-content/uploads/2017/06/blep-cat2.jpg', '', '660', '495'], [None, 'https://sadanduseless.b-cdn.net/wp-content/uploads/2017/06/blep-cat1.jpg', '', '660', '495'], [None, 'https://sadanduseless.b-cdn.net/wp-content/uploads/2017/06/blep-cat3.jpg', '', '660', '495'], [None, 'https://sadanduseless.b-cdn.net/wp-content/uploads/2017/06/blep-cat4.jpg', '', '660', '495'], [None, 'https://sadanduseless.b-cdn.net/wp-content/uploads/2017/06/blep-cat5.jpg', '', '660', '660'], [None, 'https://sadanduseless.b-cdn.net/wp-content/uploads/2017/06/blep-cat6.jpg', '', '660', '717'], [None, 'https://sadanduseless.b-cdn.net/wp-content/uploads/2017/06/blep-cat7.jpg', '', '660', '495'], [None, 'https://sadanduseless.b-cdn.net/wp-content/uploads/2017/06/blep-cat8.jpg', '', '660', '495'], [None, 'https://sadanduseless.b-cdn.net/wp-content/uploads/2017/06/blep-cat9.jpg', '', '660', '495'], [None, 'https://sadanduseless.b-cdn.net/wp-content/uploads/2017/06/blep-cat10.jpg', '', '660', '495'], [None, 'https://sadanduseless.b-cdn.net/wp-content/uploads/2017/06/blep-cat11.jpg', '', '660', '880'], [None, 'https://sadanduseless.b-cdn.net/wp-content/uploads/2017/06/blep-cat12.jpg', '', '660', '495'], [None, 'https://sadanduseless.b-cdn.net/wp-content/uploads/2017/06/blep-cat13.jpg', '', '660', '495'], [None, 'https://sadanduseless.b-cdn.net/wp-content/uploads/2017/06/blep-cat14.jpg', '', '660', '495'], [None, 'https://sadanduseless.b-cdn.net/wp-content/uploads/2017/06/blep-cat15.jpg', '', '660', '495'], [None, 'https://sadanduseless.b-cdn.net/images/sau-logo.png', 'Welcome to the most depressive sad and useless humor site in the world!'], [None, 'https://sadanduseless.b-cdn.net/images/sau-logo-small2.png', 'Welcome to the most depressive sad and useless humor site in the world!'], [None, 'https://sadanduseless.b-cdn.net/wp-content/uploads/2017/06/blep-cat2.jpg', ''], [None, 'https://sadanduseless.b-cdn.net/wp-content/uploads/2017/06/blep-cat1.jpg', ''], [None, 'https://sadanduseless.b-cdn.net/wp-content/uploads/2017/06/blep-cat3.jpg', ''], [None, 'https://sadanduseless.b-cdn.net/wp-content/uploads/2017/06/blep-cat4.jpg', ''], [None, 'https://sadanduseless.b-cdn.net/wp-content/uploads/2017/06/blep-cat5.jpg', ''], [None, 'https://sadanduseless.b-cdn.net/wp-content/uploads/2017/06/blep-cat6.jpg', ''], [None, 'https://sadanduseless.b-cdn.net/wp-content/uploads/2017/06/blep-cat7.jpg', ''], [None, 'https://sadanduseless.b-cdn.net/wp-content/uploads/2017/06/blep-cat8.jpg', ''], [None, 'https://sadanduseless.b-cdn.net/wp-content/uploads/2017/06/blep-cat9.jpg', ''], [None, 'https://sadanduseless.b-cdn.net/wp-content/uploads/2017/06/blep-cat10.jpg', ''], [None, 'https://sadanduseless.b-cdn.net/wp-content/uploads/2017/06/blep-cat11.jpg', ''], [None, 'https://sadanduseless.b-cdn.net/wp-content/uploads/2017/06/blep-cat12.jpg', ''], [None, 'https://sadanduseless.b-cdn.net/wp-content/uploads/2017/06/blep-cat13.jpg', ''], [None, 'https://sadanduseless.b-cdn.net/wp-content/uploads/2017/06/blep-cat14.jpg', ''], [None, 'https://sadanduseless.b-cdn.net/wp-content/uploads/2017/06/blep-cat15.jpg', ''], [None, 'https://sadanduseless.b-cdn.net/images/top-crocs.jpg', None], [None, 'https://sadanduseless.b-cdn.net/images/top-alpacas.jpg', None], [None, 'https://sadanduseless.b-cdn.net/images/top-hands.jpg', None], [None, 'https://sadanduseless.b-cdn.net/images/top-wall.jpg', None], [None, 'https://sadanduseless.b-cdn.net/images/top-pup.jpg', None]]",
"class": "funny_cats"
}