{
"url": "https://www.huffingtonpost.co.uk/2016/01/07/toaster-scares-cat-video_n_8928422.html?utm_hp_ref=uk-funny-cats",
"title": "Toaster Scares Cat | HuffPost UK",
"meta": "{'keywords': 'uk comedy,cats,funny cats,funny cat videos,cat videos,UK Video,funny videos', 'description': \"We already know that cats are inexplicably terrified of cucumbers, but this particular feline was scared out of its wits by the simple act of toast popping out of a toaster.Maybe it's the sound, or th...\", 'og:type': 'article', 'og:title': 'Cat Is Ridiculously Terrified By Popping Toast', 'og:site_name': 'HuffPost UK'}",
"article_content": "COMEDY\n07/01/2016 07:11 GMT\n|\n07/01/2016 07:59 GMT\nToaster Scares Cat\nRyan Barrell\nThe Huffington Post UK\nWe already know that cats are inexplicably terrified of cucumbers, but this particular feline was scared out of its wits by the simple act of toast popping out of a toaster.Maybe it's the sound, or the sudden movement, or maybe the cat is just on a low-carb diet.[h/t Laughing Squid]MORE CAT VIDEOS:13 Cats Who Are Being Total A-Holes For No ReasonCute Kitten Dances To 'Uptown Funk'",
"comments_found": "False",
"comments": null,
"img": "[[None, 'https://i.imgflip.com/wyph7.gif', None, None, None]]",
"class": "funny_cats"
}