{
"url": "https://www.huffpost.com/entry/letter-from-your-cat_b_10211308",
"title": "Another Letter From Your Cat | HuffPost",
"meta": "{'keywords': 'Health Post50,Pets,funny cats,fifty,Humor,Cats,Dogs ,voices', 'description': 'Dear Human of Mine: As the cat of the house, I feel compelled to share with you my thoughts about the dog -- or more accurately, the dog problem.', 'og:type': 'blog', 'og:title': 'What Your Cat Would Love To Tell You If He Could Talk', 'og:site_name': 'HuffPost'}",
"article_content": "Janet Eve Josselyn,\nContributorArchitect, attorney, badass mother writer and the author of an irreverent novel, Thin Rich Bitches.\nAnother Letter From Your Cat\n06/03/2016 07:15 am ET\nDec 06, 2017\nDear Human of Mine,\nAs the cat of the house, I feel compelled to share with you my thoughts about the dog -- or more accurately, the dog problem.\nThe floppy-eared fur ball was sort-of cute when you brought the little puppy home a year ago. But the eat-machine has since swelled into gargantuan proportions. He may have an eating disorder. He gobbles up wads of gross stuff outside and anything he can get his mouth on inside, including my food. MY FOOD. We have to get rid of him.\nBut aside from all that and his propensity for drooling, have you noticed he is always on the wrong side of the door? I think he forgets why he wanted to go out so he wants to come back in. He's not very bright.\nDo you know what he does when you leave the house? He gets up on your bed. He does unnatural things to the sofa pillows. He also stands on his hind legs and licks the countertops. LICKS with his long slimy tongue! So gross.\nWhen he gets bored, he comes lookin' for trouble. Yup. Lookin' for me. He knows he is no match for me but because he's not so smart, he tries over and over to sneak up on me when he thinks I'm sleeping. But I'm not sleeping. I'm contemplating how to get rid of him with my eyes closed.\nIt's embarrassing how he runs to the door when you get home, wagging his butt and his tail, all wild and excited. So you've been gone for an hour. Who cares? He is so needy.\nAnyhoo, think about how much better the house will smell with only those of us who actually bathe ourselves. We could live in peace and serenity without the hairy beast. Just you and me, like it used to be.\nGive it some thought.\nOh, by the way, one of your new running shoes is buried in the back yard under the porch.\nYours truly,\nThe Cat\nphoto credit: Lucy via photopin (license)\nEarlier on Huff/Post50:\nPHOTO GALLERY\n7 Things Post 50s Say They're Addicted To\nREAL LIFE. REAL NEWS. REAL VOICES.\nHelp us tell more of the stories that matter from voices that too often remain unheard.\nJoin HuffPost Plus\nMORE:\nHealth Post50\nFunny Cats\nHumor",
"comments_found": "False",
"comments": null,
"img": "[[None, 'https://img.huffingtonpost.com/asset/5774811a1500002c006c8f3b.jpg?ops=100_100', 'headshot', '38px', '38px'], [None, 'https://images.huffingtonpost.com/2016-05-30-1464639114-5175427-26887730521_6745851eae-thumb.jpg', '2016-05-30-1464639114-5175427-26887730521_6745851eae.jpg', '500', '333']]",
"class": "funny_cats"
}