{
"url": "https://www.huffingtonpost.co.uk/entry/kitten-sees-itself-in-the-mirror-for-the-first-time-video_uk_5763bd4ae4b0a4f99adbc1ce?utm_hp_ref=uk-funny-cats",
"title": "Kitten Sees Itself In The Mirror For The First Time | HuffPost UK",
"meta": "{'keywords': 'uk comedy,Funny Videos,Animals,Cats,Cute Animals,funny animals,cat,cute videos, cute, cat videos,funny cats', 'description': '\ud83d\ude3a \ud83d\ude3a \ud83d\ude3a', 'og:type': 'article', 'og:title': \"Kitten's Reaction To Seeing Itself In The Mirror For The First Time Is Totes Adorbs\", 'og:site_name': 'HuffPost UK'}",
"article_content": "COMEDY\n17/06/2016 10:15 BST\nKitten Sees Itself In The Mirror For The First Time\n\ud83d\ude3a \ud83d\ude3a \ud83d\ude3a\nBy Ryan Barrell\nThe world is a strange place for a newborn kitten - everything is huge and confusing, and you learn new things everyday.This little cutie named Wiske had an absolutely adorable reaction to her first time seeing a mirror, when she clearly couldn't tell what was going on.YouTube Simon Newport shared the footage of the feline newborn last week, and later uploaded an 'Inception'-style follow up of Wiske watching herself watching herself in the mirror. Confusing, but very cute.Also on HuffPost\nSuggest a correction\nRyan Barrell\nWriter, The Huffington Post UK\nMORE: comedy Funny Videos Animals Cats Cute Animals funny animals cat cute videos\ncat videos funny cats\nSUBSCRIBE AND FOLLOW COMEDY\nGet top stories and blog posts emailed to me each day. Newsletters may offer personalized content or advertisements.\nLearn more\nPlease enter a valid email address\nThank you for signing up! You should receive an email to confirm your subscription shortly.\nThere was a problem processing your signup; please try again later\nTwitter\nPodcast\nFlipboard",
"comments_found": "False",
"comments": null,
"img": "[]",
"class": "funny_cats"
}