{
"url": "https://blog.codinghorror.com/to-serve-man-with-software/",
"title": "To Serve Man, with Software",
"meta": "{'description': 'a blog by Jeff Atwood on programming and human factors'}",
"article_content": "31 Dec 2017\nTo Serve Man, with Software\nI didn't choose to be a programmer. Somehow, it seemed, the computers chose me. For a long time, that was fine, that was enough; that was all I needed. But along the way I never felt that being a programmer was this unambiguously great-for-everyone career field with zero downsides. There are absolutely occupational hazards of being a programmer, and one of my favorite programming quotes is an allusion to one of them:\nIt should be noted that no ethically-trained software engineer would ever consent to write a DestroyBaghdad procedure. Basic professional ethics would instead require him to write a DestroyCity procedure, to which Baghdad could be given as a parameter.\nWhich reminds me of another joke that people were telling in 2015:\nDonald Trump is basically a comment section running for president\nWhich is troubling because technically, technically, I run a company that builds comment sections.\nHere at the tail end of 2017, from where I sit neither of these jokes seem particularly funny to me any more. Perhaps I have lost the capacity to feel joy as a human being? Haha just kidding! ... kinda.\nRemember in 2011 when Marc Andreeseen said that \"Software is eating the world?\"\nThat used to sound all hip and cool and inspirational, like \"Wow! We software developers really are making a difference in the world!\" and now for the life of me I can't read it as anything other than an ominous warning that we just weren't smart enough to translate properly at the time. But maybe now we are.\nI've said many, many times that the key to becoming an experienced software developer is to understand that you are, at all times, your own worst enemy. I don't mean this in a negative way \u2013 you have to constantly plan for and design around your inevitable human mistakes and fallibility. It's fundamental to good software engineering because, well, we're all human. The good-slash-bad news is that you're only accidentally out to get yourself. But what happens when we're infinitely connected and software is suddenly everywhere, in everyone's pockets every moment of the day, starting to approximate a natural extension of our bodies? All of a sudden those little collective social software accidents become considerably more dangerous:\nThe issue is bigger than any single scandal, I told him. As headlines have exposed the troubling inner workings of company after company, startup culture no longer feels like fodder for gentle parodies about ping pong and hoodies. It feels ugly and rotten. Facebook, the greatest startup success story of this era, isn\u2019t a merry band of hackers building cutesy tools that allow you to digitally Poke your friends. It\u2019s a powerful and potentially sinister collector of personal data, a propaganda partner to government censors, and an enabler of discriminatory advertising.\nI'm reminded of a particular Mitchell and Webb skit: \"Are we the baddies?\"\nOn the topic of unanticipated downsides to technology, there is no show more essential than Black Mirror. If you haven't watched Black Mirror yet, do not pass go, do not collect $200, go immediately to Netflix and watch it. Go on! Go ahead!\n\u26a0 Fair warning: please DO NOT start with season 1 episode 1 of Black Mirror! Start with season 3, and go forward. If you like those, dip into season 2 and the just-released season 4, then the rest. But humor me and please at least watch the first episode of season 3.\nThe technology described in Black Mirror can be fanciful at times, but several episodes portray disturbingly plausible scenarios with today's science and tech, much less what we'll have 20 to 50 years from now. These are very real cautionary tales, and some of this stuff is well on its way toward being realized.\nProgrammers don't think of themselves as people with the power to change the world. Most programmers I know, including myself, grew up as nerds, geeks, social outcasts. Did I ever tell you about the time I wrote a self-destructing Apple // boot disk program to let a girl in middle school know that I liked her? I was (and still am) a terrible programmer, but oh man did I ever test the heck out of that code before copying on to her school floppy disc. But I digress. What do you do when you wake up one day and software has kind of eaten the world, and it is no longer clear if software is in fact an unambiguously good thing, like we thought, like everyone told us \u2026 like we wanted it to be?\nMonths ago I submitted a brief interview for a children's book about coding.\nI recently recieved a complimentary copy of the book in the mail. I paged to my short interview, alongside the very cool Kiki Prottsman. I had no real recollection of the interview questions after the months of lead time it takes to print a physical book, but reading the printed page, I suddenly hit myself over the head with the very answer I had been searching my soul for these past 6 months:\nIn attempting to simplify my answers for an audience of kids, I had concisely articulated the one thing that keeps me coming back to software: to serve man. Not on a platter, for bullshit monetization \u2013 but software that helps people be the best version of themselves.\nAnd you know why I do it? I need that help, too. I get tired, angry, upset, emotional, cranky, irritable, frustrated and I need to be reminded from time to time to choose to be the better version of myself. I don't always succeed. But I want to. And I believe everyone else \u2013 for some reasonable statistical value of everyone else \u2013 fundamentally does, too.\nThat was the not-so-secret design philosophy behind Stack Overflow, that by helping others become better programmers, you too would become a better programmer. It's unavoidable. And, even better, if we leave enough helpful breadcrumbs behind for those that follow us, we collectively advance the whole of programming for everyone.\nI apologize for not blogging much in 2017.\nI've certainly been busy with Discourse which is actually going great; we grew to 21 people and gave $55,000 back this year to the open source ecosystem we build on. But that's no excuse. The truth is that it's been hard to write because this has been a deeply troubling year in so many dimensions \u2014 for men, for tech, for American democracy. I'm ashamed of much that happened, and I think one of the first and most important steps we can take is to embrace explicit codes of conduct throughout our industry. I also continue to believe, if we start to think more holistically about what our software can do to serve all people, not just ourselves personally (or, even worse, the company we work for) \u2014 that software can and should be part of the solution.\nI tried to amplify on these thoughts in recent podcasts:\nCommunity Engineering Report with Kim Crayton\nDeveloper on Fire with Dave Rael\nDorm Room Tycoon with William Channer\nSoftware is easy to change, but people ... aren't. So in the new year, as software developers, let's make a resolution to focus on the part we can change, and keep asking ourselves one very important question: how can our software help people become the best version of themselves?\nThere is no longer any such thing as Computer Security\nThe Existential Terror of Battle Royale\nWritten by Jeff Atwood\nIndoor enthusiast. Co-founder of Stack Overflow and Discourse. Disclaimer: I have no idea what I'm talking about. Find me here:\nhttp://twitter.com/codinghorror",
"comments_found": "False",
"comments": null,
"img": "[[None, '/content/images/2017/12/software-is-eating-the-world-marc-andreessen.jpg', 'software is eating the world, Marc Andreessen', None, None], [None, '/content/images/2017/12/to-serve-man.jpg', 'to-serve-man', None, None], [None, '/content/images/2017/12/9780241285060.jpg', None, '400', None], [None, '/content/images/2017/12/dk-findout-coding-page-50-quote.jpg', 'Jeff Atwood quote: what do you love most about coding?', None, None], [None, '/content/images/2017/12/kim-crayton.jpg', None, '100', '100'], [None, '/content/images/2017/12/dave-rael.jpg', None, '100', '100'], [None, '/content/images/2017/12/william-channer.jpg', None, '100', '100']]",
"class": "random"
}