{
"url": "https://catfriendly.com/cat-care-at-home/playing-with-your-cat/",
"title": "Playing With Your Cat | Cat Friendly Homes",
"meta": "{'og:type': 'article', 'og:title': 'Playing With Your Cat | The Cat Community', 'og:site_name': 'Cat Friendly Homes'}",
"article_content": "Playing With Your Cat\nSee more content in:\nKittens\nMost people love watching their cat stalk, pounce, and play. Cats are highly intelligent, naturally curious, and active creatures.\u00a0We need to make sure to provide them with plenty of mental and physical stimulation. Your cat needs to\u00a0be able to hunt, stalk, and act out\u00a0his natural, instinctive behaviors. Provide him\u00a0with appropriate resources so\u00a0he can play, engage in natural predatory behaviors, and have control over his\u00a0social interactions.\nHere are some suggestions and tips for cat-friendly play in your home:\nCat-Friendly Play\nBe sure to have a wide variety of toys and items that simulate or mimic the \u2018prey\u2019 cats naturally hunt (e.g., mice).\nToys that have erratic movements and simulate or mimic the movements of prey are very exciting to cats.\nRotate and change your cat\u2019s toys on a routine basis to keep\u00a0him interested. Some cats become bored with a toy after a few days, some a few weeks, and some prefer only one toy.\nAllow your cat to capture the \u2018prey\u2019 at the end of\u00a0his hunt/play session to satisfy\u00a0his natural hunting instinct. This also prevents\u00a0your cat from becoming frustrated. While lasers are very attractive to most cats, they don\u2019t allow your cat to\u00a0feel the sense of accomplishment of capturing the prey.\nTIP: If you use a laser, hide a treat or piece of kibble. Then at the\u00a0end, let your cat\u00a0capture the laser where the treat is hidden. This way he\u00a0feels like he captured the prey and is\u00a0rewarded.\nCats tend to play more when they are hungry. So manage his weight, feed him frequent small meals, or even hide food around the house to\u00a0help\u00a0encourage him\u00a0to play more often.\nOffer dry food in food puzzles to\u00a0entice your cat. This type of feeding simulates hunting and can aid weight loss in the overweight cat.\nIt is important to have toys and enrichment items (i.e. cat trees, perches, windows to watch outdoor activity) available for your cat to play by himself when you are not home.\nYou can also create do-it-yourself cat toys made out of common household items (i.e. paper towel rolls, boxes, socks, cardboard, crumpled paper, water bottles, etc.).\nWhen your cat walks away from you, he is\u00a0done playing. Do not force interaction, instead let him initiate, choose, and control the type of human contact he\u00a0desires. Each cat has their own individual preference regarding how much human interaction they prefer.\nHelpful Tips\nEncourage your cat to play by\u00a0using interactive toys that mimic prey, such as a toy mouse. You can pull the toy across a floor or wave a feather wand through the air.\nRemember\u00a0not to use string-type products\u00a0when playing with your cat. String, yarn, and similar type of products (i.e. rubber bands, tinsel, ribbon, streamers, etc.) are easily swallowed and cause very serious intestinal issues requiring surgery.\nIf the toys or products have loose pieces (i.e. bells, googly eyes, small pieces, etc.) or string-type materials that your cat can swallow, put them away after playtime. Many household items and children\u2019s toys can contain these type of materials. It is important\u00a0to monitor all items brought into your home and put away anything that can be dangerous for your cat.\nIntroduce interactive play early in your cat\u2019s life so he can\u00a0learn how to play with you.\nNever use your hands or feet as toys during play.\nAlthough it may seem cute with kittens, as your kitten grows into a cat, he will believe this is an appropriate form of play.\nScratching or biting can lead to painful injuries and infections.\nUse food puzzles or food balls to mimic the action of hunting for prey, and provide a more natural eating behavior. It can also help your cat eat more slowly as he needs to work for her food.\nReward your cat with treats to provide positive reinforcement.\nIf you have more than one cat, remember to play with them individually.\nTeach children and those unfamiliar with cats how to play appropriately with your cats. This will help prevent your cats from becoming frustrated or scared.\nPlay also provides your cat with much needed exercise. Exercise is critical in maintaining a healthy body weight and preventing your cat from becoming overweight or obese.\nA Cat-Friendly Environment\nDownload Brochure\nMake sure your cat has lots of safe hiding areas. This allows him a place to retreat to when\u00a0he needs some privacy. Tall-sided or igloo cat beds and cardboard boxes are good options.\nCats love elevated perches or cat trees so they can observe, feel safe, and well \u2013 feel superior.\nYour cat needs areas to act out his normal scratching behavior. So be sure to include scratching areas in your home where he can sharpen his nails and stretch his muscles.\nBe sure you place your cat\u2019s litter boxes where he can easily access them without any challenges or potential threats.\nPlace his food and water in a separate area where he can eat and drink without stress.\nIn general, the more cats you have in a household the more perches, hiding areas, and feeding/drinking areas you\u2019ll need so each cat can feel independent and comfortable in their home domain!\nContributed by Dr. Ken Lambrecht, DVM",
"comments_found": "False",
"comments": null,
"img": "[[None, 'http://catfriendly.com/wp-content/uploads/2016/08/catcare-play-600x399.jpg', 'catcare-play', '339', '225'], [None, 'https://catfriendly.com/wp-content/uploads/2017/06/CatDoctor063-1-300x300.jpg', '', '300', '300'], [None, 'https://catfriendly.com/wp-content/uploads/2017/09/Osborne-top-of-cat-tree-2-e1515092605172-300x300.jpg', '', '300', '300'], [None, 'http://catfriendly.com/wp-content/uploads/2016/08/EnvironmentalNeeds-BrochureCover-373x600.png', 'environmentalneeds-brochurecover', '200', '321']]",
"class": "cats"
}