{
"url": "https://www.sadanduseless.com/cats-acting-weird/#more-46992",
"title": " People Sharing Pictures of Their Cats Acting Weird",
"meta": "{'description': 'Have you ever walked into a room, looked at your cat, and thought that this creature must be out of this world?', 'og:type': 'article', 'og:title': 'People Sharing Pictures of Their Cats Acting Weird'}",
"article_content": "People Sharing Pictures of Their Cats Acting Weird Leave a comment As told by lilred181\n. As told by fastandfurry As told by saucedog As told by\u00a0george2legs As told by Vo1x As told by rainyysunshine As told by anyboozewilldo\nAs told by ThePlasticSanta As told by sarah_jean_gant As told by UninhabitedMan\nAs told by rc1honda As told by Drloomis222 As told by thefoxsay\n.",
"comments_found": "False",
"comments": null,
"img": "[[None, 'https://sadanduseless.b-cdn.net/wp-content/uploads/2017/06/weird-cat1.jpg', '', '660', '644'], [None, 'https://sadanduseless.b-cdn.net/wp-content/uploads/2017/06/weird-cat2.jpg', '', '660', '880'], [None, 'https://sadanduseless.b-cdn.net/wp-content/uploads/2017/06/weird-cat7.jpg', '', '660', '880'], [None, 'https://sadanduseless.b-cdn.net/wp-content/uploads/2017/06/weird-cat5.jpg', '', '660', '880'], [None, 'https://sadanduseless.b-cdn.net/wp-content/uploads/2017/06/weird-cat6.jpg', '', '660', '880'], [None, 'https://sadanduseless.b-cdn.net/wp-content/uploads/2017/06/weird-cat8.jpg', '', '660', '660'], [None, 'https://sadanduseless.b-cdn.net/wp-content/uploads/2017/06/weird-cat11.jpg', '', '660', '880'], [None, 'https://sadanduseless.b-cdn.net/wp-content/uploads/2017/06/weird-cat9.jpg', '', '660', '880'], [None, 'https://sadanduseless.b-cdn.net/wp-content/uploads/2017/06/weird-cat10.jpg', '', '660', '880'], [None, 'https://sadanduseless.b-cdn.net/wp-content/uploads/2017/06/weird-cat12.jpg', '', '660', '613'], [None, 'https://sadanduseless.b-cdn.net/wp-content/uploads/2017/06/weird-cat3.jpg', '', '660', '880'], [None, 'https://sadanduseless.b-cdn.net/wp-content/uploads/2017/06/weird-cat4.jpg', '', '660', '880'], [None, 'https://sadanduseless.b-cdn.net/wp-content/uploads/2017/06/weird-cat13.jpg', '', '660', '880']]",
"class": "funny_cats"
}