{
"url": "https://angel.co/blog/why-the-gender-pay-gap-gets-worse-not-better-among-senior-engineers",
"title": "Why The Gender Pay Gap Gets Worse\u2014Not Better\u2014For Senior Engineers | AngelList",
"meta": "{'description': 'A study of how salary expectations change among women and men engineers as their careers progress.', 'og:type': 'article', 'og:title': 'Why The Gender Pay Gap Gets Worse\u2014Not Better\u2014For Senior Engineers'}",
"article_content": "Why The Gender Pay Gap Gets Worse\u2014Not Better\u2014For Senior Engineers | AngelList\nLog In\nStartup Jobs\nInvest\nMore\nVenture Funds\nIncubators\nSalaries\nHelp\nVenture Funds\nIncubators\nSalaries\nHelp\nAngelList Blog\nHiring\nAngelList News\nThis website uses cookies to provide an optimal user experience.\nLearn more\nAccept\n7, 2018\nWhy The Gender Pay Gap Gets Worse\u2014Not Better\u2014For Senior Engineers\nCrunching the numbers on the pay gap is a challenge.\nCaleb Kaiser\nAngelList Talent\nTable of Contents\nFor New Engineers, There Is No Expectation Gap\nWhy Experts Think The Gap Grows Over Time\nHow Transparent Pay Policies Can Help Bridge The Gap\nThere is enough data to observe the problem in general: The U.S. Bureau of Labor Statistics found women engineers make 83% as much as men with similar experience. But to answer more complex problems, like how women engineers' salary expectations change over time, you have to dig deeper.\nWe wanted to better understand how the pay gap affects women engineers' salary expectations as they advance through their careers. Does the gap between what men and women expect to be paid shrink in more senior roles? Can we isolate an experience level where the gap widens or narrows significantly?\nTo answer these questions, we studied our own data, analyzing the salary expectations of thousands of engineers in Silicon Valley who currently have one to eight years of experience.\nFor New Engineers, There Is No Expectation Gap\nEngineers with zero years of experience have very similar salary expectations\u2014in fact, women expect roughly 2% more than men at this stage. As their careers move forward, though, men expect 50% larger raises for each year of experience than women do.\nThe year-to-year increase is more or less consistent. Men increase their salary expectations by about $9,000 a year, while women tend to increase theirs by $6,000 per year. By the time they have eight years of professional engineering experience behind them, men have salary expectations about 15% higher than what women expect.\nThe trend isn't isolated to engineers in Silicon Valley, either. The numbers are similar in New York.\nTable of Contents\nFor New Engineers, There Is No Expectation Gap\nWhy Experts Think The Gap Grows Over Time\nHow Transparent Pay Policies Can Help Bridge The Gap\nThe Weekly Newsletter\nTop jobs & tech news\u2014delivered\nWhy Experts Think The Gap Grows Over Time\n\u201cWomen negotiate less\u2014and ask for less when they do try to negotiate\u2014than men, and that's due to a couple of reasons,\u201d said Maya Raghu, director of workplace equality at The National Woman's Law Center.\nThe key reasons she cited were cultural biases, namely that \u201cwomen aren't taught to negotiate and are taught to be less aggressive,\u201d but also that \u201cthere are negative stereotypes associated with women who negotiate. They're seen as aggressive or greedy, whereas men who negotiate are seen as strong and leadership material.\u201d\nA 2018 study published in the Harvard Business Review found that while women ask for raises as often as men, women are less likely to receive them. Similarly, in 2007, a team at Harvard conducted a study in which 285 adults watched video footage of men and women candidates receiving job offers, some of whom negotiated their salaries. The participants were then asked to score how willing they would be to work with each candidate.\nResearchers found when a woman negotiated her salary, participants were 29% less willing to work with her. When men negotiated, though, participants were only 7% less willing to work with him. Women were penalized more than four times as much as men for negotiating.\n\u201cWhen women do try to negotiate and they get negative feedback,\u201d Raghu said, \u201cover time that can lead them to either lowball themselves or be less likely to try to negotiate.\u201d\nHow Transparent Pay Policies Can Help Bridge The Gap\nFixing the pay gap is a complicated fight. However, companies can begin to help bridge the gap in salary expectations by instituting transparent, objective formulas for calculating salaries.\nBuffer, the social scheduling platform, is a well-known example of this pay policy. Its employee salaries are calculated using a publicly available formula, and as a result, there is no pay gap between men and women employees who have the same credentials and roles.\n\u201cWhen employers hold all of the salary information,\u201d reads a 2018 report from The National Woman's Law Center, \u201cthey are at a significant advantage in negotiating the lowest possible salary, and women suffer most.\u201d\nBuffer's next hurdle, its leadership acknowledges, is elevating more women and minorities to high-paying roles. Because the company's early hires were mostly men, its senior positions are largely held by them. But with transparent salary practices and an emphasis on diversity, Buffer has been able to reduce its cumulative pay gap from 10.6% in 2016 to 5.7% in 2018.\nFor other companies eager to participate and shrink the gap in a meaningful way, one takeaway is clear: consider an open pay policy and calculate salaries in an objective, transparent way. A first step for companies\u2014or for candidates evaluating their own role's worth\u2014is to the determine the fair market value of a role. There are many free, online tools to help with research (we've also built one for you here).\nThen, as candidates or employees begin to advance, it's important for hiring managers to document why higher salaries are being granted. When \u201chiring managers are required to document why they are giving people money,\u201d Raghu said, \u201c[we can] check for unconscious bias.\u201d Absent that transparency, there is no reliable way of preventing unconscious bias from affecting salary negotiations.\n\u201cWe wholeheartedly believe that transparent salaries do a massive amount of good,\u201d notes Buffer's pay analysis. \u201cIf we considered what our gender pay gap would be without transparent salaries and a salary formula, we can almost guarantee it would be much larger.\u201d\nContinue reading\nAll articles\nThe Truth About Finding Your First Engineering Job\nCaleb Kaiser\nAngelList Talent\nThose Inflated Job Titles Aren't Fooling Recruiters\nCaleb Kaiser\nAngelList Talent\nIs Your Hiring Process Hurting Diversity?\nCaleb Kaiser\nAngelList Talent\nWeekly\nDelivering the top tech news, startup advice,\nand job opportunities to your inbox every week\nHelp\n\u00b7\n\u00b7\nJobs by Location\n\u00b7\nJobs by Market\n\u00b7\nJobs by Role\n\u00b7\n\u00b7\n\u00b7\nTerms & Risks\n\u00b7\nPrivacy Policy & Cookies\n\u00b7\n\u00b7\nPress",
"comments_found": "False",
"comments": null,
"img": "[[None, 'https://www.facebook.com/tr?id=2212641018949602&ev=PageView\\n&noscript=1', None], [None, '//images.ctfassets.net/e8i6c2002cqg/2L54AzyUxGi0UYwuqIUqqU/d6762764fa184bdc8ce7171237705eb4/SF_Gender_Gap_Mobile.png', None], [None, '//images.ctfassets.net/e8i6c2002cqg/N82Qib3d2SeaW2Me206as/9910e523de6b92faf1d78754399ad947/NYC_Gender_Gap_Mobile.png', None], [None, '//images.ctfassets.net/e8i6c2002cqg/ceJ3reo4Jt50UxKwttwdB/89a191b385ca8e98fa74f89e9d234c03/AngelList-FinalArt-Lundy_optimized.jpg', ''], [None, '//images.ctfassets.net/e8i6c2002cqg/yBK1skyDSuPGvhWQWOOjz/b61ea3464301765d8bc9bc3170f188b6/miotke_angellist_explodedviews_optimized.jpg', ''], [None, '//images.ctfassets.net/e8i6c2002cqg/680wwcnL7tMp5hpx3dW9a8/86238109460d46080947278f3ab1ae76/angelist_AlgorithmicInterviews_v2_01_optimized.jpg', ''], [None, 'https://angel.co/assets/static_pages/logo/AngelList_Blue_Victory_Hand_Filled-92cc83e5e28151b0bf3cd56b7ffaf2617e57cb922354683d604a9f0a463cd752.png', 'AngelList'], [None, 'https://dc.ads.linkedin.com/collect/?pid=510962&fmt=gif', '']]",
"class": "random"
}