{
"url": "https://www.sadanduseless.com/funny-animal-sculptures/#more-64595",
"title": " Japanese Artist Turns Awkward Animal Photos Into Funny Sculptures",
"meta": "{'description': 'From time to time, while scrolling through your social media timelines, you might find yourself staring at a viral photo of an awkwardly funny animal that seems to challenge the limits of reality. Japanese artist Meetissai decided to bring these images to life.', 'og:type': 'article', 'og:title': 'Japanese Artist Turns Awkward Animal Photos Into Funny Sculptures'}",
"article_content": "Japanese Artist Turns Awkward Animal Photos Into Funny Sculptures 6 CommentsFrom time to time, while scrolling through your social media timelines, you might find yourself staring at a viral photo of an awkwardly funny animal that seems to challenge the limits of reality.\u00a0 Japanese artist Meetissai decided to bring these images to life, so created sculptures of these internet-famous animals that were photographed in a very unusual, but at the same time hilarious, way.\n.\n.",
"comments_found": "False",
"comments": null,
"img": "[[None, 'https://sadanduseless.b-cdn.net/wp-content/uploads/2018/11/funny-sculpture1.jpg', 'Funny cat sculpture.', '660', '1326'], [None, 'https://sadanduseless.b-cdn.net/wp-content/uploads/2018/11/funny-sculpture2.jpg', 'Funny sitting cat sculpture.', '660', '1326'], [None, 'https://sadanduseless.b-cdn.net/wp-content/uploads/2018/11/funny-sculpture3.jpg', 'Funny cat that looks like a caterpillar sculpture.', '660', '1326'], [None, 'https://sadanduseless.b-cdn.net/wp-content/uploads/2018/11/funny-sculpture4.jpg', 'Levitating cat sculpture.', '660', '1326'], [None, 'https://sadanduseless.b-cdn.net/wp-content/uploads/2018/11/funny-sculpture5.jpg', 'Funny standing raccoon sculpture.', '660', '1326'], [None, 'https://sadanduseless.b-cdn.net/wp-content/uploads/2018/11/funny-sculpture6.jpg', 'Funny cat sculpture.', '660', '1378'], [None, 'https://sadanduseless.b-cdn.net/wp-content/uploads/2018/11/funny-sculpture7.jpg', 'Funny cat sculpture.', '660', '1491'], [None, 'https://sadanduseless.b-cdn.net/wp-content/uploads/2018/11/funny-sculpture8.jpg', 'Funny standing cat sculpture.', '660', '1284'], [None, 'https://sadanduseless.b-cdn.net/wp-content/uploads/2018/11/funny-sculpture10.jpg', 'Funny dog in a windy day sculpture.', '660', '1217'], [None, 'https://sadanduseless.b-cdn.net/wp-content/uploads/2018/11/funny-sculpture9.jpg', 'Funny cats sculpture.', '660', '1161'], [None, 'https://sadanduseless.b-cdn.net/wp-content/uploads/2018/11/funny-sculpture11.jpg', 'Funny screaming rabbit sculpture.', '660', '828']]",
"class": "funny_cats"
}