{
"url": "https://catfriendly.com/cat-care-at-home/first-year-life/",
"title": "First Year of Life | Cat Friendly Homes",
"meta": "{'og:type': 'article', 'og:title': 'First Year of Life | The Cat Community', 'og:site_name': 'Cat Friendly Homes'}",
"article_content": "First Year of Life\nSee more content in:\nKittens\nAdding a kitten (or 2 kittens) to your family is one of the most rewarding experiences. Two kittens can keep one another company, play together, and can share a long life together as best friends.\nThe first year is full of milestones for your kitty, from learning how to play and interact with your\u00a0family, to growing strong and healthy. It is important to learn to recognize and anticipate your kitten\u2019s natural behaviors while being proactive in your cat\u2019s health care plan. Kickstart your kitten\u2019s lifetime of wellness with proper vaccines, parasite prevention, and safe socialization so you can enjoy many happy years to come.\nThe First 8-10 Weeks\nWhether your kitten was acquired from a shelter or breeder, stray or gifted, there are some basics to make sure you start off on the right \u201cpaw:\u201d\nIdeally, kittens are with their mother and littermates for the first 8-10 weeks of their life. This period of time is called the socialization period. Kittens learn appropriate cat behavior and their experiences in this window of time help to shape life-long interactions with their environment.\nAt 8-10 weeks old, a kitten is ready to step out into the world and explore! No longer dependent on her mother and littermates for life lessons and entertainment, kittens show independence and an abundance of curiosity.\nFor many cat caregivers, this will be the strongest bonding time you share with your pet.\nPrepare Before You Bring Your Kitten Home\nBefore you bring your kitten home, try to prepare by having the following items ready:\nCat carrier, ideally with a front and top loading feature.\nClean, low profile litter box with at least two inches of litter (scoopable, unscented litter is preferred).\nToys.\nSeparate food and water bowls.\nGrooming brush or comb.\nKitten food, dry and canned.\nFind a Veterinarian ASAP\nA crucial step in preparing for your kitten to come home is to find a veterinarian you trust. We recommend you consider using a designated Cat Friendly Practice\u00ae. These veterinary practices have taken specific extra steps to make their practice more comfortable and welcoming for cats and their caregivers.\nMost kittens are full of energy and excitement. Don\u2019t let their energy distract you from keeping them healthy. Your kitten needs a thorough physical exam and protection from preventable diseases by receiving appropriate vaccines.\nIdeally, the first visit to the veterinarian should happen within the first week you bring your kitten home. If you have other cats in your household, your new kitten should be tested by your veterinarian before coming into your home.\nTo keep a kitten healthy, vaccines are given as a series at specific intervals beginning around 7-8 weeks old until they have developed sufficient immunity, typically around 16 weeks old. During this time your kitten will become protected against the \u201ccore\u201d group of diseases, panleukopenia (feline distemper), calicivirus, rhinotracheitis, and rabies.\nA less obvious point of wellness care is parasite prevention. Unfortunately, many parasites go undetected since young kittens can be infected without showing any clinical signs. To make sure your kitten does not have intestinal parasites, be sure to bring a stool sample to your first veterinary checkup. Your veterinarian will probably also de-worm your kitten at each visit since kittens don\u2019t always shed parasite eggs in their stool.\nAs your kitten grows older, your veterinarian will likely discuss spaying or neutering. This common surgery can be done as early as 7 weeks old, but typically cats are spayed and neutered a little older. Cats that are adopted from a shelter are usually spayed or neutered before going to their new homes.\nYour Kitty\u2019s Home \u2014 Let the Training Begin\nWhen you bring your little one home, she will want to explore! \u00a0Take time to show your kitten the litter box, feeding area, and carrier.\nTraining your kitten to be comfortable inside the carrier is an easy way to make her feel safe and secure when going to and from the veterinarian. It will also create a positive relationship with the carrier so you don\u2019t struggle getting her into the carrier.\nLeave the carrier open in your living area to encourage your kitten go in and out freely.\nFeed your kitten treats and put toys inside the carrier so she\u00a0has positive associations with\u00a0the carrier.\nTake your kitten for short car trips in the carrier so she isn\u2019t fearful of a car ride.\nHide\u00a0treats \u00a0in the carrier to add to the positive experience.\nKeep up with Your Kitten\u2019s Activity Level\nFor energetic kittens, mental activity is just as important as physical well-being.\nCats are stimulated by a variety of scents, sounds, and tactile experiences.\nIn felines, healthy development includes acting upon their natural predatory behaviors. Young kittens will naturally stalk, pounce, and roll around with toys unprovoked \u2013 a part of her inner big cat!\nIt comes as no surprise that a natural favorite for kittens is a furry toy mouse. Avoid stringy or yarn type toys as curious kittens may try to eat their toys instead of play.\nTo discourage biting or scratching, make sure that you avoid using hands and fingers as ways to engage play. Feather pole toys are excellent for playing with your little one while keeping your hands at a safe distance.\nGet Comfortable Seeing Your Veterinarian Often\nExpect to see your veterinarian multiple times in the first year of your cat\u2019s life.\nRoutine veterinary visits are a vital for your cat, helping her to live a long, healthy life.\nTogether, you and your veterinarian will become a united team creating and implementing your growing kitten\u2019s wellness plan.\nIn addition to being a new best friend, you will be the most important member of your cat\u2019s health team.\nEnjoy all the milestones your kitten\u2019s first year has to offer\u2013the beginning of a happy, healthy lifetime together.\nContributed by Laura Lee Muller, LVT",
"comments_found": "False",
"comments": "CommentsThis field is for validation purposes and should be left unchanged.",
"img": "[[None, 'http://catfriendly.com/wp-content/uploads/2016/08/catcare-kittenfirstyear.jpg', 'catcare-kittenfirstyear', '268', '296'], [None, 'https://catfriendly.com/wp-content/uploads/2016/10/canstockphoto19158571.jpg', '', '300', '200'], [None, 'https://catfriendly.com/wp-content/uploads/2016/10/canstockphoto39640224.jpg', '', '250', '167']]",
"class": "cats"
}